%!PS-Adobe-3.0 EPSF-3.0
%%Creator: (MATLAB, The Mathworks, Inc. Version 9.0.0.341360 \(R2016a\). Operating System: Windows 8)
%%Title: C:/Users/diego.pedregal/Dropbox/Trabajo/NOSTRUM/fig1.eps
%%CreationDate: 2016-10-05T16:21:05
%%Pages: (atend)
%%BoundingBox:    14    18   381   293
%%LanguageLevel: 3
%%EndComments
%%BeginProlog
%%BeginResource: procset (Apache XML Graphics Std ProcSet) 1.2 0
%%Version: 1.2 0
%%Copyright: (Copyright 2001-2003,2010 The Apache Software Foundation. License terms: http://www.apache.org/licenses/LICENSE-2.0)
/bd{bind def}bind def
/ld{load def}bd
/GR/grestore ld
/M/moveto ld
/LJ/setlinejoin ld
/C/curveto ld
/f/fill ld
/LW/setlinewidth ld
/GC/setgray ld
/t/show ld
/N/newpath ld
/CT/concat ld
/cp/closepath ld
/S/stroke ld
/L/lineto ld
/CC/setcmykcolor ld
/A/ashow ld
/GS/gsave ld
/RC/setrgbcolor ld
/RM/rmoveto ld
/ML/setmiterlimit ld
/re {4 2 roll M
1 index 0 rlineto
0 exch rlineto
neg 0 rlineto
cp } bd
/_ctm matrix def
/_tm matrix def
/BT { _ctm currentmatrix pop matrix _tm copy pop 0 0 moveto } bd
/ET { _ctm setmatrix } bd
/iTm { _ctm setmatrix _tm concat } bd
/Tm { _tm astore pop iTm 0 0 moveto } bd
/ux 0.0 def
/uy 0.0 def
/F {
  /Tp exch def
  /Tf exch def
  Tf findfont Tp scalefont setfont
  /cf Tf def  /cs Tp def
} bd
/ULS {currentpoint /uy exch def /ux exch def} bd
/ULE {
  /Tcx currentpoint pop def
  gsave
  newpath
  cf findfont cs scalefont dup
  /FontMatrix get 0 get /Ts exch def /FontInfo get dup
  /UnderlinePosition get Ts mul /To exch def
  /UnderlineThickness get Ts mul /Tt exch def
  ux uy To add moveto  Tcx uy To add lineto
  Tt setlinewidth stroke
  grestore
} bd
/OLE {
  /Tcx currentpoint pop def
  gsave
  newpath
  cf findfont cs scalefont dup
  /FontMatrix get 0 get /Ts exch def /FontInfo get dup
  /UnderlinePosition get Ts mul /To exch def
  /UnderlineThickness get Ts mul /Tt exch def
  ux uy To add cs add moveto Tcx uy To add cs add lineto
  Tt setlinewidth stroke
  grestore
} bd
/SOE {
  /Tcx currentpoint pop def
  gsave
  newpath
  cf findfont cs scalefont dup
  /FontMatrix get 0 get /Ts exch def /FontInfo get dup
  /UnderlinePosition get Ts mul /To exch def
  /UnderlineThickness get Ts mul /Tt exch def
  ux uy To add cs 10 mul 26 idiv add moveto Tcx uy To add cs 10 mul 26 idiv add lineto
  Tt setlinewidth stroke
  grestore
} bd
/QT {
/Y22 exch store
/X22 exch store
/Y21 exch store
/X21 exch store
currentpoint
/Y21 load 2 mul add 3 div exch
/X21 load 2 mul add 3 div exch
/X21 load 2 mul /X22 load add 3 div
/Y21 load 2 mul /Y22 load add 3 div
/X22 load /Y22 load curveto
} bd
/SSPD {
dup length /d exch dict def
{
/v exch def
/k exch def
currentpagedevice k known {
/cpdv currentpagedevice k get def
v cpdv ne {
/upd false def
/nullv v type /nulltype eq def
/nullcpdv cpdv type /nulltype eq def
nullv nullcpdv or
{
/upd true def
} {
/sametype v type cpdv type eq def
sametype {
v type /arraytype eq {
/vlen v length def
/cpdvlen cpdv length def
vlen cpdvlen eq {
0 1 vlen 1 sub {
/i exch def
/obj v i get def
/cpdobj cpdv i get def
obj cpdobj ne {
/upd true def
exit
} if
} for
} {
/upd true def
} ifelse
} {
v type /dicttype eq {
v {
/dv exch def
/dk exch def
/cpddv cpdv dk get def
dv cpddv ne {
/upd true def
exit
} if
} forall
} {
/upd true def
} ifelse
} ifelse
} if
} ifelse
upd true eq {
d k v put
} if
} if
} if
} forall
d length 0 gt {
d setpagedevice
} if
} bd
%%EndResource
%%BeginResource: procset (Apache XML Graphics EPS ProcSet) 1.0 0
%%Version: 1.0 0
%%Copyright: (Copyright 2002-2003 The Apache Software Foundation. License terms: http://www.apache.org/licenses/LICENSE-2.0)
/BeginEPSF { %def
/b4_Inc_state save def         % Save state for cleanup
/dict_count countdictstack def % Count objects on dict stack
/op_count count 1 sub def      % Count objects on operand stack
userdict begin                 % Push userdict on dict stack
/showpage { } def              % Redefine showpage, { } = null proc
0 setgray 0 setlinecap         % Prepare graphics state
1 setlinewidth 0 setlinejoin
10 setmiterlimit [ ] 0 setdash newpath
/languagelevel where           % If level not equal to 1 then
{pop languagelevel             % set strokeadjust and
1 ne                           % overprint to their defaults.
{false setstrokeadjust false setoverprint
} if
} if
} bd
/EndEPSF { %def
count op_count sub {pop} repeat            % Clean up stacks
countdictstack dict_count sub {end} repeat
b4_Inc_state restore
} bd
%%EndResource
%FOPBeginFontDict
%%IncludeResource: font Courier-Bold
%%IncludeResource: font Helvetica
%%IncludeResource: font Courier-BoldOblique
%%IncludeResource: font Courier-Oblique
%%IncludeResource: font Times-Roman
%%IncludeResource: font Helvetica-BoldOblique
%%IncludeResource: font Helvetica-Bold
%%IncludeResource: font Helvetica-Oblique
%%IncludeResource: font Times-BoldItalic
%%IncludeResource: font Courier
%%IncludeResource: font Times-Italic
%%IncludeResource: font Times-Bold
%%IncludeResource: font Symbol
%%IncludeResource: font ZapfDingbats
%FOPEndFontDict
%%BeginResource: encoding WinAnsiEncoding
/WinAnsiEncoding [
/.notdef /.notdef /.notdef /.notdef /.notdef
/.notdef /.notdef /.notdef /.notdef /.notdef
/.notdef /.notdef /.notdef /.notdef /.notdef
/.notdef /.notdef /.notdef /.notdef /.notdef
/.notdef /.notdef /.notdef /.notdef /.notdef
/.notdef /.notdef /.notdef /.notdef /.notdef
/.notdef /.notdef /space /exclam /quotedbl
/numbersign /dollar /percent /ampersand /quotesingle
/parenleft /parenright /asterisk /plus /comma
/hyphen /period /slash /zero /one
/two /three /four /five /six
/seven /eight /nine /colon /semicolon
/less /equal /greater /question /at
/A /B /C /D /E
/F /G /H /I /J
/K /L /M /N /O
/P /Q /R /S /T
/U /V /W /X /Y
/Z /bracketleft /backslash /bracketright /asciicircum
/underscore /quoteleft /a /b /c
/d /e /f /g /h
/i /j /k /l /m
/n /o /p /q /r
/s /t /u /v /w
/x /y /z /braceleft /bar
/braceright /asciitilde /bullet /Euro /bullet
/quotesinglbase /florin /quotedblbase /ellipsis /dagger
/daggerdbl /circumflex /perthousand /Scaron /guilsinglleft
/OE /bullet /Zcaron /bullet /bullet
/quoteleft /quoteright /quotedblleft /quotedblright /bullet
/endash /emdash /asciitilde /trademark /scaron
/guilsinglright /oe /bullet /zcaron /Ydieresis
/space /exclamdown /cent /sterling /currency
/yen /brokenbar /section /dieresis /copyright
/ordfeminine /guillemotleft /logicalnot /sfthyphen /registered
/macron /degree /plusminus /twosuperior /threesuperior
/acute /mu /paragraph /middot /cedilla
/onesuperior /ordmasculine /guillemotright /onequarter /onehalf
/threequarters /questiondown /Agrave /Aacute /Acircumflex
/Atilde /Adieresis /Aring /AE /Ccedilla
/Egrave /Eacute /Ecircumflex /Edieresis /Igrave
/Iacute /Icircumflex /Idieresis /Eth /Ntilde
/Ograve /Oacute /Ocircumflex /Otilde /Odieresis
/multiply /Oslash /Ugrave /Uacute /Ucircumflex
/Udieresis /Yacute /Thorn /germandbls /agrave
/aacute /acircumflex /atilde /adieresis /aring
/ae /ccedilla /egrave /eacute /ecircumflex
/edieresis /igrave /iacute /icircumflex /idieresis
/eth /ntilde /ograve /oacute /ocircumflex
/otilde /odieresis /divide /oslash /ugrave
/uacute /ucircumflex /udieresis /yacute /thorn
/ydieresis
] def
%%EndResource
%FOPBeginFontReencode
/Courier-Bold findfont
dup length dict begin
  {1 index /FID ne {def} {pop pop} ifelse} forall
  /Encoding WinAnsiEncoding def
  currentdict
end
/Courier-Bold exch definefont pop
/Helvetica findfont
dup length dict begin
  {1 index /FID ne {def} {pop pop} ifelse} forall
  /Encoding WinAnsiEncoding def
  currentdict
end
/Helvetica exch definefont pop
/Courier-BoldOblique findfont
dup length dict begin
  {1 index /FID ne {def} {pop pop} ifelse} forall
  /Encoding WinAnsiEncoding def
  currentdict
end
/Courier-BoldOblique exch definefont pop
/Courier-Oblique findfont
dup length dict begin
  {1 index /FID ne {def} {pop pop} ifelse} forall
  /Encoding WinAnsiEncoding def
  currentdict
end
/Courier-Oblique exch definefont pop
/Times-Roman findfont
dup length dict begin
  {1 index /FID ne {def} {pop pop} ifelse} forall
  /Encoding WinAnsiEncoding def
  currentdict
end
/Times-Roman exch definefont pop
/Helvetica-BoldOblique findfont
dup length dict begin
  {1 index /FID ne {def} {pop pop} ifelse} forall
  /Encoding WinAnsiEncoding def
  currentdict
end
/Helvetica-BoldOblique exch definefont pop
/Helvetica-Bold findfont
dup length dict begin
  {1 index /FID ne {def} {pop pop} ifelse} forall
  /Encoding WinAnsiEncoding def
  currentdict
end
/Helvetica-Bold exch definefont pop
/Helvetica-Oblique findfont
dup length dict begin
  {1 index /FID ne {def} {pop pop} ifelse} forall
  /Encoding WinAnsiEncoding def
  currentdict
end
/Helvetica-Oblique exch definefont pop
/Times-BoldItalic findfont
dup length dict begin
  {1 index /FID ne {def} {pop pop} ifelse} forall
  /Encoding WinAnsiEncoding def
  currentdict
end
/Times-BoldItalic exch definefont pop
/Courier findfont
dup length dict begin
  {1 index /FID ne {def} {pop pop} ifelse} forall
  /Encoding WinAnsiEncoding def
  currentdict
end
/Courier exch definefont pop
/Times-Italic findfont
dup length dict begin
  {1 index /FID ne {def} {pop pop} ifelse} forall
  /Encoding WinAnsiEncoding def
  currentdict
end
/Times-Italic exch definefont pop
/Times-Bold findfont
dup length dict begin
  {1 index /FID ne {def} {pop pop} ifelse} forall
  /Encoding WinAnsiEncoding def
  currentdict
end
/Times-Bold exch definefont pop
%FOPEndFontReencode
%%EndProlog
%%Page: 1 1
%%PageBoundingBox: 0 0 420 315
%%BeginPageSetup
[1 0 0 -1 0 315] CT
%%EndPageSetup
GS
[0.75 0 0 0.75 0 0] CT
0.997 GC
N
0 0 560 420 re
f
GR
GS
[0.75 0 0 0.75 0 0] CT
0.997 GC
N
0 0 560 420 re
f
GR
GS
[0.75 0 0 0.75 0 0] CT
0.997 GC
N
73 101 M
507 101 L
507 31 L
73 31 L
cp
f
GR
GS
[0.75 0 0 0.75 0 0] CT
0 GC
2 setlinecap
1 LJ
1.333 LW
N
73 101 M
507 101 L
S
GR
GS
[0.75 0 0 0.75 0 0] CT
0 GC
2 setlinecap
1 LJ
1.333 LW
N
73 31 M
507 31 L
S
GR
GS
[0.75 0 0 0.75 0 0] CT
0 GC
2 setlinecap
1 LJ
1.333 LW
N
73 101 M
73 96.66 L
S
GR
GS
[0.75 0 0 0.75 0 0] CT
0 GC
2 setlinecap
1 LJ
1.333 LW
N
114.892 101 M
114.892 96.66 L
S
GR
GS
[0.75 0 0 0.75 0 0] CT
0 GC
2 setlinecap
1 LJ
1.333 LW
N
156.784 101 M
156.784 96.66 L
S
GR
GS
[0.75 0 0 0.75 0 0] CT
0 GC
2 setlinecap
1 LJ
1.333 LW
N
198.676 101 M
198.676 96.66 L
S
GR
GS
[0.75 0 0 0.75 0 0] CT
0 GC
2 setlinecap
1 LJ
1.333 LW
N
240.568 101 M
240.568 96.66 L
S
GR
GS
[0.75 0 0 0.75 0 0] CT
0 GC
2 setlinecap
1 LJ
1.333 LW
N
282.459 101 M
282.459 96.66 L
S
GR
GS
[0.75 0 0 0.75 0 0] CT
0 GC
2 setlinecap
1 LJ
1.333 LW
N
324.351 101 M
324.351 96.66 L
S
GR
GS
[0.75 0 0 0.75 0 0] CT
0 GC
2 setlinecap
1 LJ
1.333 LW
N
366.243 101 M
366.243 96.66 L
S
GR
GS
[0.75 0 0 0.75 0 0] CT
0 GC
2 setlinecap
1 LJ
1.333 LW
N
408.135 101 M
408.135 96.66 L
S
GR
GS
[0.75 0 0 0.75 0 0] CT
0 GC
2 setlinecap
1 LJ
1.333 LW
N
450.027 101 M
450.027 96.66 L
S
GR
GS
[0.75 0 0 0.75 0 0] CT
0 GC
2 setlinecap
1 LJ
1.333 LW
N
491.919 101 M
491.919 96.66 L
S
GR
GS
[0.75 0 0 0.75 0 0] CT
0 GC
2 setlinecap
1 LJ
1.333 LW
N
73 31 M
73 35.34 L
S
GR
GS
[0.75 0 0 0.75 0 0] CT
0 GC
2 setlinecap
1 LJ
1.333 LW
N
114.892 31 M
114.892 35.34 L
S
GR
GS
[0.75 0 0 0.75 0 0] CT
0 GC
2 setlinecap
1 LJ
1.333 LW
N
156.784 31 M
156.784 35.34 L
S
GR
GS
[0.75 0 0 0.75 0 0] CT
0 GC
2 setlinecap
1 LJ
1.333 LW
N
198.676 31 M
198.676 35.34 L
S
GR
GS
[0.75 0 0 0.75 0 0] CT
0 GC
2 setlinecap
1 LJ
1.333 LW
N
240.568 31 M
240.568 35.34 L
S
GR
GS
[0.75 0 0 0.75 0 0] CT
0 GC
2 setlinecap
1 LJ
1.333 LW
N
282.459 31 M
282.459 35.34 L
S
GR
GS
[0.75 0 0 0.75 0 0] CT
0 GC
2 setlinecap
1 LJ
1.333 LW
N
324.351 31 M
324.351 35.34 L
S
GR
GS
[0.75 0 0 0.75 0 0] CT
0 GC
2 setlinecap
1 LJ
1.333 LW
N
366.243 31 M
366.243 35.34 L
S
GR
GS
[0.75 0 0 0.75 0 0] CT
0 GC
2 setlinecap
1 LJ
1.333 LW
N
408.135 31 M
408.135 35.34 L
S
GR
GS
[0.75 0 0 0.75 0 0] CT
0 GC
2 setlinecap
1 LJ
1.333 LW
N
450.027 31 M
450.027 35.34 L
S
GR
GS
[0.75 0 0 0.75 0 0] CT
0 GC
2 setlinecap
1 LJ
1.333 LW
N
491.919 31 M
491.919 35.34 L
S
GR
GS
[0.75 0 0 0.75 54.75 79.75] CT
0 GC
/Helvetica 13.333 F
GS
[1 0 0 1 0 0] CT
-4 14 moveto 
1 -1 scale
(0) t 
GR
GR
GS
[0.75 0 0 0.75 86.16892 79.75] CT
0 GC
/Helvetica 13.333 F
GS
[1 0 0 1 0 0] CT
-7.5 14 moveto 
1 -1 scale
(50) t 
GR
GR
GS
[0.75 0 0 0.75 117.58784 79.75] CT
0 GC
/Helvetica 13.333 F
GS
[1 0 0 1 0 0] CT
-11 14 moveto 
1 -1 scale
(100) t 
GR
GR
GS
[0.75 0 0 0.75 149.00676 79.75] CT
0 GC
/Helvetica 13.333 F
GS
[1 0 0 1 0 0] CT
-11 14 moveto 
1 -1 scale
(150) t 
GR
GR
GS
[0.75 0 0 0.75 180.42567 79.75] CT
0 GC
/Helvetica 13.333 F
GS
[1 0 0 1 0 0] CT
-11 14 moveto 
1 -1 scale
(200) t 
GR
GR
GS
[0.75 0 0 0.75 211.8446 79.75] CT
0 GC
/Helvetica 13.333 F
GS
[1 0 0 1 0 0] CT
-11 14 moveto 
1 -1 scale
(250) t 
GR
GR
GS
[0.75 0 0 0.75 243.26351 79.75] CT
0 GC
/Helvetica 13.333 F
GS
[1 0 0 1 0 0] CT
-11 14 moveto 
1 -1 scale
(300) t 
GR
GR
GS
[0.75 0 0 0.75 274.68244 79.75] CT
0 GC
/Helvetica 13.333 F
GS
[1 0 0 1 0 0] CT
-11 14 moveto 
1 -1 scale
(350) t 
GR
GR
GS
[0.75 0 0 0.75 306.10135 79.75] CT
0 GC
/Helvetica 13.333 F
GS
[1 0 0 1 0 0] CT
-11 14 moveto 
1 -1 scale
(400) t 
GR
GR
GS
[0.75 0 0 0.75 337.52028 79.75] CT
0 GC
/Helvetica 13.333 F
GS
[1 0 0 1 0 0] CT
-11 14 moveto 
1 -1 scale
(450) t 
GR
GR
GS
[0.75 0 0 0.75 368.93919 79.75] CT
0 GC
/Helvetica 13.333 F
GS
[1 0 0 1 0 0] CT
-11 14 moveto 
1 -1 scale
(500) t 
GR
GR
GS
[0.75 0 0 0.75 217.50016 93.5] CT
0 GC
/Helvetica 14.667 F
GS
[1 0 0 1 0 0] CT
-17.5 16 moveto 
1 -1 scale
(Days) t 
GR
GR
GS
[0.75 0 0 0.75 0 0] CT
0 GC
2 setlinecap
1 LJ
1.333 LW
N
73 101 M
73 31 L
S
GR
GS
[0.75 0 0 0.75 0 0] CT
0 GC
2 setlinecap
1 LJ
1.333 LW
N
507 101 M
507 31 L
S
GR
GS
[0.75 0 0 0.75 0 0] CT
0 GC
2 setlinecap
1 LJ
1.333 LW
N
73 101 M
77.34 101 L
S
GR
GS
[0.75 0 0 0.75 0 0] CT
0 GC
2 setlinecap
1 LJ
1.333 LW
N
73 68.29 M
77.34 68.29 L
S
GR
GS
[0.75 0 0 0.75 0 0] CT
0 GC
2 setlinecap
1 LJ
1.333 LW
N
73 35.579 M
77.34 35.579 L
S
GR
GS
[0.75 0 0 0.75 0 0] CT
0 GC
2 setlinecap
1 LJ
1.333 LW
N
507 101 M
502.66 101 L
S
GR
GS
[0.75 0 0 0.75 0 0] CT
0 GC
2 setlinecap
1 LJ
1.333 LW
N
507 68.29 M
502.66 68.29 L
S
GR
GS
[0.75 0 0 0.75 0 0] CT
0 GC
2 setlinecap
1 LJ
1.333 LW
N
507 35.579 M
502.66 35.579 L
S
GR
GS
[0.75 0 0 0.75 50.75 75.75] CT
0 GC
/Helvetica 13.333 F
GS
[1 0 0 1 0 0] CT
-8 5.5 moveto 
1 -1 scale
(0) t 
GR
GR
GS
[0.75 0 0 0.75 50.75 51.21729] CT
0 GC
/Helvetica 13.333 F
GS
[1 0 0 1 0 0] CT
-22 5.5 moveto 
1 -1 scale
(100) t 
GR
GR
GS
[0.75 0 0 0.75 50.75 26.68458] CT
0 GC
/Helvetica 13.333 F
GS
[1 0 0 1 0 0] CT
-22 5.5 moveto 
1 -1 scale
(200) t 
GR
GR
GS
[0 -0.75 0.75 0 31.25 49.49998] CT
0 GC
/Helvetica 14.667 F
GS
[1 0 0 1 0 0] CT
-19 -4 moveto 
1 -1 scale
(Sales) t 
GR
GR
GS
[0.75 0 0 0.75 0 0] CT
0 GC
1 LJ
0.667 LW
N
73.838 96.093 M
74.676 91.187 L
75.514 78.43 L
76.351 80.065 L
77.189 74.178 L
78.027 96.421 L
78.865 77.449 L
79.703 90.86 L
80.541 95.439 L
81.378 65.673 L
82.216 67.963 L
83.054 66.654 L
83.892 64.364 L
84.73 66.327 L
85.568 87.589 L
86.405 89.551 L
87.243 39.178 L
88.081 52.916 L
88.919 46.701 L
89.757 52.262 L
90.595 66.654 L
91.432 92.168 L
92.27 94.131 L
93.108 68.617 L
93.946 81.374 L
94.784 74.505 L
95.622 75.486 L
96.459 79.738 L
97.297 89.879 L
98.135 94.458 L
98.973 78.43 L
99.811 79.084 L
100.649 76.14 L
101.486 71.561 L
102.324 79.738 L
103.162 91.514 L
104 92.822 L
104.838 82.028 L
105.676 78.43 L
106.514 66.981 L
107.351 75.486 L
108.189 84.318 L
109.027 91.187 L
109.865 93.15 L
110.703 76.794 L
111.541 77.776 L
112.378 70.579 L
113.216 77.449 L
114.054 79.738 L
114.892 93.804 L
115.73 93.15 L
116.568 75.486 L
117.405 79.084 L
118.243 70.579 L
119.081 68.944 L
119.919 76.794 L
120.757 91.187 L
121.595 94.131 L
122.432 78.757 L
123.27 74.505 L
124.108 68.617 L
124.946 71.234 L
125.784 76.794 L
126.622 93.15 L
127.459 95.112 L
128.297 91.187 L
129.135 84.318 L
129.973 71.888 L
130.811 75.159 L
131.649 80.065 L
132.486 93.477 L
133.324 96.093 L
134.162 77.776 L
135 72.542 L
135.838 74.832 L
136.676 99.364 L
137.514 72.869 L
138.351 90.86 L
139.189 94.785 L
140.027 69.271 L
140.865 75.486 L
141.703 73.523 L
142.541 70.252 L
143.378 83.664 L
144.216 89.879 L
145.054 94.785 L
145.892 76.14 L
146.73 74.505 L
147.568 66.981 L
148.405 73.196 L
149.243 78.43 L
150.081 90.533 L
150.919 92.168 L
151.757 69.925 L
152.595 64.364 L
153.432 71.888 L
154.27 73.523 L
155.108 67.636 L
155.946 91.187 L
156.784 93.804 L
157.622 65.346 L
158.459 68.617 L
159.297 66.654 L
160.135 73.523 L
160.973 79.738 L
161.811 91.514 L
162.649 92.495 L
163.486 69.598 L
164.324 79.084 L
165.162 76.14 L
166 87.262 L
166.838 95.439 L
167.676 89.879 L
168.514 95.766 L
169.351 94.458 L
170.189 62.402 L
171.027 58.477 L
171.865 72.215 L
172.703 78.103 L
173.541 93.804 L
174.378 94.458 L
175.216 75.486 L
176.054 66 L
176.892 60.766 L
177.73 75.813 L
178.568 74.505 L
179.405 90.206 L
180.243 90.86 L
181.081 68.617 L
181.919 66.981 L
182.757 70.252 L
183.595 73.85 L
184.432 69.925 L
185.27 93.15 L
186.108 91.187 L
186.946 65.346 L
187.784 69.271 L
188.622 69.598 L
189.459 73.523 L
190.297 73.196 L
191.135 89.551 L
191.973 87.589 L
192.811 63.383 L
193.649 67.636 L
194.486 62.075 L
195.324 71.234 L
196.162 78.43 L
197 90.206 L
197.838 89.551 L
198.676 73.196 L
199.514 72.869 L
200.351 60.112 L
201.189 69.598 L
202.027 76.467 L
202.865 94.785 L
203.703 91.841 L
204.541 66.654 L
205.378 72.869 L
206.216 70.252 L
207.054 71.234 L
207.892 73.85 L
208.73 89.879 L
209.568 94.785 L
210.405 89.879 L
211.243 52.262 L
212.081 57.495 L
212.919 55.206 L
213.757 62.729 L
214.595 86.28 L
215.432 88.243 L
216.27 58.15 L
217.108 48.009 L
217.946 44.084 L
218.784 64.037 L
219.622 86.28 L
220.459 83.336 L
221.297 88.897 L
222.135 60.439 L
222.973 54.551 L
223.811 79.738 L
224.649 72.215 L
225.486 75.159 L
226.324 89.879 L
227.162 91.841 L
228 74.832 L
228.838 65.673 L
229.676 65.346 L
230.514 72.215 L
231.351 82.682 L
232.189 89.224 L
233.027 89.879 L
233.865 56.514 L
234.703 81.047 L
235.541 54.224 L
236.378 74.832 L
237.216 81.374 L
238.054 91.514 L
238.892 92.168 L
239.73 59.458 L
240.568 62.402 L
241.405 63.383 L
242.243 65.346 L
243.081 72.869 L
243.919 85.626 L
244.757 93.15 L
245.595 68.29 L
246.432 68.617 L
247.27 58.15 L
248.108 61.093 L
248.946 69.598 L
249.784 89.224 L
250.622 92.168 L
251.459 71.234 L
252.297 77.449 L
253.135 65.673 L
253.973 74.178 L
254.811 78.43 L
255.649 89.879 L
256.486 91.187 L
257.324 74.832 L
258.162 77.449 L
259 73.523 L
259.838 77.776 L
260.676 75.486 L
261.514 92.168 L
262.351 87.916 L
263.189 85.953 L
264.027 69.925 L
264.865 55.86 L
265.703 52.262 L
266.541 62.729 L
267.378 88.897 L
268.216 89.551 L
269.054 78.103 L
269.892 68.944 L
270.73 71.561 L
271.568 75.813 L
272.405 80.065 L
273.243 92.168 L
274.081 92.822 L
274.919 76.794 L
275.757 70.579 L
276.595 59.131 L
277.432 70.907 L
278.27 71.888 L
279.108 90.206 L
279.946 91.841 L
280.784 61.093 L
281.622 56.514 L
282.459 54.551 L
283.297 70.579 L
284.135 70.907 L
284.973 89.551 L
285.811 89.879 L
286.649 48.664 L
287.486 57.822 L
288.324 64.037 L
289.162 52.589 L
290 74.505 L
290.838 91.841 L
291.676 91.514 L
292.514 61.748 L
293.351 59.458 L
294.189 61.093 L
295.027 59.785 L
295.865 72.869 L
296.703 90.206 L
297.541 92.822 L
298.378 56.187 L
299.216 59.785 L
300.054 62.729 L
300.892 66.327 L
301.73 71.888 L
302.568 87.916 L
303.405 91.841 L
304.243 66 L
305.081 56.187 L
305.919 62.075 L
306.757 64.692 L
307.595 74.505 L
308.432 89.551 L
309.27 89.551 L
310.108 54.879 L
310.946 73.523 L
311.784 83.009 L
312.622 63.71 L
313.459 74.178 L
314.297 89.224 L
315.135 93.804 L
315.973 55.533 L
316.811 66.327 L
317.649 71.561 L
318.486 66 L
319.324 81.701 L
320.162 87.589 L
321 90.533 L
321.838 55.206 L
322.676 63.056 L
323.514 65.346 L
324.351 72.215 L
325.189 73.85 L
326.027 90.206 L
326.865 93.15 L
327.703 79.738 L
328.541 93.477 L
329.378 59.458 L
330.216 62.075 L
331.054 71.888 L
331.892 92.168 L
332.73 94.458 L
333.568 64.692 L
334.405 64.364 L
335.243 66.981 L
336.081 63.383 L
336.919 81.701 L
337.757 86.607 L
338.595 92.495 L
339.432 63.383 L
340.27 70.907 L
341.108 57.495 L
341.946 65.346 L
342.784 68.29 L
343.622 91.514 L
344.459 88.897 L
345.297 64.692 L
346.135 58.15 L
346.973 62.402 L
347.811 62.402 L
348.649 76.467 L
349.486 88.897 L
350.324 91.841 L
351.162 64.692 L
352 66 L
352.838 61.093 L
353.676 63.71 L
354.514 72.869 L
355.351 91.187 L
356.189 92.822 L
357.027 71.234 L
357.865 92.495 L
358.703 66.981 L
359.541 89.551 L
360.378 74.505 L
361.216 83.664 L
362.054 92.168 L
362.892 65.019 L
363.73 58.477 L
364.568 58.15 L
365.405 64.692 L
366.243 70.579 L
367.081 94.131 L
367.919 91.187 L
368.757 67.308 L
369.595 62.075 L
370.432 63.71 L
371.27 65.673 L
372.108 75.813 L
372.946 90.206 L
373.784 100.019 L
374.622 92.822 L
375.459 67.963 L
376.297 75.486 L
377.135 71.234 L
377.973 85.953 L
378.811 85.299 L
379.649 95.766 L
380.486 76.794 L
381.324 72.542 L
382.162 66.327 L
383 77.776 L
383.838 92.822 L
384.676 82.682 L
385.514 92.495 L
386.351 59.131 L
387.189 47.355 L
388.027 54.551 L
388.865 54.879 L
389.703 68.944 L
390.541 91.187 L
391.378 94.131 L
392.216 65.346 L
393.054 75.813 L
393.892 67.636 L
394.73 65.673 L
395.568 75.813 L
396.405 90.86 L
397.243 93.477 L
398.081 64.037 L
398.919 65.346 L
399.757 71.561 L
400.595 67.963 L
401.432 68.944 L
402.27 94.131 L
403.108 93.477 L
403.946 62.075 L
404.784 64.692 L
405.622 76.14 L
406.459 74.832 L
407.297 81.701 L
408.135 92.822 L
408.973 96.421 L
409.811 73.196 L
410.649 67.308 L
411.486 68.29 L
412.324 61.748 L
413.162 68.29 L
414 91.514 L
414.838 93.15 L
415.676 62.729 L
416.514 73.523 L
417.351 90.206 L
418.189 96.421 L
419.027 100.673 L
419.865 101 L
420.703 100.673 L
421.541 101 L
422.378 65.673 L
423.216 67.963 L
424.054 65.019 L
424.892 68.29 L
425.73 88.243 L
426.568 92.822 L
427.405 60.766 L
428.243 83.336 L
429.081 96.748 L
429.919 100.346 L
430.757 100.673 L
431.595 101 L
432.432 101 L
433.27 101 L
434.108 67.308 L
434.946 62.729 L
435.784 48.336 L
436.622 54.879 L
437.459 78.43 L
438.297 84.972 L
439.135 31 L
439.973 61.748 L
440.811 55.86 L
441.649 53.897 L
442.486 65.346 L
443.324 82.028 L
444.162 93.477 L
445 59.458 L
445.838 67.963 L
446.676 66.327 L
447.514 60.766 L
448.351 64.692 L
449.189 86.935 L
450.027 92.495 L
450.865 70.252 L
451.703 63.383 L
452.541 66.654 L
453.378 71.888 L
454.216 66.981 L
455.054 89.879 L
455.892 91.841 L
456.73 65.673 L
457.568 79.411 L
458.405 75.813 L
459.243 88.243 L
460.081 93.15 L
460.919 88.243 L
461.757 94.458 L
462.595 88.57 L
463.432 65.346 L
464.27 62.402 L
465.108 71.561 L
465.946 77.121 L
466.784 89.879 L
467.622 92.495 L
468.459 67.308 L
469.297 66.327 L
470.135 68.944 L
470.973 67.636 L
471.811 72.542 L
472.649 90.206 L
473.486 94.131 L
474.324 66 L
475.162 63.71 L
476 68.29 L
476.838 63.71 L
477.676 80.72 L
478.514 90.206 L
479.351 90.86 L
480.189 78.103 L
481.027 93.477 L
481.865 80.72 L
482.703 67.963 L
483.541 77.121 L
484.378 86.607 L
485.216 92.822 L
486.054 56.841 L
486.892 64.364 L
487.73 66.327 L
488.568 65.346 L
489.405 67.636 L
490.243 89.224 L
491.081 94.785 L
491.919 69.925 L
492.757 72.542 L
493.595 68.617 L
494.432 66.654 L
495.27 70.252 L
496.108 91.514 L
496.946 94.785 L
497.784 64.037 L
498.622 61.748 L
499.459 65.019 L
500.297 71.234 L
501.135 72.542 L
501.973 87.589 L
502.811 93.15 L
503.649 86.28 L
504.486 74.178 L
505.324 67.308 L
506.162 80.065 L
S
GR
GS
[0.75 0 0 0.75 0 0] CT
0.997 GC
N
73 227 M
507 227 L
507 157 L
73 157 L
cp
f
GR
GS
[0.75 0 0 0.75 0 0] CT
0 GC
2 setlinecap
1 LJ
1.333 LW
N
73 227 M
507 227 L
S
GR
GS
[0.75 0 0 0.75 0 0] CT
0 GC
2 setlinecap
1 LJ
1.333 LW
N
73 157 M
507 157 L
S
GR
GS
[0.75 0 0 0.75 0 0] CT
0 GC
2 setlinecap
1 LJ
1.333 LW
N
73 227 M
73 222.66 L
S
GR
GS
[0.75 0 0 0.75 0 0] CT
0 GC
2 setlinecap
1 LJ
1.333 LW
N
114.892 227 M
114.892 222.66 L
S
GR
GS
[0.75 0 0 0.75 0 0] CT
0 GC
2 setlinecap
1 LJ
1.333 LW
N
156.784 227 M
156.784 222.66 L
S
GR
GS
[0.75 0 0 0.75 0 0] CT
0 GC
2 setlinecap
1 LJ
1.333 LW
N
198.676 227 M
198.676 222.66 L
S
GR
GS
[0.75 0 0 0.75 0 0] CT
0 GC
2 setlinecap
1 LJ
1.333 LW
N
240.568 227 M
240.568 222.66 L
S
GR
GS
[0.75 0 0 0.75 0 0] CT
0 GC
2 setlinecap
1 LJ
1.333 LW
N
282.459 227 M
282.459 222.66 L
S
GR
GS
[0.75 0 0 0.75 0 0] CT
0 GC
2 setlinecap
1 LJ
1.333 LW
N
324.351 227 M
324.351 222.66 L
S
GR
GS
[0.75 0 0 0.75 0 0] CT
0 GC
2 setlinecap
1 LJ
1.333 LW
N
366.243 227 M
366.243 222.66 L
S
GR
GS
[0.75 0 0 0.75 0 0] CT
0 GC
2 setlinecap
1 LJ
1.333 LW
N
408.135 227 M
408.135 222.66 L
S
GR
GS
[0.75 0 0 0.75 0 0] CT
0 GC
2 setlinecap
1 LJ
1.333 LW
N
450.027 227 M
450.027 222.66 L
S
GR
GS
[0.75 0 0 0.75 0 0] CT
0 GC
2 setlinecap
1 LJ
1.333 LW
N
491.919 227 M
491.919 222.66 L
S
GR
GS
[0.75 0 0 0.75 0 0] CT
0 GC
2 setlinecap
1 LJ
1.333 LW
N
73 157 M
73 161.34 L
S
GR
GS
[0.75 0 0 0.75 0 0] CT
0 GC
2 setlinecap
1 LJ
1.333 LW
N
114.892 157 M
114.892 161.34 L
S
GR
GS
[0.75 0 0 0.75 0 0] CT
0 GC
2 setlinecap
1 LJ
1.333 LW
N
156.784 157 M
156.784 161.34 L
S
GR
GS
[0.75 0 0 0.75 0 0] CT
0 GC
2 setlinecap
1 LJ
1.333 LW
N
198.676 157 M
198.676 161.34 L
S
GR
GS
[0.75 0 0 0.75 0 0] CT
0 GC
2 setlinecap
1 LJ
1.333 LW
N
240.568 157 M
240.568 161.34 L
S
GR
GS
[0.75 0 0 0.75 0 0] CT
0 GC
2 setlinecap
1 LJ
1.333 LW
N
282.459 157 M
282.459 161.34 L
S
GR
GS
[0.75 0 0 0.75 0 0] CT
0 GC
2 setlinecap
1 LJ
1.333 LW
N
324.351 157 M
324.351 161.34 L
S
GR
GS
[0.75 0 0 0.75 0 0] CT
0 GC
2 setlinecap
1 LJ
1.333 LW
N
366.243 157 M
366.243 161.34 L
S
GR
GS
[0.75 0 0 0.75 0 0] CT
0 GC
2 setlinecap
1 LJ
1.333 LW
N
408.135 157 M
408.135 161.34 L
S
GR
GS
[0.75 0 0 0.75 0 0] CT
0 GC
2 setlinecap
1 LJ
1.333 LW
N
450.027 157 M
450.027 161.34 L
S
GR
GS
[0.75 0 0 0.75 0 0] CT
0 GC
2 setlinecap
1 LJ
1.333 LW
N
491.919 157 M
491.919 161.34 L
S
GR
GS
[0.75 0 0 0.75 54.75 174.25] CT
0 GC
/Helvetica 13.333 F
GS
[1 0 0 1 0 0] CT
-4 14 moveto 
1 -1 scale
(0) t 
GR
GR
GS
[0.75 0 0 0.75 86.16892 174.25] CT
0 GC
/Helvetica 13.333 F
GS
[1 0 0 1 0 0] CT
-7.5 14 moveto 
1 -1 scale
(50) t 
GR
GR
GS
[0.75 0 0 0.75 117.58784 174.25] CT
0 GC
/Helvetica 13.333 F
GS
[1 0 0 1 0 0] CT
-11 14 moveto 
1 -1 scale
(100) t 
GR
GR
GS
[0.75 0 0 0.75 149.00676 174.25] CT
0 GC
/Helvetica 13.333 F
GS
[1 0 0 1 0 0] CT
-11 14 moveto 
1 -1 scale
(150) t 
GR
GR
GS
[0.75 0 0 0.75 180.42567 174.25] CT
0 GC
/Helvetica 13.333 F
GS
[1 0 0 1 0 0] CT
-11 14 moveto 
1 -1 scale
(200) t 
GR
GR
GS
[0.75 0 0 0.75 211.8446 174.25] CT
0 GC
/Helvetica 13.333 F
GS
[1 0 0 1 0 0] CT
-11 14 moveto 
1 -1 scale
(250) t 
GR
GR
GS
[0.75 0 0 0.75 243.26351 174.25] CT
0 GC
/Helvetica 13.333 F
GS
[1 0 0 1 0 0] CT
-11 14 moveto 
1 -1 scale
(300) t 
GR
GR
GS
[0.75 0 0 0.75 274.68244 174.25] CT
0 GC
/Helvetica 13.333 F
GS
[1 0 0 1 0 0] CT
-11 14 moveto 
1 -1 scale
(350) t 
GR
GR
GS
[0.75 0 0 0.75 306.10135 174.25] CT
0 GC
/Helvetica 13.333 F
GS
[1 0 0 1 0 0] CT
-11 14 moveto 
1 -1 scale
(400) t 
GR
GR
GS
[0.75 0 0 0.75 337.52028 174.25] CT
0 GC
/Helvetica 13.333 F
GS
[1 0 0 1 0 0] CT
-11 14 moveto 
1 -1 scale
(450) t 
GR
GR
GS
[0.75 0 0 0.75 368.93919 174.25] CT
0 GC
/Helvetica 13.333 F
GS
[1 0 0 1 0 0] CT
-11 14 moveto 
1 -1 scale
(500) t 
GR
GR
GS
[0.75 0 0 0.75 217.50016 188] CT
0 GC
/Helvetica 14.667 F
GS
[1 0 0 1 0 0] CT
-17.5 16 moveto 
1 -1 scale
(Days) t 
GR
GR
GS
[0.75 0 0 0.75 0 0] CT
0 GC
2 setlinecap
1 LJ
1.333 LW
N
73 227 M
73 157 L
S
GR
GS
[0.75 0 0 0.75 0 0] CT
0 GC
2 setlinecap
1 LJ
1.333 LW
N
507 227 M
507 157 L
S
GR
GS
[0.75 0 0 0.75 0 0] CT
0 GC
2 setlinecap
1 LJ
1.333 LW
N
73 213.948 M
77.34 213.948 L
S
GR
GS
[0.75 0 0 0.75 0 0] CT
0 GC
2 setlinecap
1 LJ
1.333 LW
N
73 200.092 M
77.34 200.092 L
S
GR
GS
[0.75 0 0 0.75 0 0] CT
0 GC
2 setlinecap
1 LJ
1.333 LW
N
73 186.236 M
77.34 186.236 L
S
GR
GS
[0.75 0 0 0.75 0 0] CT
0 GC
2 setlinecap
1 LJ
1.333 LW
N
73 172.38 M
77.34 172.38 L
S
GR
GS
[0.75 0 0 0.75 0 0] CT
0 GC
2 setlinecap
1 LJ
1.333 LW
N
73 158.524 M
77.34 158.524 L
S
GR
GS
[0.75 0 0 0.75 0 0] CT
0 GC
2 setlinecap
1 LJ
1.333 LW
N
507 213.948 M
502.66 213.948 L
S
GR
GS
[0.75 0 0 0.75 0 0] CT
0 GC
2 setlinecap
1 LJ
1.333 LW
N
507 200.092 M
502.66 200.092 L
S
GR
GS
[0.75 0 0 0.75 0 0] CT
0 GC
2 setlinecap
1 LJ
1.333 LW
N
507 186.236 M
502.66 186.236 L
S
GR
GS
[0.75 0 0 0.75 0 0] CT
0 GC
2 setlinecap
1 LJ
1.333 LW
N
507 172.38 M
502.66 172.38 L
S
GR
GS
[0.75 0 0 0.75 0 0] CT
0 GC
2 setlinecap
1 LJ
1.333 LW
N
507 158.524 M
502.66 158.524 L
S
GR
GS
[0.75 0 0 0.75 50.75 160.4608] CT
0 GC
/Helvetica 13.333 F
GS
[1 0 0 1 0 0] CT
-22 5.5 moveto 
1 -1 scale
(500) t 
GR
GR
GS
[0.75 0 0 0.75 50.75 150.06888] CT
0 GC
/Helvetica 13.333 F
GS
[1 0 0 1 0 0] CT
-29 5.5 moveto 
1 -1 scale
(1000) t 
GR
GR
GS
[0.75 0 0 0.75 50.75 139.67696] CT
0 GC
/Helvetica 13.333 F
GS
[1 0 0 1 0 0] CT
-29 5.5 moveto 
1 -1 scale
(1500) t 
GR
GR
GS
[0.75 0 0 0.75 50.75 129.28504] CT
0 GC
/Helvetica 13.333 F
GS
[1 0 0 1 0 0] CT
-29 5.5 moveto 
1 -1 scale
(2000) t 
GR
GR
GS
[0.75 0 0 0.75 50.75 118.89312] CT
0 GC
/Helvetica 13.333 F
GS
[1 0 0 1 0 0] CT
-29 5.5 moveto 
1 -1 scale
(2500) t 
GR
GR
GS
[0 -0.75 0.75 0 26 143.99998] CT
0 GC
/Helvetica 14.667 F
GS
[1 0 0 1 0 0] CT
-19 -4 moveto 
1 -1 scale
(Sales) t 
GR
GR
GS
[0.75 0 0 0.75 0 0] CT
0 GC
1 LJ
0.667 LW
N
73.838 223.314 M
74.676 216.414 L
75.514 185.155 L
76.351 189.866 L
77.189 193.995 L
78.027 221.513 L
78.865 194.993 L
79.703 210.484 L
80.541 215.167 L
81.378 170.551 L
82.216 170.052 L
83.054 168.667 L
83.892 166.699 L
84.73 175.927 L
85.568 207.74 L
86.405 215.998 L
87.243 169.609 L
88.081 165.452 L
88.919 157.416 L
89.757 157 L
90.595 163.568 L
91.432 209.486 L
92.27 218.88 L
93.108 179.391 L
93.946 179.336 L
94.784 184.13 L
95.622 185.626 L
96.459 194.023 L
97.297 213.421 L
98.135 219.352 L
98.973 183.437 L
99.811 188.564 L
100.649 185.654 L
101.486 187.954 L
102.324 196.323 L
103.162 217.19 L
104 219.684 L
104.838 185.321 L
105.676 184.712 L
106.514 187.123 L
107.351 187.4 L
108.189 193.912 L
109.027 216.58 L
109.865 221.846 L
110.703 185.211 L
111.541 187.206 L
112.378 188.508 L
113.216 191.03 L
114.054 195.519 L
114.892 217.135 L
115.73 222.067 L
116.568 187.566 L
117.405 185.903 L
118.243 188.093 L
119.081 187.982 L
119.919 198.069 L
120.757 218.188 L
121.595 220.654 L
122.432 186.43 L
123.27 186.181 L
124.108 188.397 L
124.946 192.887 L
125.784 198.789 L
126.622 218.132 L
127.459 221.929 L
128.297 217.107 L
129.135 184.74 L
129.973 185.183 L
130.811 188.647 L
131.649 199.538 L
132.486 220.072 L
133.324 219.989 L
134.162 185.432 L
135 189.367 L
135.838 188.591 L
136.676 226.612 L
137.514 197.653 L
138.351 217.356 L
139.189 221.264 L
140.027 187.483 L
140.865 188.924 L
141.703 189.645 L
142.541 188.647 L
143.378 198.013 L
144.216 216.137 L
145.054 221.375 L
145.892 187.428 L
146.73 188.536 L
147.568 188.314 L
148.405 189.617 L
149.243 197.21 L
150.081 216.968 L
150.919 220.488 L
151.757 186.873 L
152.595 187.15 L
153.432 186.402 L
154.27 188.065 L
155.108 196.545 L
155.946 216.109 L
156.784 218.88 L
157.622 186.07 L
158.459 188.231 L
159.297 187.067 L
160.135 189.645 L
160.973 197.736 L
161.811 218.853 L
162.649 221.485 L
163.486 192.914 L
164.324 194.134 L
165.162 195.187 L
166 205.246 L
166.838 220.987 L
167.676 213.421 L
168.514 220.543 L
169.351 217.467 L
170.189 181.663 L
171.027 186.014 L
171.865 186.402 L
172.703 196.711 L
173.541 217.079 L
174.378 221.735 L
175.216 184.518 L
176.054 184.407 L
176.892 182.245 L
177.73 184.712 L
178.568 195.63 L
179.405 215.832 L
180.243 219.158 L
181.081 184.158 L
181.919 185.266 L
182.757 185.405 L
183.595 186.264 L
184.432 193.358 L
185.27 212.812 L
186.108 218.049 L
186.946 185.1 L
187.784 187.76 L
188.622 186.264 L
189.459 189.506 L
190.297 194.466 L
191.135 216.663 L
191.973 217.467 L
192.811 186.125 L
193.649 187.622 L
194.486 186.596 L
195.324 187.095 L
196.162 197.099 L
197 216.719 L
197.838 219.656 L
198.676 184.462 L
199.514 186.79 L
200.351 188.702 L
201.189 188.979 L
202.027 193.774 L
202.865 212.922 L
203.703 218.576 L
204.541 185.959 L
205.378 188.453 L
206.216 185.238 L
207.054 186.236 L
207.892 196.545 L
208.73 214.142 L
209.568 220.903 L
210.405 216.802 L
211.243 186.319 L
212.081 187.677 L
212.919 185.626 L
213.757 194.162 L
214.595 216.137 L
215.432 218.908 L
216.27 183.465 L
217.108 188.869 L
217.946 186.264 L
218.784 194.91 L
219.622 218.991 L
220.459 215.5 L
221.297 216.913 L
222.135 182.439 L
222.973 185.959 L
223.811 186.513 L
224.649 186.901 L
225.486 191.086 L
226.324 212.313 L
227.162 215.167 L
228 185.654 L
228.838 184.462 L
229.676 183.132 L
230.514 185.432 L
231.351 194.272 L
232.189 213.671 L
233.027 219.546 L
233.865 181.774 L
234.703 192.139 L
235.541 186.956 L
236.378 188.037 L
237.216 195.824 L
238.054 217.578 L
238.892 221.153 L
239.73 184.961 L
240.568 190.614 L
241.405 192.083 L
242.243 190.947 L
243.081 196.933 L
243.919 216.054 L
244.757 220.765 L
245.595 191.751 L
246.432 193.386 L
247.27 193.413 L
248.108 190.032 L
248.946 197.681 L
249.784 215.721 L
250.622 220.543 L
251.459 197.293 L
252.297 199.704 L
253.135 198.873 L
253.973 199.094 L
254.811 202.059 L
255.649 216.857 L
256.486 219.933 L
257.324 200.092 L
258.162 202.586 L
259 204.027 L
259.838 205.08 L
260.676 205.69 L
261.514 217.495 L
262.351 219.573 L
263.189 217.938 L
264.027 198.401 L
264.865 194.245 L
265.703 198.041 L
266.541 199.205 L
267.378 216.83 L
268.216 219.546 L
269.054 200.535 L
269.892 203.833 L
270.73 203.611 L
271.568 202.143 L
272.405 205.385 L
273.243 218.132 L
274.081 220.682 L
274.919 195.797 L
275.757 195.852 L
276.595 196.184 L
277.432 192.942 L
278.27 200.147 L
279.108 215.888 L
279.946 220.599 L
280.784 188.869 L
281.622 189.783 L
282.459 189.367 L
283.297 188.813 L
284.135 197.016 L
284.973 215.029 L
285.811 219.102 L
286.649 184.601 L
287.486 184.379 L
288.324 183.188 L
289.162 181.331 L
290 192.721 L
290.838 215.777 L
291.676 218.936 L
292.514 182.384 L
293.351 183.77 L
294.189 182.717 L
295.027 183.021 L
295.865 190.143 L
296.703 215.666 L
297.541 216.663 L
298.378 175.096 L
299.216 182.689 L
300.054 179.169 L
300.892 180.195 L
301.73 191.834 L
302.568 214.474 L
303.405 219.047 L
304.243 177.091 L
305.081 182.633 L
305.919 180.555 L
306.757 180.222 L
307.595 192.998 L
308.432 212.23 L
309.27 217.523 L
310.108 180.555 L
310.946 185.155 L
311.784 217.19 L
312.622 184.324 L
313.459 198.568 L
314.297 215.527 L
315.135 220.127 L
315.973 185.82 L
316.811 186.319 L
317.649 186.735 L
318.486 185.46 L
319.324 195.298 L
320.162 215.61 L
321 220.737 L
321.838 186.264 L
322.676 186.929 L
323.514 186.153 L
324.351 189.977 L
325.189 195.131 L
326.027 215.888 L
326.865 220.211 L
327.703 201.367 L
328.541 220.876 L
329.378 182.356 L
330.216 186.901 L
331.054 197.875 L
331.892 214.724 L
332.73 221.153 L
333.568 183.686 L
334.405 183.742 L
335.243 186.43 L
336.081 183.16 L
336.919 189.811 L
337.757 212.728 L
338.595 221.873 L
339.432 185.266 L
340.27 190.947 L
341.108 185.266 L
341.946 183.16 L
342.784 195.021 L
343.622 216.636 L
344.459 220.211 L
345.297 185.321 L
346.135 183.797 L
346.973 185.599 L
347.811 184.518 L
348.649 194.439 L
349.486 214.557 L
350.324 219.546 L
351.162 184.656 L
352 186.236 L
352.838 184.74 L
353.676 186.153 L
354.514 194.937 L
355.351 216.026 L
356.189 219.906 L
357.027 192.554 L
357.865 217.689 L
358.703 194.716 L
359.541 216.192 L
360.378 202.004 L
361.216 214.807 L
362.054 219.518 L
362.892 184.13 L
363.73 186.485 L
364.568 186.929 L
365.405 185.127 L
366.243 195.603 L
367.081 211.786 L
367.919 217.024 L
368.757 180.804 L
369.595 181.414 L
370.432 182.495 L
371.27 187.067 L
372.108 199.815 L
372.946 216.359 L
373.784 227 L
374.622 219.518 L
375.459 195.713 L
376.297 196.462 L
377.135 197.986 L
377.973 205.135 L
378.811 216.414 L
379.649 223.785 L
380.486 194.882 L
381.324 192.305 L
382.162 190.781 L
383 197.404 L
383.838 223.536 L
384.676 212.978 L
385.514 217.55 L
386.351 181.054 L
387.189 181.608 L
388.027 183.936 L
388.865 184.435 L
389.703 192.333 L
390.541 214.114 L
391.378 220.903 L
392.216 181.442 L
393.054 181.276 L
393.892 180.888 L
394.73 181.082 L
395.568 188.841 L
396.405 213.283 L
397.243 221.042 L
398.081 180.998 L
398.919 183.16 L
399.757 184.518 L
400.595 187.04 L
401.432 194.189 L
402.27 216.303 L
403.108 220.321 L
403.946 184.241 L
404.784 185.488 L
405.622 187.926 L
406.459 185.155 L
407.297 196.212 L
408.135 217.8 L
408.973 222.261 L
409.811 182.467 L
410.649 184.656 L
411.486 185.793 L
412.324 186.014 L
413.162 196.462 L
414 216.331 L
414.838 221.319 L
415.676 184.296 L
416.514 187.234 L
417.351 185.183 L
418.189 187.123 L
419.027 195.353 L
419.865 217.772 L
420.703 220.737 L
421.541 186.873 L
422.378 186.042 L
423.216 184.601 L
424.054 187.428 L
424.892 196.157 L
425.73 215.832 L
426.568 220.017 L
427.405 184.13 L
428.243 184.074 L
429.081 185.543 L
429.919 186.929 L
430.757 195.935 L
431.595 217.162 L
432.432 221.014 L
433.27 182.079 L
434.108 182.689 L
434.946 183.742 L
435.784 178.172 L
436.622 186.264 L
437.459 212.313 L
438.297 218.049 L
439.135 176.675 L
439.973 179.197 L
440.811 181.331 L
441.649 181.497 L
442.486 190.781 L
443.324 212.507 L
444.162 218.354 L
445 187.954 L
445.838 179.225 L
446.676 183.631 L
447.514 184.213 L
448.351 194.051 L
449.189 212.812 L
450.027 220.017 L
450.865 183.298 L
451.703 183.825 L
452.541 181.941 L
453.378 199.288 L
454.216 189.506 L
455.054 214.253 L
455.892 220.959 L
456.73 186.568 L
457.568 190.919 L
458.405 193.995 L
459.243 206.937 L
460.081 221.485 L
460.919 219.047 L
461.757 222.732 L
462.595 218.077 L
463.432 181.192 L
464.27 182.384 L
465.108 184.268 L
465.946 191.418 L
466.784 214.059 L
467.622 220.626 L
468.459 181.165 L
469.297 183.603 L
470.135 185.072 L
470.973 184.352 L
471.811 195.824 L
472.649 214.807 L
473.486 219.74 L
474.324 182.439 L
475.162 179.197 L
476 182.495 L
476.838 180.167 L
477.676 195.519 L
478.514 217.689 L
479.351 221.208 L
480.189 196.794 L
481.027 220.765 L
481.865 184.462 L
482.703 181.414 L
483.541 194.854 L
484.378 215.444 L
485.216 221.485 L
486.054 181.968 L
486.892 182.689 L
487.73 185.46 L
488.568 181.968 L
489.405 192.305 L
490.243 213.865 L
491.081 221.042 L
491.919 181.608 L
492.757 187.15 L
493.595 184.185 L
494.432 185.044 L
495.27 194.383 L
496.108 215.056 L
496.946 220.765 L
497.784 183.714 L
498.622 183.88 L
499.459 185.127 L
500.297 181.386 L
501.135 191.861 L
501.973 214.835 L
502.811 220.543 L
503.649 207.713 L
504.486 178.809 L
505.324 184.767 L
506.162 180.971 L
S
GR
GS
[0.75 0 0 0.75 0 0] CT
0.997 GC
N
73 353 M
507 353 L
507 283 L
73 283 L
cp
f
GR
GS
[0.75 0 0 0.75 0 0] CT
0 GC
2 setlinecap
1 LJ
1.333 LW
N
73 353 M
507 353 L
S
GR
GS
[0.75 0 0 0.75 0 0] CT
0 GC
2 setlinecap
1 LJ
1.333 LW
N
73 283 M
507 283 L
S
GR
GS
[0.75 0 0 0.75 0 0] CT
0 GC
2 setlinecap
1 LJ
1.333 LW
N
73 353 M
73 348.66 L
S
GR
GS
[0.75 0 0 0.75 0 0] CT
0 GC
2 setlinecap
1 LJ
1.333 LW
N
114.892 353 M
114.892 348.66 L
S
GR
GS
[0.75 0 0 0.75 0 0] CT
0 GC
2 setlinecap
1 LJ
1.333 LW
N
156.784 353 M
156.784 348.66 L
S
GR
GS
[0.75 0 0 0.75 0 0] CT
0 GC
2 setlinecap
1 LJ
1.333 LW
N
198.676 353 M
198.676 348.66 L
S
GR
GS
[0.75 0 0 0.75 0 0] CT
0 GC
2 setlinecap
1 LJ
1.333 LW
N
240.568 353 M
240.568 348.66 L
S
GR
GS
[0.75 0 0 0.75 0 0] CT
0 GC
2 setlinecap
1 LJ
1.333 LW
N
282.459 353 M
282.459 348.66 L
S
GR
GS
[0.75 0 0 0.75 0 0] CT
0 GC
2 setlinecap
1 LJ
1.333 LW
N
324.351 353 M
324.351 348.66 L
S
GR
GS
[0.75 0 0 0.75 0 0] CT
0 GC
2 setlinecap
1 LJ
1.333 LW
N
366.243 353 M
366.243 348.66 L
S
GR
GS
[0.75 0 0 0.75 0 0] CT
0 GC
2 setlinecap
1 LJ
1.333 LW
N
408.135 353 M
408.135 348.66 L
S
GR
GS
[0.75 0 0 0.75 0 0] CT
0 GC
2 setlinecap
1 LJ
1.333 LW
N
450.027 353 M
450.027 348.66 L
S
GR
GS
[0.75 0 0 0.75 0 0] CT
0 GC
2 setlinecap
1 LJ
1.333 LW
N
491.919 353 M
491.919 348.66 L
S
GR
GS
[0.75 0 0 0.75 0 0] CT
0 GC
2 setlinecap
1 LJ
1.333 LW
N
73 283 M
73 287.34 L
S
GR
GS
[0.75 0 0 0.75 0 0] CT
0 GC
2 setlinecap
1 LJ
1.333 LW
N
114.892 283 M
114.892 287.34 L
S
GR
GS
[0.75 0 0 0.75 0 0] CT
0 GC
2 setlinecap
1 LJ
1.333 LW
N
156.784 283 M
156.784 287.34 L
S
GR
GS
[0.75 0 0 0.75 0 0] CT
0 GC
2 setlinecap
1 LJ
1.333 LW
N
198.676 283 M
198.676 287.34 L
S
GR
GS
[0.75 0 0 0.75 0 0] CT
0 GC
2 setlinecap
1 LJ
1.333 LW
N
240.568 283 M
240.568 287.34 L
S
GR
GS
[0.75 0 0 0.75 0 0] CT
0 GC
2 setlinecap
1 LJ
1.333 LW
N
282.459 283 M
282.459 287.34 L
S
GR
GS
[0.75 0 0 0.75 0 0] CT
0 GC
2 setlinecap
1 LJ
1.333 LW
N
324.351 283 M
324.351 287.34 L
S
GR
GS
[0.75 0 0 0.75 0 0] CT
0 GC
2 setlinecap
1 LJ
1.333 LW
N
366.243 283 M
366.243 287.34 L
S
GR
GS
[0.75 0 0 0.75 0 0] CT
0 GC
2 setlinecap
1 LJ
1.333 LW
N
408.135 283 M
408.135 287.34 L
S
GR
GS
[0.75 0 0 0.75 0 0] CT
0 GC
2 setlinecap
1 LJ
1.333 LW
N
450.027 283 M
450.027 287.34 L
S
GR
GS
[0.75 0 0 0.75 0 0] CT
0 GC
2 setlinecap
1 LJ
1.333 LW
N
491.919 283 M
491.919 287.34 L
S
GR
GS
[0.75 0 0 0.75 54.75 268.75001] CT
0 GC
/Helvetica 13.333 F
GS
[1 0 0 1 0 0] CT
-4 14 moveto 
1 -1 scale
(0) t 
GR
GR
GS
[0.75 0 0 0.75 86.16892 268.75001] CT
0 GC
/Helvetica 13.333 F
GS
[1 0 0 1 0 0] CT
-7.5 14 moveto 
1 -1 scale
(50) t 
GR
GR
GS
[0.75 0 0 0.75 117.58784 268.75001] CT
0 GC
/Helvetica 13.333 F
GS
[1 0 0 1 0 0] CT
-11 14 moveto 
1 -1 scale
(100) t 
GR
GR
GS
[0.75 0 0 0.75 149.00676 268.75001] CT
0 GC
/Helvetica 13.333 F
GS
[1 0 0 1 0 0] CT
-11 14 moveto 
1 -1 scale
(150) t 
GR
GR
GS
[0.75 0 0 0.75 180.42567 268.75001] CT
0 GC
/Helvetica 13.333 F
GS
[1 0 0 1 0 0] CT
-11 14 moveto 
1 -1 scale
(200) t 
GR
GR
GS
[0.75 0 0 0.75 211.8446 268.75001] CT
0 GC
/Helvetica 13.333 F
GS
[1 0 0 1 0 0] CT
-11 14 moveto 
1 -1 scale
(250) t 
GR
GR
GS
[0.75 0 0 0.75 243.26351 268.75001] CT
0 GC
/Helvetica 13.333 F
GS
[1 0 0 1 0 0] CT
-11 14 moveto 
1 -1 scale
(300) t 
GR
GR
GS
[0.75 0 0 0.75 274.68244 268.75001] CT
0 GC
/Helvetica 13.333 F
GS
[1 0 0 1 0 0] CT
-11 14 moveto 
1 -1 scale
(350) t 
GR
GR
GS
[0.75 0 0 0.75 306.10135 268.75001] CT
0 GC
/Helvetica 13.333 F
GS
[1 0 0 1 0 0] CT
-11 14 moveto 
1 -1 scale
(400) t 
GR
GR
GS
[0.75 0 0 0.75 337.52028 268.75001] CT
0 GC
/Helvetica 13.333 F
GS
[1 0 0 1 0 0] CT
-11 14 moveto 
1 -1 scale
(450) t 
GR
GR
GS
[0.75 0 0 0.75 368.93919 268.75001] CT
0 GC
/Helvetica 13.333 F
GS
[1 0 0 1 0 0] CT
-11 14 moveto 
1 -1 scale
(500) t 
GR
GR
GS
[0.75 0 0 0.75 217.50016 282.49999] CT
0 GC
/Helvetica 14.667 F
GS
[1 0 0 1 0 0] CT
-17.5 16 moveto 
1 -1 scale
(Days) t 
GR
GR
GS
[0.75 0 0 0.75 0 0] CT
0 GC
2 setlinecap
1 LJ
1.333 LW
N
73 353 M
73 283 L
S
GR
GS
[0.75 0 0 0.75 0 0] CT
0 GC
2 setlinecap
1 LJ
1.333 LW
N
507 353 M
507 283 L
S
GR
GS
[0.75 0 0 0.75 0 0] CT
0 GC
2 setlinecap
1 LJ
1.333 LW
N
73 332.759 M
77.34 332.759 L
S
GR
GS
[0.75 0 0 0.75 0 0] CT
0 GC
2 setlinecap
1 LJ
1.333 LW
N
73 311.675 M
77.34 311.675 L
S
GR
GS
[0.75 0 0 0.75 0 0] CT
0 GC
2 setlinecap
1 LJ
1.333 LW
N
73 290.59 M
77.34 290.59 L
S
GR
GS
[0.75 0 0 0.75 0 0] CT
0 GC
2 setlinecap
1 LJ
1.333 LW
N
507 332.759 M
502.66 332.759 L
S
GR
GS
[0.75 0 0 0.75 0 0] CT
0 GC
2 setlinecap
1 LJ
1.333 LW
N
507 311.675 M
502.66 311.675 L
S
GR
GS
[0.75 0 0 0.75 0 0] CT
0 GC
2 setlinecap
1 LJ
1.333 LW
N
507 290.59 M
502.66 290.59 L
S
GR
GS
[0.75 0 0 0.75 50.75 249.56927] CT
0 GC
/Helvetica 13.333 F
GS
[1 0 0 1 0 0] CT
-15 5.5 moveto 
1 -1 scale
(50) t 
GR
GR
GS
[0.75 0 0 0.75 50.75 233.75603] CT
0 GC
/Helvetica 13.333 F
GS
[1 0 0 1 0 0] CT
-22 5.5 moveto 
1 -1 scale
(100) t 
GR
GR
GS
[0.75 0 0 0.75 50.75 217.94277] CT
0 GC
/Helvetica 13.333 F
GS
[1 0 0 1 0 0] CT
-22 5.5 moveto 
1 -1 scale
(150) t 
GR
GR
GS
[0 -0.75 0.75 0 31.25 238.49998] CT
0 GC
/Helvetica 14.667 F
GS
[1 0 0 1 0 0] CT
-19 -4 moveto 
1 -1 scale
(Sales) t 
GR
GR
GS
[0.75 0 0 0.75 0 0] CT
0 GC
1 LJ
0.667 LW
N
73.838 342.458 M
74.676 335.711 L
75.514 327.277 L
76.351 335.289 L
77.189 328.542 L
78.027 345.41 L
78.865 328.12 L
79.703 339.506 L
80.541 339.084 L
81.378 329.386 L
82.216 326.855 L
83.054 326.012 L
83.892 325.59 L
84.73 334.024 L
85.568 336.554 L
86.405 343.723 L
87.243 324.325 L
88.081 328.542 L
88.919 332.759 L
89.757 330.651 L
90.595 334.867 L
91.432 347.518 L
92.27 343.723 L
93.108 332.337 L
93.946 328.542 L
94.784 329.386 L
95.622 328.542 L
96.459 328.542 L
97.297 339.506 L
98.135 344.988 L
98.973 327.699 L
99.811 323.06 L
100.649 326.012 L
101.486 329.386 L
102.324 333.181 L
103.162 334.024 L
104 343.723 L
104.838 332.337 L
105.676 331.916 L
106.514 327.699 L
107.351 330.229 L
108.189 330.229 L
109.027 339.506 L
109.865 340.771 L
110.703 335.711 L
111.541 332.759 L
112.378 332.337 L
113.216 330.229 L
114.054 324.747 L
114.892 333.602 L
115.73 344.566 L
116.568 326.855 L
117.405 326.855 L
118.243 323.482 L
119.081 323.06 L
119.919 328.964 L
120.757 337.398 L
121.595 342.458 L
122.432 328.542 L
123.27 325.59 L
124.108 331.072 L
124.946 334.446 L
125.784 328.964 L
126.622 339.084 L
127.459 341.614 L
128.297 341.193 L
129.135 331.072 L
129.973 328.964 L
130.811 323.06 L
131.649 331.494 L
132.486 345.41 L
133.324 339.506 L
134.162 332.337 L
135 328.542 L
135.838 328.542 L
136.676 353 L
137.514 323.482 L
138.351 340.771 L
139.189 344.988 L
140.027 323.06 L
140.865 328.964 L
141.703 330.651 L
142.541 330.229 L
143.378 325.59 L
144.216 338.663 L
145.054 344.988 L
145.892 324.747 L
146.73 321.374 L
147.568 326.434 L
148.405 312.94 L
149.243 328.12 L
150.081 338.241 L
150.919 339.084 L
151.757 317.157 L
152.595 326.855 L
153.432 319.687 L
154.27 319.687 L
155.108 309.988 L
155.946 326.434 L
156.784 335.711 L
157.622 323.06 L
158.459 318.422 L
159.297 329.807 L
160.135 327.277 L
160.973 326.855 L
161.811 338.241 L
162.649 336.976 L
163.486 323.904 L
164.324 318 L
165.162 320.952 L
166 327.277 L
166.838 344.145 L
167.676 328.542 L
168.514 340.349 L
169.351 339.084 L
170.189 315.47 L
171.027 326.434 L
171.865 312.096 L
172.703 320.53 L
173.541 331.494 L
174.378 337.398 L
175.216 308.301 L
176.054 314.626 L
176.892 326.855 L
177.73 318.843 L
178.568 322.639 L
179.405 335.711 L
180.243 341.193 L
181.081 320.53 L
181.919 316.313 L
182.757 321.795 L
183.595 316.313 L
184.432 323.904 L
185.27 334.446 L
186.108 339.506 L
186.946 326.012 L
187.784 321.374 L
188.622 329.807 L
189.459 318.843 L
190.297 320.108 L
191.135 332.759 L
191.973 337.398 L
192.811 312.94 L
193.649 309.566 L
194.486 310.831 L
195.324 301.976 L
196.162 304.084 L
197 327.699 L
197.838 338.663 L
198.676 314.205 L
199.514 324.325 L
200.351 314.205 L
201.189 317.157 L
202.027 317.578 L
202.865 329.386 L
203.703 341.193 L
204.541 307.88 L
205.378 315.048 L
206.216 313.361 L
207.054 312.096 L
207.892 319.687 L
208.73 338.241 L
209.568 330.651 L
210.405 327.277 L
211.243 307.036 L
212.081 283 L
212.919 304.928 L
213.757 307.036 L
214.595 326.855 L
215.432 334.446 L
216.27 310.41 L
217.108 316.735 L
217.946 298.602 L
218.784 310.831 L
219.622 336.554 L
220.459 328.542 L
221.297 332.759 L
222.135 302.398 L
222.973 299.024 L
223.811 307.458 L
224.649 306.614 L
225.486 309.988 L
226.324 328.964 L
227.162 338.663 L
228 314.205 L
228.838 303.663 L
229.676 313.783 L
230.514 315.47 L
231.351 308.301 L
232.189 334.867 L
233.027 339.084 L
233.865 309.566 L
234.703 306.193 L
235.541 318 L
236.378 311.253 L
237.216 313.783 L
238.054 328.542 L
238.892 331.072 L
239.73 315.048 L
240.568 307.88 L
241.405 299.867 L
242.243 301.133 L
243.081 312.94 L
243.919 333.181 L
244.757 335.289 L
245.595 315.048 L
246.432 316.735 L
247.27 314.205 L
248.108 310.41 L
248.946 317.578 L
249.784 331.072 L
250.622 334.446 L
251.459 323.904 L
252.297 317.578 L
253.135 309.566 L
253.973 307.88 L
254.811 317.578 L
255.649 323.482 L
256.486 332.759 L
257.324 309.566 L
258.162 315.892 L
259 314.626 L
259.838 310.831 L
260.676 310.41 L
261.514 325.59 L
262.351 327.699 L
263.189 322.639 L
264.027 312.518 L
264.865 315.048 L
265.703 324.325 L
266.541 316.313 L
267.378 331.916 L
268.216 336.976 L
269.054 318 L
269.892 320.952 L
270.73 320.952 L
271.568 321.374 L
272.405 312.096 L
273.243 337.819 L
274.081 339.928 L
274.919 314.626 L
275.757 320.108 L
276.595 310.831 L
277.432 301.133 L
278.27 322.639 L
279.108 330.651 L
279.946 333.602 L
280.784 316.735 L
281.622 306.193 L
282.459 300.289 L
283.297 302.398 L
284.135 317.157 L
284.973 330.651 L
285.811 329.807 L
286.649 307.458 L
287.486 303.663 L
288.324 298.602 L
289.162 299.446 L
290 293.542 L
290.838 325.169 L
291.676 340.771 L
292.514 309.566 L
293.351 305.349 L
294.189 308.723 L
295.027 299.024 L
295.865 313.783 L
296.703 334.446 L
297.541 330.229 L
298.378 312.096 L
299.216 304.506 L
300.054 307.458 L
300.892 300.711 L
301.73 305.349 L
302.568 335.289 L
303.405 332.759 L
304.243 298.181 L
305.081 302.398 L
305.919 311.253 L
306.757 299.024 L
307.595 311.675 L
308.432 327.699 L
309.27 329.386 L
310.108 298.602 L
310.946 303.241 L
311.784 326.012 L
312.622 304.928 L
313.459 305.349 L
314.297 328.964 L
315.135 331.916 L
315.973 315.048 L
316.811 309.566 L
317.649 299.867 L
318.486 315.47 L
319.324 318 L
320.162 326.012 L
321 337.819 L
321.838 307.458 L
322.676 308.723 L
323.514 315.892 L
324.351 310.831 L
325.189 318.422 L
326.027 328.12 L
326.865 331.916 L
327.703 316.313 L
328.541 338.663 L
329.378 309.988 L
330.216 312.518 L
331.054 318.843 L
331.892 330.229 L
332.73 342.458 L
333.568 311.675 L
334.405 306.193 L
335.243 309.566 L
336.081 309.566 L
336.919 306.193 L
337.757 326.434 L
338.595 344.566 L
339.432 311.675 L
340.27 319.687 L
341.108 318 L
341.946 304.084 L
342.784 323.06 L
343.622 334.024 L
344.459 347.518 L
345.297 312.096 L
346.135 312.518 L
346.973 318 L
347.811 304.928 L
348.649 300.711 L
349.486 330.651 L
350.324 342.88 L
351.162 317.157 L
352 304.928 L
352.838 316.735 L
353.676 312.096 L
354.514 312.518 L
355.351 331.494 L
356.189 340.771 L
357.027 316.735 L
357.865 336.133 L
358.703 320.53 L
359.541 331.072 L
360.378 328.542 L
361.216 334.024 L
362.054 339.506 L
362.892 317.578 L
363.73 310.831 L
364.568 311.253 L
365.405 315.47 L
366.243 323.06 L
367.081 339.084 L
367.919 339.928 L
368.757 321.374 L
369.595 311.253 L
370.432 311.253 L
371.27 309.988 L
372.108 319.687 L
372.946 333.602 L
373.784 350.47 L
374.622 335.711 L
375.459 312.94 L
376.297 315.892 L
377.135 319.687 L
377.973 327.277 L
378.811 332.759 L
379.649 335.289 L
380.486 315.47 L
381.324 321.374 L
382.162 304.084 L
383 321.795 L
383.838 342.036 L
384.676 325.169 L
385.514 339.084 L
386.351 318.422 L
387.189 312.94 L
388.027 313.361 L
388.865 317.578 L
389.703 318.843 L
390.541 337.819 L
391.378 341.193 L
392.216 323.904 L
393.054 320.53 L
393.892 322.639 L
394.73 314.626 L
395.568 313.361 L
396.405 336.133 L
397.243 342.036 L
398.081 308.723 L
398.919 321.374 L
399.757 312.94 L
400.595 311.675 L
401.432 316.313 L
402.27 336.554 L
403.108 341.614 L
403.946 314.626 L
404.784 316.313 L
405.622 323.06 L
406.459 318.422 L
407.297 326.012 L
408.135 335.289 L
408.973 341.614 L
409.811 320.952 L
410.649 318.422 L
411.486 327.277 L
412.324 315.47 L
413.162 329.386 L
414 337.819 L
414.838 342.88 L
415.676 317.157 L
416.514 326.434 L
417.351 314.205 L
418.189 316.313 L
419.027 318.422 L
419.865 339.084 L
420.703 337.819 L
421.541 314.626 L
422.378 310.831 L
423.216 310.41 L
424.054 311.675 L
424.892 313.783 L
425.73 334.867 L
426.568 338.663 L
427.405 318.843 L
428.243 318 L
429.081 314.205 L
429.919 319.687 L
430.757 311.253 L
431.595 337.398 L
432.432 341.614 L
433.27 308.723 L
434.108 307.88 L
434.946 318.843 L
435.784 313.361 L
436.622 316.313 L
437.459 337.819 L
438.297 341.193 L
439.135 311.675 L
439.973 308.301 L
440.811 309.145 L
441.649 311.675 L
442.486 320.53 L
443.324 333.181 L
444.162 323.482 L
445 318.422 L
445.838 314.205 L
446.676 313.361 L
447.514 311.675 L
448.351 313.783 L
449.189 332.759 L
450.027 330.229 L
450.865 316.313 L
451.703 316.313 L
452.541 308.301 L
453.378 291.012 L
454.216 306.614 L
455.054 334.867 L
455.892 334.446 L
456.73 313.361 L
457.568 310.831 L
458.405 317.157 L
459.243 330.229 L
460.081 342.88 L
460.919 332.337 L
461.757 338.663 L
462.595 336.133 L
463.432 311.675 L
464.27 303.241 L
465.108 311.675 L
465.946 315.47 L
466.784 330.229 L
467.622 326.012 L
468.459 317.578 L
469.297 304.084 L
470.135 311.253 L
470.973 302.819 L
471.811 306.193 L
472.649 332.337 L
473.486 338.241 L
474.324 305.349 L
475.162 314.205 L
476 306.193 L
476.838 305.771 L
477.676 308.723 L
478.514 332.337 L
479.351 336.976 L
480.189 312.096 L
481.027 330.651 L
481.865 312.096 L
482.703 307.88 L
483.541 310.41 L
484.378 326.855 L
485.216 334.446 L
486.054 295.229 L
486.892 299.446 L
487.73 297.337 L
488.568 297.337 L
489.405 293.12 L
490.243 321.374 L
491.081 338.663 L
491.919 308.723 L
492.757 302.819 L
493.595 306.614 L
494.432 301.554 L
495.27 304.928 L
496.108 334.024 L
496.946 340.771 L
497.784 306.614 L
498.622 307.458 L
499.459 301.554 L
500.297 292.699 L
501.135 305.349 L
501.973 329.386 L
502.811 334.446 L
503.649 324.325 L
504.486 291.434 L
505.324 288.06 L
506.162 296.072 L
S
GR
%%Trailer
%%Pages: 1
%%EOF
