%!PS-Adobe-3.0 EPSF-3.0
%%Creator: (MATLAB, The Mathworks, Inc. Version 9.2.0.538062 \(R2017a\). Operating System: Linux)
%%Title: (/mnt/data/GRIVE_UCLM/UCLM/MY_WORK/2017/Automatic Model Selection IJF/IJF-NOSTRUM/fig4.eps)
%%CreationDate: 2017-06-14T14:17:57
%%Pages: (atend)
%%BoundingBox: 0 0 545 254
%%LanguageLevel: 3
%%EndComments
%%BeginProlog
%%BeginResource: procset (Apache XML Graphics Std ProcSet) 1.2 0
%%Version: 1.2 0
%%Copyright: (Copyright 2001-2003,2010 The Apache Software Foundation. License terms: http://www.apache.org/licenses/LICENSE-2.0)
/bd{bind def}bind def
/ld{load def}bd
/GR/grestore ld
/M/moveto ld
/LJ/setlinejoin ld
/C/curveto ld
/f/fill ld
/LW/setlinewidth ld
/GC/setgray ld
/t/show ld
/N/newpath ld
/CT/concat ld
/cp/closepath ld
/S/stroke ld
/L/lineto ld
/CC/setcmykcolor ld
/A/ashow ld
/GS/gsave ld
/RC/setrgbcolor ld
/RM/rmoveto ld
/ML/setmiterlimit ld
/re {4 2 roll M
1 index 0 rlineto
0 exch rlineto
neg 0 rlineto
cp } bd
/_ctm matrix def
/_tm matrix def
/BT { _ctm currentmatrix pop matrix _tm copy pop 0 0 moveto } bd
/ET { _ctm setmatrix } bd
/iTm { _ctm setmatrix _tm concat } bd
/Tm { _tm astore pop iTm 0 0 moveto } bd
/ux 0.0 def
/uy 0.0 def
/F {
  /Tp exch def
  /Tf exch def
  Tf findfont Tp scalefont setfont
  /cf Tf def  /cs Tp def
} bd
/ULS {currentpoint /uy exch def /ux exch def} bd
/ULE {
  /Tcx currentpoint pop def
  gsave
  newpath
  cf findfont cs scalefont dup
  /FontMatrix get 0 get /Ts exch def /FontInfo get dup
  /UnderlinePosition get Ts mul /To exch def
  /UnderlineThickness get Ts mul /Tt exch def
  ux uy To add moveto  Tcx uy To add lineto
  Tt setlinewidth stroke
  grestore
} bd
/OLE {
  /Tcx currentpoint pop def
  gsave
  newpath
  cf findfont cs scalefont dup
  /FontMatrix get 0 get /Ts exch def /FontInfo get dup
  /UnderlinePosition get Ts mul /To exch def
  /UnderlineThickness get Ts mul /Tt exch def
  ux uy To add cs add moveto Tcx uy To add cs add lineto
  Tt setlinewidth stroke
  grestore
} bd
/SOE {
  /Tcx currentpoint pop def
  gsave
  newpath
  cf findfont cs scalefont dup
  /FontMatrix get 0 get /Ts exch def /FontInfo get dup
  /UnderlinePosition get Ts mul /To exch def
  /UnderlineThickness get Ts mul /Tt exch def
  ux uy To add cs 10 mul 26 idiv add moveto Tcx uy To add cs 10 mul 26 idiv add lineto
  Tt setlinewidth stroke
  grestore
} bd
/QT {
/Y22 exch store
/X22 exch store
/Y21 exch store
/X21 exch store
currentpoint
/Y21 load 2 mul add 3 div exch
/X21 load 2 mul add 3 div exch
/X21 load 2 mul /X22 load add 3 div
/Y21 load 2 mul /Y22 load add 3 div
/X22 load /Y22 load curveto
} bd
/SSPD {
dup length /d exch dict def
{
/v exch def
/k exch def
currentpagedevice k known {
/cpdv currentpagedevice k get def
v cpdv ne {
/upd false def
/nullv v type /nulltype eq def
/nullcpdv cpdv type /nulltype eq def
nullv nullcpdv or
{
/upd true def
} {
/sametype v type cpdv type eq def
sametype {
v type /arraytype eq {
/vlen v length def
/cpdvlen cpdv length def
vlen cpdvlen eq {
0 1 vlen 1 sub {
/i exch def
/obj v i get def
/cpdobj cpdv i get def
obj cpdobj ne {
/upd true def
exit
} if
} for
} {
/upd true def
} ifelse
} {
v type /dicttype eq {
v {
/dv exch def
/dk exch def
/cpddv cpdv dk get def
dv cpddv ne {
/upd true def
exit
} if
} forall
} {
/upd true def
} ifelse
} ifelse
} if
} ifelse
upd true eq {
d k v put
} if
} if
} if
} forall
d length 0 gt {
d setpagedevice
} if
} bd
/RE { % /NewFontName [NewEncodingArray] /FontName RE -
  findfont dup length dict begin
  {
    1 index /FID ne
    {def} {pop pop} ifelse
  } forall
  /Encoding exch def
  /FontName 1 index def
  currentdict definefont pop
  end
} bind def
%%EndResource
%%BeginResource: procset (Apache XML Graphics EPS ProcSet) 1.0 0
%%Version: 1.0 0
%%Copyright: (Copyright 2002-2003 The Apache Software Foundation. License terms: http://www.apache.org/licenses/LICENSE-2.0)
/BeginEPSF { %def
/b4_Inc_state save def         % Save state for cleanup
/dict_count countdictstack def % Count objects on dict stack
/op_count count 1 sub def      % Count objects on operand stack
userdict begin                 % Push userdict on dict stack
/showpage { } def              % Redefine showpage, { } = null proc
0 setgray 0 setlinecap         % Prepare graphics state
1 setlinewidth 0 setlinejoin
10 setmiterlimit [ ] 0 setdash newpath
/languagelevel where           % If level not equal to 1 then
{pop languagelevel             % set strokeadjust and
1 ne                           % overprint to their defaults.
{false setstrokeadjust false setoverprint
} if
} if
} bd
/EndEPSF { %def
count op_count sub {pop} repeat            % Clean up stacks
countdictstack dict_count sub {end} repeat
b4_Inc_state restore
} bd
%%EndResource
%FOPBeginFontDict
%%IncludeResource: font Courier-Bold
%%IncludeResource: font Helvetica
%%IncludeResource: font Courier-BoldOblique
%%IncludeResource: font Courier-Oblique
%%IncludeResource: font Times-Roman
%%IncludeResource: font Helvetica-BoldOblique
%%IncludeResource: font Helvetica-Bold
%%IncludeResource: font Helvetica-Oblique
%%IncludeResource: font Times-BoldItalic
%%IncludeResource: font Courier
%%IncludeResource: font Times-Italic
%%IncludeResource: font Times-Bold
%%IncludeResource: font Symbol
%%IncludeResource: font ZapfDingbats
%FOPEndFontDict
%%BeginResource: encoding WinAnsiEncoding
/WinAnsiEncoding [
/.notdef /.notdef /.notdef /.notdef /.notdef
/.notdef /.notdef /.notdef /.notdef /.notdef
/.notdef /.notdef /.notdef /.notdef /.notdef
/.notdef /.notdef /.notdef /.notdef /.notdef
/.notdef /.notdef /.notdef /.notdef /.notdef
/.notdef /.notdef /.notdef /.notdef /.notdef
/.notdef /.notdef /space /exclam /quotedbl
/numbersign /dollar /percent /ampersand /quotesingle
/parenleft /parenright /asterisk /plus /comma
/hyphen /period /slash /zero /one
/two /three /four /five /six
/seven /eight /nine /colon /semicolon
/less /equal /greater /question /at
/A /B /C /D /E
/F /G /H /I /J
/K /L /M /N /O
/P /Q /R /S /T
/U /V /W /X /Y
/Z /bracketleft /backslash /bracketright /asciicircum
/underscore /quoteleft /a /b /c
/d /e /f /g /h
/i /j /k /l /m
/n /o /p /q /r
/s /t /u /v /w
/x /y /z /braceleft /bar
/braceright /asciitilde /bullet /Euro /bullet
/quotesinglbase /florin /quotedblbase /ellipsis /dagger
/daggerdbl /circumflex /perthousand /Scaron /guilsinglleft
/OE /bullet /Zcaron /bullet /bullet
/quoteleft /quoteright /quotedblleft /quotedblright /bullet
/endash /emdash /asciitilde /trademark /scaron
/guilsinglright /oe /bullet /zcaron /Ydieresis
/space /exclamdown /cent /sterling /currency
/yen /brokenbar /section /dieresis /copyright
/ordfeminine /guillemotleft /logicalnot /sfthyphen /registered
/macron /degree /plusminus /twosuperior /threesuperior
/acute /mu /paragraph /middot /cedilla
/onesuperior /ordmasculine /guillemotright /onequarter /onehalf
/threequarters /questiondown /Agrave /Aacute /Acircumflex
/Atilde /Adieresis /Aring /AE /Ccedilla
/Egrave /Eacute /Ecircumflex /Edieresis /Igrave
/Iacute /Icircumflex /Idieresis /Eth /Ntilde
/Ograve /Oacute /Ocircumflex /Otilde /Odieresis
/multiply /Oslash /Ugrave /Uacute /Ucircumflex
/Udieresis /Yacute /Thorn /germandbls /agrave
/aacute /acircumflex /atilde /adieresis /aring
/ae /ccedilla /egrave /eacute /ecircumflex
/edieresis /igrave /iacute /icircumflex /idieresis
/eth /ntilde /ograve /oacute /ocircumflex
/otilde /odieresis /divide /oslash /ugrave
/uacute /ucircumflex /udieresis /yacute /thorn
/ydieresis
] def
%%EndResource
%FOPBeginFontReencode
/Courier-Bold findfont
dup length dict begin
  {1 index /FID ne {def} {pop pop} ifelse} forall
  /Encoding WinAnsiEncoding def
  currentdict
end
/Courier-Bold exch definefont pop
/Helvetica findfont
dup length dict begin
  {1 index /FID ne {def} {pop pop} ifelse} forall
  /Encoding WinAnsiEncoding def
  currentdict
end
/Helvetica exch definefont pop
/Courier-BoldOblique findfont
dup length dict begin
  {1 index /FID ne {def} {pop pop} ifelse} forall
  /Encoding WinAnsiEncoding def
  currentdict
end
/Courier-BoldOblique exch definefont pop
/Courier-Oblique findfont
dup length dict begin
  {1 index /FID ne {def} {pop pop} ifelse} forall
  /Encoding WinAnsiEncoding def
  currentdict
end
/Courier-Oblique exch definefont pop
/Times-Roman findfont
dup length dict begin
  {1 index /FID ne {def} {pop pop} ifelse} forall
  /Encoding WinAnsiEncoding def
  currentdict
end
/Times-Roman exch definefont pop
/Helvetica-BoldOblique findfont
dup length dict begin
  {1 index /FID ne {def} {pop pop} ifelse} forall
  /Encoding WinAnsiEncoding def
  currentdict
end
/Helvetica-BoldOblique exch definefont pop
/Helvetica-Bold findfont
dup length dict begin
  {1 index /FID ne {def} {pop pop} ifelse} forall
  /Encoding WinAnsiEncoding def
  currentdict
end
/Helvetica-Bold exch definefont pop
/Helvetica-Oblique findfont
dup length dict begin
  {1 index /FID ne {def} {pop pop} ifelse} forall
  /Encoding WinAnsiEncoding def
  currentdict
end
/Helvetica-Oblique exch definefont pop
/Times-BoldItalic findfont
dup length dict begin
  {1 index /FID ne {def} {pop pop} ifelse} forall
  /Encoding WinAnsiEncoding def
  currentdict
end
/Times-BoldItalic exch definefont pop
/Courier findfont
dup length dict begin
  {1 index /FID ne {def} {pop pop} ifelse} forall
  /Encoding WinAnsiEncoding def
  currentdict
end
/Courier exch definefont pop
/Times-Italic findfont
dup length dict begin
  {1 index /FID ne {def} {pop pop} ifelse} forall
  /Encoding WinAnsiEncoding def
  currentdict
end
/Times-Italic exch definefont pop
/Times-Bold findfont
dup length dict begin
  {1 index /FID ne {def} {pop pop} ifelse} forall
  /Encoding WinAnsiEncoding def
  currentdict
end
/Times-Bold exch definefont pop
%FOPEndFontReencode
%%EndProlog
%%Page: 1 1
%%PageBoundingBox: 0 0 545 254
%%BeginPageSetup
[1 0 0 -1 0 254] CT
%%EndPageSetup
GS
[0.75 0 0 0.75 0 0.5] CT
N
0 0 M
727 0 L
727 338 L
0 338 L
0 0 L
cp
clip
1 GC
N
0 0 727 338 re
f
GR
GS
[0.75 0 0 0.75 0 0.5] CT
1 GC
N
0 0 727 338 re
f
GR
GS
[0.75 0 0 0.75 0 0.5] CT
1 GC
N
95 297 M
658 297 L
658 25 L
95 25 L
cp
f
GR
GS
[0.75 0 0 0.75 0 0.5] CT
0.149 GC
2 setlinecap
1 LJ
1.333 LW
N
95 297 M
658 297 L
S
GR
GS
[0.75 0 0 0.75 0 0.5] CT
0.149 GC
2 setlinecap
1 LJ
1.333 LW
N
95 25 M
658 25 L
S
GR
GS
[0.75 0 0 0.75 0 0.5] CT
0.149 GC
2 setlinecap
1 LJ
1.333 LW
N
98.331 297 M
98.331 291.37 L
S
GR
GS
[0.75 0 0 0.75 0 0.5] CT
0.149 GC
2 setlinecap
1 LJ
1.333 LW
N
164.959 297 M
164.959 291.37 L
S
GR
GS
[0.75 0 0 0.75 0 0.5] CT
0.149 GC
2 setlinecap
1 LJ
1.333 LW
N
231.586 297 M
231.586 291.37 L
S
GR
GS
[0.75 0 0 0.75 0 0.5] CT
0.149 GC
2 setlinecap
1 LJ
1.333 LW
N
298.213 297 M
298.213 291.37 L
S
GR
GS
[0.75 0 0 0.75 0 0.5] CT
0.149 GC
2 setlinecap
1 LJ
1.333 LW
N
364.84 297 M
364.84 291.37 L
S
GR
GS
[0.75 0 0 0.75 0 0.5] CT
0.149 GC
2 setlinecap
1 LJ
1.333 LW
N
431.467 297 M
431.467 291.37 L
S
GR
GS
[0.75 0 0 0.75 0 0.5] CT
0.149 GC
2 setlinecap
1 LJ
1.333 LW
N
498.095 297 M
498.095 291.37 L
S
GR
GS
[0.75 0 0 0.75 0 0.5] CT
0.149 GC
2 setlinecap
1 LJ
1.333 LW
N
564.722 297 M
564.722 291.37 L
S
GR
GS
[0.75 0 0 0.75 0 0.5] CT
0.149 GC
2 setlinecap
1 LJ
1.333 LW
N
631.349 297 M
631.349 291.37 L
S
GR
GS
[0.75 0 0 0.75 0 0.5] CT
0.149 GC
2 setlinecap
1 LJ
1.333 LW
N
98.331 25 M
98.331 30.63 L
S
GR
GS
[0.75 0 0 0.75 0 0.5] CT
0.149 GC
2 setlinecap
1 LJ
1.333 LW
N
164.959 25 M
164.959 30.63 L
S
GR
GS
[0.75 0 0 0.75 0 0.5] CT
0.149 GC
2 setlinecap
1 LJ
1.333 LW
N
231.586 25 M
231.586 30.63 L
S
GR
GS
[0.75 0 0 0.75 0 0.5] CT
0.149 GC
2 setlinecap
1 LJ
1.333 LW
N
298.213 25 M
298.213 30.63 L
S
GR
GS
[0.75 0 0 0.75 0 0.5] CT
0.149 GC
2 setlinecap
1 LJ
1.333 LW
N
364.84 25 M
364.84 30.63 L
S
GR
GS
[0.75 0 0 0.75 0 0.5] CT
0.149 GC
2 setlinecap
1 LJ
1.333 LW
N
431.467 25 M
431.467 30.63 L
S
GR
GS
[0.75 0 0 0.75 0 0.5] CT
0.149 GC
2 setlinecap
1 LJ
1.333 LW
N
498.095 25 M
498.095 30.63 L
S
GR
GS
[0.75 0 0 0.75 0 0.5] CT
0.149 GC
2 setlinecap
1 LJ
1.333 LW
N
564.722 25 M
564.722 30.63 L
S
GR
GS
[0.75 0 0 0.75 0 0.5] CT
0.149 GC
2 setlinecap
1 LJ
1.333 LW
N
631.349 25 M
631.349 30.63 L
S
GR
GS
[0.75 0 0 0.75 73.74852 227.25001] CT
0.149 GC
/Helvetica 13.333 F
GS
[1 0 0 1 0 0] CT
-4 13 moveto 
1 -1 scale
(0) t 
GR
GR
GS
[0.75 0 0 0.75 123.71893 227.25001] CT
0.149 GC
/Helvetica 13.333 F
GS
[1 0 0 1 0 0] CT
-7.5 13 moveto 
1 -1 scale
(20) t 
GR
GR
GS
[0.75 0 0 0.75 173.68935 227.25001] CT
0.149 GC
/Helvetica 13.333 F
GS
[1 0 0 1 0 0] CT
-7.5 13 moveto 
1 -1 scale
(40) t 
GR
GR
GS
[0.75 0 0 0.75 223.65976 227.25001] CT
0.149 GC
/Helvetica 13.333 F
GS
[1 0 0 1 0 0] CT
-7.5 13 moveto 
1 -1 scale
(60) t 
GR
GR
GS
[0.75 0 0 0.75 273.63018 227.25001] CT
0.149 GC
/Helvetica 13.333 F
GS
[1 0 0 1 0 0] CT
-7.5 13 moveto 
1 -1 scale
(80) t 
GR
GR
GS
[0.75 0 0 0.75 323.6006 227.25001] CT
0.149 GC
/Helvetica 13.333 F
GS
[1 0 0 1 0 0] CT
-11 13 moveto 
1 -1 scale
(100) t 
GR
GR
GS
[0.75 0 0 0.75 373.571 227.25001] CT
0.149 GC
/Helvetica 13.333 F
GS
[1 0 0 1 0 0] CT
-11 13 moveto 
1 -1 scale
(120) t 
GR
GR
GS
[0.75 0 0 0.75 423.54144 227.25001] CT
0.149 GC
/Helvetica 13.333 F
GS
[1 0 0 1 0 0] CT
-11 13 moveto 
1 -1 scale
(140) t 
GR
GR
GS
[0.75 0 0 0.75 473.51184 227.25001] CT
0.149 GC
/Helvetica 13.333 F
GS
[1 0 0 1 0 0] CT
-11 13 moveto 
1 -1 scale
(160) t 
GR
GR
GS
[0.75 0 0 0.75 282.37521 240.24999] CT
0.149 GC
/Helvetica 14.667 F
GS
[1 0 0 1 0 0] CT
-53.5 14 moveto 
1 -1 scale
(Product number) t 
GR
GR
GS
[0.75 0 0 0.75 0 0.5] CT
0.149 GC
2 setlinecap
1 LJ
1.333 LW
N
95 297 M
95 25 L
S
GR
GS
[0.75 0 0 0.75 0 0.5] CT
0.149 GC
2 setlinecap
1 LJ
1.333 LW
N
658 297 M
658 25 L
S
GR
GS
[0.75 0 0 0.75 0 0.5] CT
0.149 GC
2 setlinecap
1 LJ
1.333 LW
N
95 276.394 M
100.63 276.394 L
S
GR
GS
[0.75 0 0 0.75 0 0.5] CT
0.149 GC
2 setlinecap
1 LJ
1.333 LW
N
95 235.182 M
100.63 235.182 L
S
GR
GS
[0.75 0 0 0.75 0 0.5] CT
0.149 GC
2 setlinecap
1 LJ
1.333 LW
N
95 193.97 M
100.63 193.97 L
S
GR
GS
[0.75 0 0 0.75 0 0.5] CT
0.149 GC
2 setlinecap
1 LJ
1.333 LW
N
95 152.758 M
100.63 152.758 L
S
GR
GS
[0.75 0 0 0.75 0 0.5] CT
0.149 GC
2 setlinecap
1 LJ
1.333 LW
N
95 111.545 M
100.63 111.545 L
S
GR
GS
[0.75 0 0 0.75 0 0.5] CT
0.149 GC
2 setlinecap
1 LJ
1.333 LW
N
95 70.333 M
100.63 70.333 L
S
GR
GS
[0.75 0 0 0.75 0 0.5] CT
0.149 GC
2 setlinecap
1 LJ
1.333 LW
N
95 29.121 M
100.63 29.121 L
S
GR
GS
[0.75 0 0 0.75 0 0.5] CT
0.149 GC
2 setlinecap
1 LJ
1.333 LW
N
658 276.394 M
652.37 276.394 L
S
GR
GS
[0.75 0 0 0.75 0 0.5] CT
0.149 GC
2 setlinecap
1 LJ
1.333 LW
N
658 235.182 M
652.37 235.182 L
S
GR
GS
[0.75 0 0 0.75 0 0.5] CT
0.149 GC
2 setlinecap
1 LJ
1.333 LW
N
658 193.97 M
652.37 193.97 L
S
GR
GS
[0.75 0 0 0.75 0 0.5] CT
0.149 GC
2 setlinecap
1 LJ
1.333 LW
N
658 152.758 M
652.37 152.758 L
S
GR
GS
[0.75 0 0 0.75 0 0.5] CT
0.149 GC
2 setlinecap
1 LJ
1.333 LW
N
658 111.545 M
652.37 111.545 L
S
GR
GS
[0.75 0 0 0.75 0 0.5] CT
0.149 GC
2 setlinecap
1 LJ
1.333 LW
N
658 70.333 M
652.37 70.333 L
S
GR
GS
[0.75 0 0 0.75 0 0.5] CT
0.149 GC
2 setlinecap
1 LJ
1.333 LW
N
658 29.121 M
652.37 29.121 L
S
GR
GS
[0.75 0 0 0.75 67.25 207.79546] CT
0.149 GC
/Helvetica 13.333 F
GS
[1 0 0 1 0 0] CT
-19 5 moveto 
1 -1 scale
(0.2) t 
GR
GR
GS
[0.75 0 0 0.75 67.25 176.88637] CT
0.149 GC
/Helvetica 13.333 F
GS
[1 0 0 1 0 0] CT
-19 5 moveto 
1 -1 scale
(0.4) t 
GR
GR
GS
[0.75 0 0 0.75 67.25 145.97727] CT
0.149 GC
/Helvetica 13.333 F
GS
[1 0 0 1 0 0] CT
-19 5 moveto 
1 -1 scale
(0.6) t 
GR
GR
GS
[0.75 0 0 0.75 67.25 115.06818] CT
0.149 GC
/Helvetica 13.333 F
GS
[1 0 0 1 0 0] CT
-19 5 moveto 
1 -1 scale
(0.8) t 
GR
GR
GS
[0.75 0 0 0.75 67.25 84.15909] CT
0.149 GC
/Helvetica 13.333 F
GS
[1 0 0 1 0 0] CT
-8 5 moveto 
1 -1 scale
(1) t 
GR
GR
GS
[0.75 0 0 0.75 67.25 53.24999] CT
0.149 GC
/Helvetica 13.333 F
GS
[1 0 0 1 0 0] CT
-19 5 moveto 
1 -1 scale
(1.2) t 
GR
GR
GS
[0.75 0 0 0.75 67.25 22.34091] CT
0.149 GC
/Helvetica 13.333 F
GS
[1 0 0 1 0 0] CT
-19 5 moveto 
1 -1 scale
(1.4) t 
GR
GR
GS
[0 -0.75 0.75 0 42.75 137.75] CT
0.149 GC
/Helvetica 14.667 F
GS
[1 0 0 1 0 0] CT
0 0 moveto 
1 -1 scale
(CsE) t 
GR
GR
GS
[0 -0.75 0.75 0 48 116] CT
0.149 GC
/Helvetica 11.733 F
GS
[1 0 0 1 0 0] CT
0 0 moveto 
1 -1 scale
(14) t 
GR
GR
GS
[0.75 0 0 0.75 0 0.5] CT
0.149 GC
1 LJ
0.667 LW
N
95 297 M
658 297 L
S
GR
GS
[0.75 0 0 0.75 0 0.5] CT
[1 3] 0 setdash
2 LJ
0.667 LW
N
101.663 259.114 M
104.994 293.972 L
108.325 272.63 L
111.657 268.129 L
114.988 277.037 L
118.32 280.032 L
121.651 238.169 L
124.982 280.974 L
128.314 260.242 L
131.645 273.671 L
134.976 263.183 L
138.308 235.376 L
141.639 252.884 L
144.97 269.985 L
148.302 288.775 L
151.633 267.719 L
154.964 260.504 L
158.296 254.694 L
161.627 225.035 L
164.959 234.378 L
168.29 228.283 L
171.621 45.183 L
174.953 281.921 L
178.284 244.051 L
181.615 275.477 L
184.947 218.483 L
188.278 268.04 L
191.609 277.677 L
194.941 289.188 L
198.272 284.299 L
201.604 283.989 L
204.935 288.465 L
208.266 280.916 L
211.598 273.789 L
214.929 255.771 L
218.26 263.678 L
221.592 260.049 L
224.923 267.503 L
228.254 248.232 L
231.586 252.993 L
234.917 216.809 L
238.249 226.918 L
241.58 234.992 L
244.911 209.453 L
248.243 247.399 L
251.574 258.025 L
254.905 266.376 L
258.237 142.185 L
261.568 267.854 L
264.899 270.771 L
268.231 276.468 L
271.562 260.305 L
274.893 257.603 L
278.225 265.206 L
281.556 278.574 L
284.888 279.695 L
288.219 222.524 L
291.55 224.485 L
294.882 252.14 L
298.213 252.746 L
301.544 274.539 L
304.876 290.048 L
308.207 240.649 L
311.538 281.75 L
314.87 263.953 L
318.201 276.215 L
321.533 269.158 L
324.864 254.984 L
328.195 263.767 L
331.527 271.295 L
334.858 227.553 L
338.189 212.378 L
341.521 264.21 L
344.852 268.958 L
348.183 253.625 L
351.515 240.646 L
354.846 287.415 L
358.178 275.495 L
361.509 274.124 L
364.84 242.984 L
368.172 285.442 L
371.503 224.566 L
374.834 277.945 L
378.166 266.704 L
381.497 277.855 L
384.828 259.613 L
388.16 274.11 L
391.491 214.497 L
394.822 201.443 L
398.154 190.513 L
401.485 247.222 L
404.817 221.288 L
408.148 230.59 L
411.479 256.776 L
414.811 238.864 L
418.142 239.845 L
421.473 215.794 L
424.805 230.398 L
428.136 258.309 L
431.467 246.406 L
434.799 245.143 L
438.13 240.494 L
441.462 274.174 L
444.793 256.863 L
448.124 259.172 L
451.456 219.499 L
454.787 263.376 L
458.118 264.845 L
461.45 273.169 L
464.781 267.389 L
468.112 257.931 L
471.444 274.96 L
474.775 271.827 L
478.107 271.659 L
481.438 254.113 L
484.769 276.535 L
488.101 236.58 L
491.432 226.914 L
494.763 249.993 L
498.095 236.207 L
501.426 238.376 L
504.757 230.894 L
508.089 230.117 L
511.42 229.475 L
514.751 267.395 L
518.083 288.798 L
521.414 271.856 L
524.746 287.392 L
528.077 251.133 L
531.408 264.24 L
534.74 237.948 L
538.071 279.502 L
541.402 266.356 L
544.734 280.453 L
548.065 269.897 L
551.396 289.523 L
554.728 262.037 L
558.059 248.663 L
561.391 161.974 L
564.722 210.397 L
568.053 216.071 L
571.385 154.287 L
574.716 87.105 L
578.047 117.62 L
581.379 151.945 L
584.71 275.079 L
588.041 270.059 L
591.373 216.504 L
594.704 206.714 L
598.036 233.885 L
601.367 235.98 L
604.698 253.582 L
608.03 226.434 L
611.361 242.286 L
614.692 168.595 L
618.024 226.329 L
621.355 240.95 L
624.686 243.866 L
628.018 199.074 L
631.349 192.212 L
634.68 190.754 L
638.012 219.919 L
641.343 226.729 L
644.675 167.259 L
648.006 268.391 L
651.337 235.58 L
S
GR
GS
[0.75 0 0 0.75 0 0.5] CT
1 LJ
0.667 LW
N
101.663 237.97 M
104.994 290.247 L
108.325 267.343 L
111.657 257.198 L
114.988 268.185 L
118.32 270.889 L
121.651 217.105 L
124.982 278.679 L
128.314 257.148 L
131.645 269.127 L
134.976 249.938 L
138.308 207.573 L
141.639 245.555 L
144.97 261.403 L
148.302 285.868 L
151.633 254.16 L
154.964 256.535 L
158.296 244.734 L
161.627 211.975 L
164.959 228.745 L
168.29 219.116 L
171.621 35.428 L
174.953 249.407 L
178.284 241.254 L
181.615 271.816 L
184.947 196.723 L
188.278 257.098 L
191.609 273.481 L
194.941 286.794 L
198.272 281.489 L
201.604 279.119 L
204.935 285.748 L
208.266 276.353 L
211.598 267.374 L
214.929 252.398 L
218.26 256.416 L
221.592 252.975 L
224.923 262.215 L
228.254 240.974 L
231.586 246.323 L
234.917 211.076 L
238.249 221.378 L
241.58 222.338 L
244.911 204.979 L
248.243 244.523 L
251.574 252.738 L
254.905 262.892 L
258.237 92.938 L
261.568 255.923 L
264.899 265.855 L
268.231 272.76 L
271.562 256.911 L
274.893 257.206 L
278.225 249.394 L
281.556 274.444 L
284.888 268.395 L
288.219 219.875 L
291.55 202.614 L
294.882 240.62 L
298.213 238.285 L
301.544 268.796 L
304.876 286.426 L
308.207 232.375 L
311.538 277.079 L
314.87 255.409 L
318.201 267.516 L
321.533 264.964 L
324.864 248.433 L
328.195 257.055 L
331.527 266.286 L
334.858 214.79 L
338.189 177.145 L
341.521 256.709 L
344.852 265.804 L
348.183 224.984 L
351.515 231.575 L
354.846 283.457 L
358.178 270.997 L
361.509 263.745 L
364.84 232.593 L
368.172 280.45 L
371.503 178.234 L
374.834 275.307 L
378.166 259.71 L
381.497 272.406 L
384.828 252.124 L
388.16 270.055 L
391.491 201.192 L
394.822 182.256 L
398.154 183.872 L
401.485 232.363 L
404.817 213.96 L
408.148 216.326 L
411.479 253.395 L
414.811 222.591 L
418.142 231.816 L
421.473 204.767 L
424.805 226.589 L
428.136 248.209 L
431.467 241.414 L
434.799 243.063 L
438.13 228.196 L
441.462 267.636 L
444.793 247.337 L
448.124 257.319 L
451.456 203.118 L
454.787 251.697 L
458.118 260.287 L
461.45 262.656 L
464.781 263.311 L
468.112 250.317 L
471.444 271.349 L
474.775 265.53 L
478.107 234.767 L
481.438 167.956 L
484.769 269.692 L
488.101 230.389 L
491.432 217.835 L
494.763 242.041 L
498.095 226.88 L
501.426 225.39 L
504.757 220.049 L
508.089 222.692 L
511.42 221.583 L
514.751 260.478 L
518.083 284.591 L
521.414 269.701 L
524.746 283.862 L
528.077 244.155 L
531.408 257.409 L
534.74 231.428 L
538.071 269.043 L
541.402 248.235 L
544.734 261.657 L
548.065 194.145 L
551.396 274.072 L
554.728 202.017 L
558.059 242.2 L
561.391 151.62 L
564.722 193.905 L
568.053 201.313 L
571.385 120.065 L
574.716 40.546 L
578.047 81.681 L
581.379 141.925 L
584.71 270.296 L
588.041 268.11 L
591.373 205.283 L
594.704 188.974 L
598.036 217.017 L
601.367 214.65 L
604.698 239.333 L
608.03 216.472 L
611.361 232.319 L
614.692 140.302 L
618.024 223.624 L
621.355 237.64 L
624.686 213.114 L
628.018 168.489 L
631.349 175.577 L
634.68 183.191 L
638.012 188.675 L
641.343 204.622 L
644.675 143.932 L
648.006 262.521 L
651.337 196.558 L
S
GR
GS
[0.75 0 0 0.75 0 0.5] CT
1 GC
N
101.663 297 M
104.994 297 L
108.325 297 L
111.657 297 L
114.988 297 L
118.32 297 L
121.651 297 L
124.982 297 L
128.314 297 L
131.645 297 L
134.976 297 L
138.308 297 L
141.639 297 L
144.97 297 L
148.302 297 L
151.633 297 L
154.964 297 L
158.296 297 L
161.627 297 L
164.959 297 L
168.29 297 L
171.621 297 L
174.953 297 L
178.284 297 L
181.615 297 L
184.947 297 L
188.278 297 L
191.609 297 L
194.941 297 L
198.272 297 L
201.604 297 L
204.935 297 L
208.266 297 L
211.598 297 L
214.929 297 L
218.26 297 L
221.592 297 L
224.923 297 L
228.254 297 L
231.586 297 L
234.917 297 L
238.249 297 L
241.58 297 L
244.911 297 L
248.243 297 L
251.574 297 L
254.905 297 L
258.237 297 L
261.568 297 L
264.899 297 L
268.231 297 L
271.562 297 L
274.893 297 L
278.225 297 L
281.556 297 L
284.888 297 L
288.219 297 L
291.55 297 L
294.882 297 L
298.213 297 L
301.544 297 L
304.876 297 L
308.207 297 L
311.538 297 L
314.87 297 L
318.201 297 L
321.533 297 L
324.864 297 L
328.195 297 L
331.527 297 L
334.858 297 L
338.189 297 L
341.521 297 L
344.852 297 L
348.183 297 L
351.515 297 L
354.846 297 L
358.178 297 L
361.509 297 L
364.84 297 L
368.172 297 L
371.503 297 L
374.834 297 L
378.166 297 L
381.497 297 L
384.828 297 L
388.16 297 L
391.491 297 L
394.822 297 L
398.154 297 L
401.485 297 L
404.817 297 L
408.148 297 L
411.479 297 L
414.811 297 L
418.142 297 L
421.473 297 L
424.805 297 L
428.136 297 L
431.467 297 L
434.799 297 L
438.13 297 L
441.462 297 L
444.793 297 L
448.124 297 L
451.456 297 L
454.787 297 L
458.118 297 L
461.45 297 L
464.781 297 L
468.112 297 L
471.444 297 L
474.775 297 L
478.107 297 L
481.438 297 L
484.769 297 L
488.101 297 L
491.432 297 L
494.763 297 L
498.095 297 L
501.426 297 L
504.757 297 L
508.089 297 L
511.42 297 L
514.751 297 L
518.083 297 L
521.414 297 L
524.746 297 L
528.077 297 L
531.408 297 L
534.74 297 L
538.071 297 L
541.402 297 L
544.734 297 L
548.065 297 L
551.396 297 L
554.728 297 L
558.059 297 L
561.391 297 L
564.722 297 L
568.053 297 L
571.385 297 L
574.716 297 L
578.047 297 L
581.379 297 L
584.71 297 L
588.041 297 L
591.373 297 L
594.704 297 L
598.036 297 L
601.367 297 L
604.698 297 L
608.03 297 L
611.361 297 L
614.692 297 L
618.024 297 L
621.355 297 L
624.686 297 L
628.018 297 L
631.349 297 L
634.68 297 L
638.012 297 L
641.343 297 L
644.675 297 L
648.006 297 L
651.337 297 L
651.337 235.58 L
648.006 268.391 L
644.675 167.259 L
641.343 226.729 L
638.012 219.919 L
634.68 190.754 L
631.349 192.212 L
628.018 199.074 L
624.686 243.866 L
621.355 240.95 L
618.024 226.329 L
614.692 168.595 L
611.361 242.286 L
608.03 226.434 L
604.698 253.582 L
601.367 235.98 L
598.036 233.885 L
594.704 206.714 L
591.373 216.504 L
588.041 270.059 L
584.71 275.079 L
581.379 151.945 L
578.047 117.62 L
574.716 87.105 L
571.385 154.287 L
568.053 216.071 L
564.722 210.397 L
561.391 161.974 L
558.059 248.663 L
554.728 262.037 L
551.396 289.523 L
548.065 269.897 L
544.734 280.453 L
541.402 266.356 L
538.071 279.502 L
534.74 237.948 L
531.408 264.24 L
528.077 251.133 L
524.746 287.392 L
521.414 271.856 L
518.083 288.798 L
514.751 267.395 L
511.42 229.475 L
508.089 230.117 L
504.757 230.894 L
501.426 238.376 L
498.095 236.207 L
494.763 249.993 L
491.432 226.914 L
488.101 236.58 L
484.769 276.535 L
481.438 254.113 L
478.107 271.659 L
474.775 271.827 L
471.444 274.96 L
468.112 257.931 L
464.781 267.389 L
461.45 273.169 L
458.118 264.845 L
454.787 263.376 L
451.456 219.499 L
448.124 259.172 L
444.793 256.863 L
441.462 274.174 L
438.13 240.494 L
434.799 245.143 L
431.467 246.406 L
428.136 258.309 L
424.805 230.398 L
421.473 215.794 L
418.142 239.845 L
414.811 238.864 L
411.479 256.776 L
408.148 230.59 L
404.817 221.288 L
401.485 247.222 L
398.154 190.513 L
394.822 201.443 L
391.491 214.497 L
388.16 274.11 L
384.828 259.613 L
381.497 277.855 L
378.166 266.704 L
374.834 277.945 L
371.503 224.566 L
368.172 285.442 L
364.84 242.984 L
361.509 274.124 L
358.178 275.495 L
354.846 287.415 L
351.515 240.646 L
348.183 253.625 L
344.852 268.958 L
341.521 264.21 L
338.189 212.378 L
334.858 227.553 L
331.527 271.295 L
328.195 263.767 L
324.864 254.984 L
321.533 269.158 L
318.201 276.215 L
314.87 263.953 L
311.538 281.75 L
308.207 240.649 L
304.876 290.048 L
301.544 274.539 L
298.213 252.746 L
294.882 252.14 L
291.55 224.485 L
288.219 222.524 L
284.888 279.695 L
281.556 278.574 L
278.225 265.206 L
274.893 257.603 L
271.562 260.305 L
268.231 276.468 L
264.899 270.771 L
261.568 267.854 L
258.237 142.185 L
254.905 266.376 L
251.574 258.025 L
248.243 247.399 L
244.911 209.453 L
241.58 234.992 L
238.249 226.918 L
234.917 216.809 L
231.586 252.993 L
228.254 248.232 L
224.923 267.503 L
221.592 260.049 L
218.26 263.678 L
214.929 255.771 L
211.598 273.789 L
208.266 280.916 L
204.935 288.465 L
201.604 283.989 L
198.272 284.299 L
194.941 289.188 L
191.609 277.677 L
188.278 268.04 L
184.947 218.483 L
181.615 275.477 L
178.284 244.051 L
174.953 281.921 L
171.621 45.183 L
168.29 228.283 L
164.959 234.378 L
161.627 225.035 L
158.296 254.694 L
154.964 260.504 L
151.633 267.719 L
148.302 288.775 L
144.97 269.985 L
141.639 252.884 L
138.308 235.376 L
134.976 263.183 L
131.645 273.671 L
128.314 260.242 L
124.982 280.974 L
121.651 238.169 L
118.32 280.032 L
114.988 277.037 L
111.657 268.129 L
108.325 272.63 L
104.994 293.972 L
101.663 259.114 L
cp
f
GR
GS
[0.75 0 0 0.75 0 0.5] CT
0.8 GC
N
101.663 259.114 M
104.994 293.972 L
108.325 272.63 L
111.657 268.129 L
114.988 277.037 L
118.32 280.032 L
121.651 238.169 L
124.982 280.974 L
128.314 260.242 L
131.645 273.671 L
134.976 263.183 L
138.308 235.376 L
141.639 252.884 L
144.97 269.985 L
148.302 288.775 L
151.633 267.719 L
154.964 260.504 L
158.296 254.694 L
161.627 225.035 L
164.959 234.378 L
168.29 228.283 L
171.621 45.183 L
174.953 281.921 L
178.284 244.051 L
181.615 275.477 L
184.947 218.483 L
188.278 268.04 L
191.609 277.677 L
194.941 289.188 L
198.272 284.299 L
201.604 283.989 L
204.935 288.465 L
208.266 280.916 L
211.598 273.789 L
214.929 255.771 L
218.26 263.678 L
221.592 260.049 L
224.923 267.503 L
228.254 248.232 L
231.586 252.993 L
234.917 216.809 L
238.249 226.918 L
241.58 234.992 L
244.911 209.453 L
248.243 247.399 L
251.574 258.025 L
254.905 266.376 L
258.237 142.185 L
261.568 267.854 L
264.899 270.771 L
268.231 276.468 L
271.562 260.305 L
274.893 257.603 L
278.225 265.206 L
281.556 278.574 L
284.888 279.695 L
288.219 222.524 L
291.55 224.485 L
294.882 252.14 L
298.213 252.746 L
301.544 274.539 L
304.876 290.048 L
308.207 240.649 L
311.538 281.75 L
314.87 263.953 L
318.201 276.215 L
321.533 269.158 L
324.864 254.984 L
328.195 263.767 L
331.527 271.295 L
334.858 227.553 L
338.189 212.378 L
341.521 264.21 L
344.852 268.958 L
348.183 253.625 L
351.515 240.646 L
354.846 287.415 L
358.178 275.495 L
361.509 274.124 L
364.84 242.984 L
368.172 285.442 L
371.503 224.566 L
374.834 277.945 L
378.166 266.704 L
381.497 277.855 L
384.828 259.613 L
388.16 274.11 L
391.491 214.497 L
394.822 201.443 L
398.154 190.513 L
401.485 247.222 L
404.817 221.288 L
408.148 230.59 L
411.479 256.776 L
414.811 238.864 L
418.142 239.845 L
421.473 215.794 L
424.805 230.398 L
428.136 258.309 L
431.467 246.406 L
434.799 245.143 L
438.13 240.494 L
441.462 274.174 L
444.793 256.863 L
448.124 259.172 L
451.456 219.499 L
454.787 263.376 L
458.118 264.845 L
461.45 273.169 L
464.781 267.389 L
468.112 257.931 L
471.444 274.96 L
474.775 271.827 L
478.107 271.659 L
481.438 254.113 L
484.769 276.535 L
488.101 236.58 L
491.432 226.914 L
494.763 249.993 L
498.095 236.207 L
501.426 238.376 L
504.757 230.894 L
508.089 230.117 L
511.42 229.475 L
514.751 267.395 L
518.083 288.798 L
521.414 271.856 L
524.746 287.392 L
528.077 251.133 L
531.408 264.24 L
534.74 237.948 L
538.071 279.502 L
541.402 266.356 L
544.734 280.453 L
548.065 269.897 L
551.396 289.523 L
554.728 262.037 L
558.059 248.663 L
561.391 161.974 L
564.722 210.397 L
568.053 216.071 L
571.385 154.287 L
574.716 87.105 L
578.047 117.62 L
581.379 151.945 L
584.71 275.079 L
588.041 270.059 L
591.373 216.504 L
594.704 206.714 L
598.036 233.885 L
601.367 235.98 L
604.698 253.582 L
608.03 226.434 L
611.361 242.286 L
614.692 168.595 L
618.024 226.329 L
621.355 240.95 L
624.686 243.866 L
628.018 199.074 L
631.349 192.212 L
634.68 190.754 L
638.012 219.919 L
641.343 226.729 L
644.675 167.259 L
648.006 268.391 L
651.337 235.58 L
651.337 196.558 L
648.006 262.521 L
644.675 143.932 L
641.343 204.622 L
638.012 188.675 L
634.68 183.191 L
631.349 175.577 L
628.018 168.489 L
624.686 213.114 L
621.355 237.64 L
618.024 223.624 L
614.692 140.302 L
611.361 232.319 L
608.03 216.472 L
604.698 239.333 L
601.367 214.65 L
598.036 217.017 L
594.704 188.974 L
591.373 205.283 L
588.041 268.11 L
584.71 270.296 L
581.379 141.925 L
578.047 81.681 L
574.716 40.546 L
571.385 120.065 L
568.053 201.313 L
564.722 193.905 L
561.391 151.62 L
558.059 242.2 L
554.728 202.017 L
551.396 274.072 L
548.065 194.145 L
544.734 261.657 L
541.402 248.235 L
538.071 269.043 L
534.74 231.428 L
531.408 257.409 L
528.077 244.155 L
524.746 283.862 L
521.414 269.701 L
518.083 284.591 L
514.751 260.478 L
511.42 221.583 L
508.089 222.692 L
504.757 220.049 L
501.426 225.39 L
498.095 226.88 L
494.763 242.041 L
491.432 217.835 L
488.101 230.389 L
484.769 269.692 L
481.438 167.956 L
478.107 234.767 L
474.775 265.53 L
471.444 271.349 L
468.112 250.317 L
464.781 263.311 L
461.45 262.656 L
458.118 260.287 L
454.787 251.697 L
451.456 203.118 L
448.124 257.319 L
444.793 247.337 L
441.462 267.636 L
438.13 228.196 L
434.799 243.063 L
431.467 241.414 L
428.136 248.209 L
424.805 226.589 L
421.473 204.767 L
418.142 231.816 L
414.811 222.591 L
411.479 253.395 L
408.148 216.326 L
404.817 213.96 L
401.485 232.363 L
398.154 183.872 L
394.822 182.256 L
391.491 201.192 L
388.16 270.055 L
384.828 252.124 L
381.497 272.406 L
378.166 259.71 L
374.834 275.307 L
371.503 178.234 L
368.172 280.45 L
364.84 232.593 L
361.509 263.745 L
358.178 270.997 L
354.846 283.457 L
351.515 231.575 L
348.183 224.984 L
344.852 265.804 L
341.521 256.709 L
338.189 177.145 L
334.858 214.79 L
331.527 266.286 L
328.195 257.055 L
324.864 248.433 L
321.533 264.964 L
318.201 267.516 L
314.87 255.409 L
311.538 277.079 L
308.207 232.375 L
304.876 286.426 L
301.544 268.796 L
298.213 238.285 L
294.882 240.62 L
291.55 202.614 L
288.219 219.875 L
284.888 268.395 L
281.556 274.444 L
278.225 249.394 L
274.893 257.206 L
271.562 256.911 L
268.231 272.76 L
264.899 265.855 L
261.568 255.923 L
258.237 92.938 L
254.905 262.892 L
251.574 252.738 L
248.243 244.523 L
244.911 204.979 L
241.58 222.338 L
238.249 221.378 L
234.917 211.076 L
231.586 246.323 L
228.254 240.974 L
224.923 262.215 L
221.592 252.975 L
218.26 256.416 L
214.929 252.398 L
211.598 267.374 L
208.266 276.353 L
204.935 285.748 L
201.604 279.119 L
198.272 281.489 L
194.941 286.794 L
191.609 273.481 L
188.278 257.098 L
184.947 196.723 L
181.615 271.816 L
178.284 241.254 L
174.953 249.407 L
171.621 35.428 L
168.29 219.116 L
164.959 228.745 L
161.627 211.975 L
158.296 244.734 L
154.964 256.535 L
151.633 254.16 L
148.302 285.868 L
144.97 261.403 L
141.639 245.555 L
138.308 207.573 L
134.976 249.938 L
131.645 269.127 L
128.314 257.148 L
124.982 278.679 L
121.651 217.105 L
118.32 270.889 L
114.988 268.185 L
111.657 257.198 L
108.325 267.343 L
104.994 290.247 L
101.663 237.97 L
cp
f
GR
GS
[0.75 0 0 0.75 0 0.5] CT
1 GC
N
/f-1122577421{101.663 297 M
104.994 297 L
108.325 297 L
111.657 297 L
114.988 297 L
118.32 297 L
121.651 297 L
124.982 297 L
128.314 297 L
131.645 297 L
134.976 297 L
138.308 297 L
141.639 297 L
144.97 297 L
148.302 297 L
151.633 297 L
154.964 297 L
158.296 297 L
161.627 297 L
164.959 297 L
168.29 297 L
171.621 297 L
174.953 297 L
178.284 297 L
181.615 297 L
184.947 297 L
188.278 297 L
191.609 297 L
194.941 297 L
198.272 297 L
201.604 297 L
204.935 297 L
208.266 297 L
211.598 297 L
214.929 297 L
218.26 297 L
221.592 297 L
224.923 297 L
228.254 297 L
231.586 297 L
234.917 297 L
238.249 297 L
241.58 297 L
244.911 297 L
248.243 297 L
251.574 297 L
254.905 297 L
258.237 297 L
261.568 297 L
264.899 297 L
268.231 297 L
271.562 297 L
274.893 297 L
278.225 297 L
281.556 297 L
284.888 297 L
288.219 297 L
291.55 297 L
294.882 297 L
298.213 297 L
301.544 297 L
304.876 297 L
308.207 297 L
311.538 297 L
314.87 297 L
318.201 297 L
321.533 297 L
324.864 297 L
328.195 297 L
331.527 297 L
334.858 297 L
338.189 297 L
341.521 297 L
344.852 297 L
348.183 297 L
351.515 297 L
354.846 297 L
358.178 297 L
361.509 297 L
364.84 297 L
368.172 297 L
371.503 297 L
374.834 297 L
378.166 297 L
381.497 297 L
384.828 297 L
388.16 297 L
391.491 297 L
394.822 297 L
398.154 297 L
401.485 297 L
404.817 297 L
408.148 297 L
411.479 297 L
414.811 297 L
418.142 297 L
421.473 297 L
424.805 297 L
428.136 297 L
431.467 297 L
434.799 297 L
438.13 297 L
441.462 297 L
444.793 297 L
448.124 297 L
451.456 297 L
454.787 297 L
458.118 297 L
461.45 297 L
464.781 297 L
468.112 297 L
471.444 297 L
474.775 297 L
478.107 297 L
481.438 297 L
484.769 297 L
488.101 297 L
491.432 297 L
494.763 297 L
498.095 297 L
501.426 297 L
504.757 297 L
508.089 297 L
511.42 297 L
514.751 297 L
518.083 297 L
521.414 297 L
524.746 297 L
528.077 297 L
531.408 297 L
534.74 297 L
538.071 297 L
541.402 297 L
544.734 297 L
548.065 297 L
551.396 297 L
554.728 297 L
558.059 297 L
561.391 297 L
564.722 297 L
568.053 297 L
571.385 297 L
574.716 297 L
578.047 297 L
581.379 297 L
584.71 297 L
588.041 297 L
591.373 297 L
594.704 297 L
598.036 297 L
601.367 297 L
604.698 297 L
608.03 297 L
611.361 297 L
614.692 297 L
618.024 297 L
621.355 297 L
624.686 297 L
628.018 297 L
631.349 297 L
634.68 297 L
638.012 297 L
641.343 297 L
644.675 297 L
648.006 297 L
651.337 297 L
651.337 235.58 L
648.006 268.391 L
644.675 167.259 L
641.343 226.729 L
638.012 219.919 L
634.68 190.754 L
631.349 192.212 L
628.018 199.074 L
624.686 243.866 L
621.355 240.95 L
618.024 226.329 L
614.692 168.595 L
611.361 242.286 L
608.03 226.434 L
604.698 253.582 L
601.367 235.98 L
598.036 233.885 L
594.704 206.714 L
591.373 216.504 L
588.041 270.059 L
584.71 275.079 L
581.379 151.945 L
578.047 117.62 L
574.716 87.105 L
571.385 154.287 L
568.053 216.071 L
564.722 210.397 L
561.391 161.974 L
558.059 248.663 L
554.728 262.037 L
551.396 289.523 L
548.065 269.897 L
544.734 280.453 L
541.402 266.356 L
538.071 279.502 L
534.74 237.948 L
531.408 264.24 L
528.077 251.133 L
524.746 287.392 L
521.414 271.856 L
518.083 288.798 L
514.751 267.395 L
511.42 229.475 L
508.089 230.117 L
504.757 230.894 L
501.426 238.376 L
498.095 236.207 L
494.763 249.993 L
491.432 226.914 L
488.101 236.58 L
484.769 276.535 L
481.438 254.113 L
478.107 271.659 L
474.775 271.827 L
471.444 274.96 L
468.112 257.931 L
464.781 267.389 L
461.45 273.169 L
458.118 264.845 L
454.787 263.376 L
451.456 219.499 L
448.124 259.172 L
444.793 256.863 L
441.462 274.174 L
438.13 240.494 L
434.799 245.143 L
431.467 246.406 L
428.136 258.309 L
424.805 230.398 L
421.473 215.794 L
418.142 239.845 L
414.811 238.864 L
411.479 256.776 L
408.148 230.59 L
404.817 221.288 L
401.485 247.222 L
398.154 190.513 L
394.822 201.443 L
391.491 214.497 L
388.16 274.11 L
384.828 259.613 L
381.497 277.855 L
378.166 266.704 L
374.834 277.945 L
371.503 224.566 L
368.172 285.442 L
364.84 242.984 L
361.509 274.124 L
358.178 275.495 L
354.846 287.415 L
351.515 240.646 L
348.183 253.625 L
344.852 268.958 L
341.521 264.21 L
338.189 212.378 L
334.858 227.553 L
331.527 271.295 L
328.195 263.767 L
324.864 254.984 L
321.533 269.158 L
318.201 276.215 L
314.87 263.953 L
311.538 281.75 L
308.207 240.649 L
304.876 290.048 L
301.544 274.539 L
298.213 252.746 L
294.882 252.14 L
291.55 224.485 L
288.219 222.524 L
284.888 279.695 L
281.556 278.574 L
278.225 265.206 L
274.893 257.603 L
271.562 260.305 L
268.231 276.468 L
264.899 270.771 L
261.568 267.854 L
258.237 142.185 L
254.905 266.376 L
251.574 258.025 L
248.243 247.399 L
244.911 209.453 L
241.58 234.992 L
238.249 226.918 L
234.917 216.809 L
231.586 252.993 L
228.254 248.232 L
224.923 267.503 L
221.592 260.049 L
218.26 263.678 L
214.929 255.771 L
211.598 273.789 L
208.266 280.916 L
204.935 288.465 L
201.604 283.989 L
198.272 284.299 L
194.941 289.188 L
191.609 277.677 L
188.278 268.04 L
184.947 218.483 L
181.615 275.477 L
178.284 244.051 L
174.953 281.921 L
171.621 45.183 L
168.29 228.283 L
164.959 234.378 L
161.627 225.035 L
158.296 254.694 L
154.964 260.504 L
151.633 267.719 L
148.302 288.775 L
144.97 269.985 L
141.639 252.884 L
138.308 235.376 L
134.976 263.183 L
131.645 273.671 L
128.314 260.242 L
124.982 280.974 L
121.651 238.169 L
118.32 280.032 L
114.988 277.037 L
111.657 268.129 L
108.325 272.63 L
104.994 293.972 L
101.663 259.114 L
cp}def
f-1122577421
f
GR
GS
[0.75 0 0 0.75 0 0.5] CT
0.8 GC
N
/f-1707984221{101.663 259.114 M
104.994 293.972 L
108.325 272.63 L
111.657 268.129 L
114.988 277.037 L
118.32 280.032 L
121.651 238.169 L
124.982 280.974 L
128.314 260.242 L
131.645 273.671 L
134.976 263.183 L
138.308 235.376 L
141.639 252.884 L
144.97 269.985 L
148.302 288.775 L
151.633 267.719 L
154.964 260.504 L
158.296 254.694 L
161.627 225.035 L
164.959 234.378 L
168.29 228.283 L
171.621 45.183 L
174.953 281.921 L
178.284 244.051 L
181.615 275.477 L
184.947 218.483 L
188.278 268.04 L
191.609 277.677 L
194.941 289.188 L
198.272 284.299 L
201.604 283.989 L
204.935 288.465 L
208.266 280.916 L
211.598 273.789 L
214.929 255.771 L
218.26 263.678 L
221.592 260.049 L
224.923 267.503 L
228.254 248.232 L
231.586 252.993 L
234.917 216.809 L
238.249 226.918 L
241.58 234.992 L
244.911 209.453 L
248.243 247.399 L
251.574 258.025 L
254.905 266.376 L
258.237 142.185 L
261.568 267.854 L
264.899 270.771 L
268.231 276.468 L
271.562 260.305 L
274.893 257.603 L
278.225 265.206 L
281.556 278.574 L
284.888 279.695 L
288.219 222.524 L
291.55 224.485 L
294.882 252.14 L
298.213 252.746 L
301.544 274.539 L
304.876 290.048 L
308.207 240.649 L
311.538 281.75 L
314.87 263.953 L
318.201 276.215 L
321.533 269.158 L
324.864 254.984 L
328.195 263.767 L
331.527 271.295 L
334.858 227.553 L
338.189 212.378 L
341.521 264.21 L
344.852 268.958 L
348.183 253.625 L
351.515 240.646 L
354.846 287.415 L
358.178 275.495 L
361.509 274.124 L
364.84 242.984 L
368.172 285.442 L
371.503 224.566 L
374.834 277.945 L
378.166 266.704 L
381.497 277.855 L
384.828 259.613 L
388.16 274.11 L
391.491 214.497 L
394.822 201.443 L
398.154 190.513 L
401.485 247.222 L
404.817 221.288 L
408.148 230.59 L
411.479 256.776 L
414.811 238.864 L
418.142 239.845 L
421.473 215.794 L
424.805 230.398 L
428.136 258.309 L
431.467 246.406 L
434.799 245.143 L
438.13 240.494 L
441.462 274.174 L
444.793 256.863 L
448.124 259.172 L
451.456 219.499 L
454.787 263.376 L
458.118 264.845 L
461.45 273.169 L
464.781 267.389 L
468.112 257.931 L
471.444 274.96 L
474.775 271.827 L
478.107 271.659 L
481.438 254.113 L
484.769 276.535 L
488.101 236.58 L
491.432 226.914 L
494.763 249.993 L
498.095 236.207 L
501.426 238.376 L
504.757 230.894 L
508.089 230.117 L
511.42 229.475 L
514.751 267.395 L
518.083 288.798 L
521.414 271.856 L
524.746 287.392 L
528.077 251.133 L
531.408 264.24 L
534.74 237.948 L
538.071 279.502 L
541.402 266.356 L
544.734 280.453 L
548.065 269.897 L
551.396 289.523 L
554.728 262.037 L
558.059 248.663 L
561.391 161.974 L
564.722 210.397 L
568.053 216.071 L
571.385 154.287 L
574.716 87.105 L
578.047 117.62 L
581.379 151.945 L
584.71 275.079 L
588.041 270.059 L
591.373 216.504 L
594.704 206.714 L
598.036 233.885 L
601.367 235.98 L
604.698 253.582 L
608.03 226.434 L
611.361 242.286 L
614.692 168.595 L
618.024 226.329 L
621.355 240.95 L
624.686 243.866 L
628.018 199.074 L
631.349 192.212 L
634.68 190.754 L
638.012 219.919 L
641.343 226.729 L
644.675 167.259 L
648.006 268.391 L
651.337 235.58 L
651.337 196.558 L
648.006 262.521 L
644.675 143.932 L
641.343 204.622 L
638.012 188.675 L
634.68 183.191 L
631.349 175.577 L
628.018 168.489 L
624.686 213.114 L
621.355 237.64 L
618.024 223.624 L
614.692 140.302 L
611.361 232.319 L
608.03 216.472 L
604.698 239.333 L
601.367 214.65 L
598.036 217.017 L
594.704 188.974 L
591.373 205.283 L
588.041 268.11 L
584.71 270.296 L
581.379 141.925 L
578.047 81.681 L
574.716 40.546 L
571.385 120.065 L
568.053 201.313 L
564.722 193.905 L
561.391 151.62 L
558.059 242.2 L
554.728 202.017 L
551.396 274.072 L
548.065 194.145 L
544.734 261.657 L
541.402 248.235 L
538.071 269.043 L
534.74 231.428 L
531.408 257.409 L
528.077 244.155 L
524.746 283.862 L
521.414 269.701 L
518.083 284.591 L
514.751 260.478 L
511.42 221.583 L
508.089 222.692 L
504.757 220.049 L
501.426 225.39 L
498.095 226.88 L
494.763 242.041 L
491.432 217.835 L
488.101 230.389 L
484.769 269.692 L
481.438 167.956 L
478.107 234.767 L
474.775 265.53 L
471.444 271.349 L
468.112 250.317 L
464.781 263.311 L
461.45 262.656 L
458.118 260.287 L
454.787 251.697 L
451.456 203.118 L
448.124 257.319 L
444.793 247.337 L
441.462 267.636 L
438.13 228.196 L
434.799 243.063 L
431.467 241.414 L
428.136 248.209 L
424.805 226.589 L
421.473 204.767 L
418.142 231.816 L
414.811 222.591 L
411.479 253.395 L
408.148 216.326 L
404.817 213.96 L
401.485 232.363 L
398.154 183.872 L
394.822 182.256 L
391.491 201.192 L
388.16 270.055 L
384.828 252.124 L
381.497 272.406 L
378.166 259.71 L
374.834 275.307 L
371.503 178.234 L
368.172 280.45 L
364.84 232.593 L
361.509 263.745 L
358.178 270.997 L
354.846 283.457 L
351.515 231.575 L
348.183 224.984 L
344.852 265.804 L
341.521 256.709 L
338.189 177.145 L
334.858 214.79 L
331.527 266.286 L
328.195 257.055 L
324.864 248.433 L
321.533 264.964 L
318.201 267.516 L
314.87 255.409 L
311.538 277.079 L
308.207 232.375 L
304.876 286.426 L
301.544 268.796 L
298.213 238.285 L
294.882 240.62 L
291.55 202.614 L
288.219 219.875 L
284.888 268.395 L
281.556 274.444 L
278.225 249.394 L
274.893 257.206 L
271.562 256.911 L
268.231 272.76 L
264.899 265.855 L
261.568 255.923 L
258.237 92.938 L
254.905 262.892 L
251.574 252.738 L
248.243 244.523 L
244.911 204.979 L
241.58 222.338 L
238.249 221.378 L
234.917 211.076 L
231.586 246.323 L
228.254 240.974 L
224.923 262.215 L
221.592 252.975 L
218.26 256.416 L
214.929 252.398 L
211.598 267.374 L
208.266 276.353 L
204.935 285.748 L
201.604 279.119 L
198.272 281.489 L
194.941 286.794 L
191.609 273.481 L
188.278 257.098 L
184.947 196.723 L
181.615 271.816 L
178.284 241.254 L
174.953 249.407 L
171.621 35.428 L
168.29 219.116 L
164.959 228.745 L
161.627 211.975 L
158.296 244.734 L
154.964 256.535 L
151.633 254.16 L
148.302 285.868 L
144.97 261.403 L
141.639 245.555 L
138.308 207.573 L
134.976 249.938 L
131.645 269.127 L
128.314 257.148 L
124.982 278.679 L
121.651 217.105 L
118.32 270.889 L
114.988 268.185 L
111.657 257.198 L
108.325 267.343 L
104.994 290.247 L
101.663 237.97 L
cp}def
f-1707984221
f
GR
GS
[0.75 0 0 0.75 0 0.5] CT
1 GC
N
f-1122577421
f
GR
GS
[0.75 0 0 0.75 0 0.5] CT
0.8 GC
N
f-1707984221
f
GR
GS
[0.75 0 0 0.75 0 0.5] CT
[1 3] 0 setdash
2 LJ
0.667 LW
N
101.663 259.114 M
104.994 293.972 L
108.325 272.63 L
111.657 268.129 L
114.988 277.037 L
118.32 280.032 L
121.651 238.169 L
124.982 280.974 L
128.314 260.242 L
131.645 273.671 L
134.976 263.183 L
138.308 235.376 L
141.639 252.884 L
144.97 269.985 L
148.302 288.775 L
151.633 267.719 L
154.964 260.504 L
158.296 254.694 L
161.627 225.035 L
164.959 234.378 L
168.29 228.283 L
171.621 45.183 L
174.953 281.921 L
178.284 244.051 L
181.615 275.477 L
184.947 218.483 L
188.278 268.04 L
191.609 277.677 L
194.941 289.188 L
198.272 284.299 L
201.604 283.989 L
204.935 288.465 L
208.266 280.916 L
211.598 273.789 L
214.929 255.771 L
218.26 263.678 L
221.592 260.049 L
224.923 267.503 L
228.254 248.232 L
231.586 252.993 L
234.917 216.809 L
238.249 226.918 L
241.58 234.992 L
244.911 209.453 L
248.243 247.399 L
251.574 258.025 L
254.905 266.376 L
258.237 142.185 L
261.568 267.854 L
264.899 270.771 L
268.231 276.468 L
271.562 260.305 L
274.893 257.603 L
278.225 265.206 L
281.556 278.574 L
284.888 279.695 L
288.219 222.524 L
291.55 224.485 L
294.882 252.14 L
298.213 252.746 L
301.544 274.539 L
304.876 290.048 L
308.207 240.649 L
311.538 281.75 L
314.87 263.953 L
318.201 276.215 L
321.533 269.158 L
324.864 254.984 L
328.195 263.767 L
331.527 271.295 L
334.858 227.553 L
338.189 212.378 L
341.521 264.21 L
344.852 268.958 L
348.183 253.625 L
351.515 240.646 L
354.846 287.415 L
358.178 275.495 L
361.509 274.124 L
364.84 242.984 L
368.172 285.442 L
371.503 224.566 L
374.834 277.945 L
378.166 266.704 L
381.497 277.855 L
384.828 259.613 L
388.16 274.11 L
391.491 214.497 L
394.822 201.443 L
398.154 190.513 L
401.485 247.222 L
404.817 221.288 L
408.148 230.59 L
411.479 256.776 L
414.811 238.864 L
418.142 239.845 L
421.473 215.794 L
424.805 230.398 L
428.136 258.309 L
431.467 246.406 L
434.799 245.143 L
438.13 240.494 L
441.462 274.174 L
444.793 256.863 L
448.124 259.172 L
451.456 219.499 L
454.787 263.376 L
458.118 264.845 L
461.45 273.169 L
464.781 267.389 L
468.112 257.931 L
471.444 274.96 L
474.775 271.827 L
478.107 271.659 L
481.438 254.113 L
484.769 276.535 L
488.101 236.58 L
491.432 226.914 L
494.763 249.993 L
498.095 236.207 L
501.426 238.376 L
504.757 230.894 L
508.089 230.117 L
511.42 229.475 L
514.751 267.395 L
518.083 288.798 L
521.414 271.856 L
524.746 287.392 L
528.077 251.133 L
531.408 264.24 L
534.74 237.948 L
538.071 279.502 L
541.402 266.356 L
544.734 280.453 L
548.065 269.897 L
551.396 289.523 L
554.728 262.037 L
558.059 248.663 L
561.391 161.974 L
564.722 210.397 L
568.053 216.071 L
571.385 154.287 L
574.716 87.105 L
578.047 117.62 L
581.379 151.945 L
584.71 275.079 L
588.041 270.059 L
591.373 216.504 L
594.704 206.714 L
598.036 233.885 L
601.367 235.98 L
604.698 253.582 L
608.03 226.434 L
611.361 242.286 L
614.692 168.595 L
618.024 226.329 L
621.355 240.95 L
624.686 243.866 L
628.018 199.074 L
631.349 192.212 L
634.68 190.754 L
638.012 219.919 L
641.343 226.729 L
644.675 167.259 L
648.006 268.391 L
651.337 235.58 L
S
GR
GS
[0.75 0 0 0.75 0 0.5] CT
1 LJ
0.667 LW
N
101.663 237.97 M
104.994 290.247 L
108.325 267.343 L
111.657 257.198 L
114.988 268.185 L
118.32 270.889 L
121.651 217.105 L
124.982 278.679 L
128.314 257.148 L
131.645 269.127 L
134.976 249.938 L
138.308 207.573 L
141.639 245.555 L
144.97 261.403 L
148.302 285.868 L
151.633 254.16 L
154.964 256.535 L
158.296 244.734 L
161.627 211.975 L
164.959 228.745 L
168.29 219.116 L
171.621 35.428 L
174.953 249.407 L
178.284 241.254 L
181.615 271.816 L
184.947 196.723 L
188.278 257.098 L
191.609 273.481 L
194.941 286.794 L
198.272 281.489 L
201.604 279.119 L
204.935 285.748 L
208.266 276.353 L
211.598 267.374 L
214.929 252.398 L
218.26 256.416 L
221.592 252.975 L
224.923 262.215 L
228.254 240.974 L
231.586 246.323 L
234.917 211.076 L
238.249 221.378 L
241.58 222.338 L
244.911 204.979 L
248.243 244.523 L
251.574 252.738 L
254.905 262.892 L
258.237 92.938 L
261.568 255.923 L
264.899 265.855 L
268.231 272.76 L
271.562 256.911 L
274.893 257.206 L
278.225 249.394 L
281.556 274.444 L
284.888 268.395 L
288.219 219.875 L
291.55 202.614 L
294.882 240.62 L
298.213 238.285 L
301.544 268.796 L
304.876 286.426 L
308.207 232.375 L
311.538 277.079 L
314.87 255.409 L
318.201 267.516 L
321.533 264.964 L
324.864 248.433 L
328.195 257.055 L
331.527 266.286 L
334.858 214.79 L
338.189 177.145 L
341.521 256.709 L
344.852 265.804 L
348.183 224.984 L
351.515 231.575 L
354.846 283.457 L
358.178 270.997 L
361.509 263.745 L
364.84 232.593 L
368.172 280.45 L
371.503 178.234 L
374.834 275.307 L
378.166 259.71 L
381.497 272.406 L
384.828 252.124 L
388.16 270.055 L
391.491 201.192 L
394.822 182.256 L
398.154 183.872 L
401.485 232.363 L
404.817 213.96 L
408.148 216.326 L
411.479 253.395 L
414.811 222.591 L
418.142 231.816 L
421.473 204.767 L
424.805 226.589 L
428.136 248.209 L
431.467 241.414 L
434.799 243.063 L
438.13 228.196 L
441.462 267.636 L
444.793 247.337 L
448.124 257.319 L
451.456 203.118 L
454.787 251.697 L
458.118 260.287 L
461.45 262.656 L
464.781 263.311 L
468.112 250.317 L
471.444 271.349 L
474.775 265.53 L
478.107 234.767 L
481.438 167.956 L
484.769 269.692 L
488.101 230.389 L
491.432 217.835 L
494.763 242.041 L
498.095 226.88 L
501.426 225.39 L
504.757 220.049 L
508.089 222.692 L
511.42 221.583 L
514.751 260.478 L
518.083 284.591 L
521.414 269.701 L
524.746 283.862 L
528.077 244.155 L
531.408 257.409 L
534.74 231.428 L
538.071 269.043 L
541.402 248.235 L
544.734 261.657 L
548.065 194.145 L
551.396 274.072 L
554.728 202.017 L
558.059 242.2 L
561.391 151.62 L
564.722 193.905 L
568.053 201.313 L
571.385 120.065 L
574.716 40.546 L
578.047 81.681 L
581.379 141.925 L
584.71 270.296 L
588.041 268.11 L
591.373 205.283 L
594.704 188.974 L
598.036 217.017 L
601.367 214.65 L
604.698 239.333 L
608.03 216.472 L
611.361 232.319 L
614.692 140.302 L
618.024 223.624 L
621.355 237.64 L
624.686 213.114 L
628.018 168.489 L
631.349 175.577 L
634.68 183.191 L
638.012 188.675 L
641.343 204.622 L
644.675 143.932 L
648.006 262.521 L
651.337 196.558 L
S
GR
GS
[0.75 0 0 0.75 0 0.5] CT
1 GC
N
f-1122577421
f
GR
GS
[0.75 0 0 0.75 0 0.5] CT
0.8 GC
N
f-1707984221
f
GR
GS
[0.75 0 0 0.75 0 0.5] CT
1 GC
N
f-1122577421
f
GR
GS
[0.75 0 0 0.75 0 0.5] CT
0.8 GC
N
f-1707984221
f
GR
GS
[0.75 0 0 0.75 0 0.5] CT
[1 3] 0 setdash
2 LJ
0.667 LW
N
101.663 259.114 M
104.994 293.972 L
108.325 272.63 L
111.657 268.129 L
114.988 277.037 L
118.32 280.032 L
121.651 238.169 L
124.982 280.974 L
128.314 260.242 L
131.645 273.671 L
134.976 263.183 L
138.308 235.376 L
141.639 252.884 L
144.97 269.985 L
148.302 288.775 L
151.633 267.719 L
154.964 260.504 L
158.296 254.694 L
161.627 225.035 L
164.959 234.378 L
168.29 228.283 L
171.621 45.183 L
174.953 281.921 L
178.284 244.051 L
181.615 275.477 L
184.947 218.483 L
188.278 268.04 L
191.609 277.677 L
194.941 289.188 L
198.272 284.299 L
201.604 283.989 L
204.935 288.465 L
208.266 280.916 L
211.598 273.789 L
214.929 255.771 L
218.26 263.678 L
221.592 260.049 L
224.923 267.503 L
228.254 248.232 L
231.586 252.993 L
234.917 216.809 L
238.249 226.918 L
241.58 234.992 L
244.911 209.453 L
248.243 247.399 L
251.574 258.025 L
254.905 266.376 L
258.237 142.185 L
261.568 267.854 L
264.899 270.771 L
268.231 276.468 L
271.562 260.305 L
274.893 257.603 L
278.225 265.206 L
281.556 278.574 L
284.888 279.695 L
288.219 222.524 L
291.55 224.485 L
294.882 252.14 L
298.213 252.746 L
301.544 274.539 L
304.876 290.048 L
308.207 240.649 L
311.538 281.75 L
314.87 263.953 L
318.201 276.215 L
321.533 269.158 L
324.864 254.984 L
328.195 263.767 L
331.527 271.295 L
334.858 227.553 L
338.189 212.378 L
341.521 264.21 L
344.852 268.958 L
348.183 253.625 L
351.515 240.646 L
354.846 287.415 L
358.178 275.495 L
361.509 274.124 L
364.84 242.984 L
368.172 285.442 L
371.503 224.566 L
374.834 277.945 L
378.166 266.704 L
381.497 277.855 L
384.828 259.613 L
388.16 274.11 L
391.491 214.497 L
394.822 201.443 L
398.154 190.513 L
401.485 247.222 L
404.817 221.288 L
408.148 230.59 L
411.479 256.776 L
414.811 238.864 L
418.142 239.845 L
421.473 215.794 L
424.805 230.398 L
428.136 258.309 L
431.467 246.406 L
434.799 245.143 L
438.13 240.494 L
441.462 274.174 L
444.793 256.863 L
448.124 259.172 L
451.456 219.499 L
454.787 263.376 L
458.118 264.845 L
461.45 273.169 L
464.781 267.389 L
468.112 257.931 L
471.444 274.96 L
474.775 271.827 L
478.107 271.659 L
481.438 254.113 L
484.769 276.535 L
488.101 236.58 L
491.432 226.914 L
494.763 249.993 L
498.095 236.207 L
501.426 238.376 L
504.757 230.894 L
508.089 230.117 L
511.42 229.475 L
514.751 267.395 L
518.083 288.798 L
521.414 271.856 L
524.746 287.392 L
528.077 251.133 L
531.408 264.24 L
534.74 237.948 L
538.071 279.502 L
541.402 266.356 L
544.734 280.453 L
548.065 269.897 L
551.396 289.523 L
554.728 262.037 L
558.059 248.663 L
561.391 161.974 L
564.722 210.397 L
568.053 216.071 L
571.385 154.287 L
574.716 87.105 L
578.047 117.62 L
581.379 151.945 L
584.71 275.079 L
588.041 270.059 L
591.373 216.504 L
594.704 206.714 L
598.036 233.885 L
601.367 235.98 L
604.698 253.582 L
608.03 226.434 L
611.361 242.286 L
614.692 168.595 L
618.024 226.329 L
621.355 240.95 L
624.686 243.866 L
628.018 199.074 L
631.349 192.212 L
634.68 190.754 L
638.012 219.919 L
641.343 226.729 L
644.675 167.259 L
648.006 268.391 L
651.337 235.58 L
S
GR
GS
[0.75 0 0 0.75 0 0.5] CT
[10 6] 0 setdash
2 LJ
0.667 LW
N
101.663 237.97 M
104.994 290.247 L
108.325 267.343 L
111.657 257.198 L
114.988 268.185 L
118.32 270.889 L
121.651 217.105 L
124.982 278.679 L
128.314 257.148 L
131.645 269.127 L
134.976 249.938 L
138.308 207.573 L
141.639 245.555 L
144.97 261.403 L
148.302 285.868 L
151.633 254.16 L
154.964 256.535 L
158.296 244.734 L
161.627 211.975 L
164.959 228.745 L
168.29 219.116 L
171.621 35.428 L
174.953 249.407 L
178.284 241.254 L
181.615 271.816 L
184.947 196.723 L
188.278 257.098 L
191.609 273.481 L
194.941 286.794 L
198.272 281.489 L
201.604 279.119 L
204.935 285.748 L
208.266 276.353 L
211.598 267.374 L
214.929 252.398 L
218.26 256.416 L
221.592 252.975 L
224.923 262.215 L
228.254 240.974 L
231.586 246.323 L
234.917 211.076 L
238.249 221.378 L
241.58 222.338 L
244.911 204.979 L
248.243 244.523 L
251.574 252.738 L
254.905 262.892 L
258.237 92.938 L
261.568 255.923 L
264.899 265.855 L
268.231 272.76 L
271.562 256.911 L
274.893 257.206 L
278.225 249.394 L
281.556 274.444 L
284.888 268.395 L
288.219 219.875 L
291.55 202.614 L
294.882 240.62 L
298.213 238.285 L
301.544 268.796 L
304.876 286.426 L
308.207 232.375 L
311.538 277.079 L
314.87 255.409 L
318.201 267.516 L
321.533 264.964 L
324.864 248.433 L
328.195 257.055 L
331.527 266.286 L
334.858 214.79 L
338.189 177.145 L
341.521 256.709 L
344.852 265.804 L
348.183 224.984 L
351.515 231.575 L
354.846 283.457 L
358.178 270.997 L
361.509 263.745 L
364.84 232.593 L
368.172 280.45 L
371.503 178.234 L
374.834 275.307 L
378.166 259.71 L
381.497 272.406 L
384.828 252.124 L
388.16 270.055 L
391.491 201.192 L
394.822 182.256 L
398.154 183.872 L
401.485 232.363 L
404.817 213.96 L
408.148 216.326 L
411.479 253.395 L
414.811 222.591 L
418.142 231.816 L
421.473 204.767 L
424.805 226.589 L
428.136 248.209 L
431.467 241.414 L
434.799 243.063 L
438.13 228.196 L
441.462 267.636 L
444.793 247.337 L
448.124 257.319 L
451.456 203.118 L
454.787 251.697 L
458.118 260.287 L
461.45 262.656 L
464.781 263.311 L
468.112 250.317 L
471.444 271.349 L
474.775 265.53 L
478.107 234.767 L
481.438 167.956 L
484.769 269.692 L
488.101 230.389 L
491.432 217.835 L
494.763 242.041 L
498.095 226.88 L
501.426 225.39 L
504.757 220.049 L
508.089 222.692 L
511.42 221.583 L
514.751 260.478 L
518.083 284.591 L
521.414 269.701 L
524.746 283.862 L
528.077 244.155 L
531.408 257.409 L
534.74 231.428 L
538.071 269.043 L
541.402 248.235 L
544.734 261.657 L
548.065 194.145 L
551.396 274.072 L
554.728 202.017 L
558.059 242.2 L
561.391 151.62 L
564.722 193.905 L
568.053 201.313 L
571.385 120.065 L
574.716 40.546 L
578.047 81.681 L
581.379 141.925 L
584.71 270.296 L
588.041 268.11 L
591.373 205.283 L
594.704 188.974 L
598.036 217.017 L
601.367 214.65 L
604.698 239.333 L
608.03 216.472 L
611.361 232.319 L
614.692 140.302 L
618.024 223.624 L
621.355 237.64 L
624.686 213.114 L
628.018 168.489 L
631.349 175.577 L
634.68 183.191 L
638.012 188.675 L
641.343 204.622 L
644.675 143.932 L
648.006 262.521 L
651.337 196.558 L
S
GR
GS
[0.75 0 0 0.75 0 0.5] CT
1 GC
N
/f-999425554{457 92 M
457 58 L
561 58 L
561 92 L
cp}def
f-999425554
f
GR
GS
[0.75 0 0 0.75 378 51.02174] CT
/Helvetica 12 F
GS
[1 0 0 1 0 0] CT
0 4.5 moveto 
1 -1 scale
(Minimum) t 
GR
GR
GS
[0.75 0 0 0.75 0 0.5] CT
[1 3] 0 setdash
2 LJ
0.667 LW
N
461 67.362 M
501 67.362 L
S
GR
GS
[0.75 0 0 0.75 378 62.47826] CT
/Helvetica 12 F
GS
[1 0 0 1 0 0] CT
0 4.5 moveto 
1 -1 scale
(Maximum) t 
GR
GR
GS
[0.75 0 0 0.75 0 0.5] CT
1 LJ
0.667 LW
N
461 82.638 M
501 82.638 L
S
GR
GS
[0.75 0 0 0.75 0 0.5] CT
0.149 GC
10.0 ML
1.333 LW
N
457 92 M
457 58 L
561 58 L
561 92 L
cp
S
GR
%%Trailer
%%Pages: 1
%%EOF
