%!PS-Adobe-3.0 EPSF-3.0
%%Creator: (MATLAB, The Mathworks, Inc. Version 9.2.0.538062 \(R2017a\). Operating System: Linux)
%%Title: (/mnt/data/GRIVE_UCLM/UCLM/MY_WORK/2017/Automatic Model Selection IJF/TablaA22/fig5.eps)
%%CreationDate: 2017-06-07T14:18:41
%%Pages: (atend)
%%BoundingBox: 0 0 428 550
%%LanguageLevel: 3
%%EndComments
%%BeginProlog
%%BeginResource: procset (Apache XML Graphics Std ProcSet) 1.2 0
%%Version: 1.2 0
%%Copyright: (Copyright 2001-2003,2010 The Apache Software Foundation. License terms: http://www.apache.org/licenses/LICENSE-2.0)
/bd{bind def}bind def
/ld{load def}bd
/GR/grestore ld
/M/moveto ld
/LJ/setlinejoin ld
/C/curveto ld
/f/fill ld
/LW/setlinewidth ld
/GC/setgray ld
/t/show ld
/N/newpath ld
/CT/concat ld
/cp/closepath ld
/S/stroke ld
/L/lineto ld
/CC/setcmykcolor ld
/A/ashow ld
/GS/gsave ld
/RC/setrgbcolor ld
/RM/rmoveto ld
/ML/setmiterlimit ld
/re {4 2 roll M
1 index 0 rlineto
0 exch rlineto
neg 0 rlineto
cp } bd
/_ctm matrix def
/_tm matrix def
/BT { _ctm currentmatrix pop matrix _tm copy pop 0 0 moveto } bd
/ET { _ctm setmatrix } bd
/iTm { _ctm setmatrix _tm concat } bd
/Tm { _tm astore pop iTm 0 0 moveto } bd
/ux 0.0 def
/uy 0.0 def
/F {
  /Tp exch def
  /Tf exch def
  Tf findfont Tp scalefont setfont
  /cf Tf def  /cs Tp def
} bd
/ULS {currentpoint /uy exch def /ux exch def} bd
/ULE {
  /Tcx currentpoint pop def
  gsave
  newpath
  cf findfont cs scalefont dup
  /FontMatrix get 0 get /Ts exch def /FontInfo get dup
  /UnderlinePosition get Ts mul /To exch def
  /UnderlineThickness get Ts mul /Tt exch def
  ux uy To add moveto  Tcx uy To add lineto
  Tt setlinewidth stroke
  grestore
} bd
/OLE {
  /Tcx currentpoint pop def
  gsave
  newpath
  cf findfont cs scalefont dup
  /FontMatrix get 0 get /Ts exch def /FontInfo get dup
  /UnderlinePosition get Ts mul /To exch def
  /UnderlineThickness get Ts mul /Tt exch def
  ux uy To add cs add moveto Tcx uy To add cs add lineto
  Tt setlinewidth stroke
  grestore
} bd
/SOE {
  /Tcx currentpoint pop def
  gsave
  newpath
  cf findfont cs scalefont dup
  /FontMatrix get 0 get /Ts exch def /FontInfo get dup
  /UnderlinePosition get Ts mul /To exch def
  /UnderlineThickness get Ts mul /Tt exch def
  ux uy To add cs 10 mul 26 idiv add moveto Tcx uy To add cs 10 mul 26 idiv add lineto
  Tt setlinewidth stroke
  grestore
} bd
/QT {
/Y22 exch store
/X22 exch store
/Y21 exch store
/X21 exch store
currentpoint
/Y21 load 2 mul add 3 div exch
/X21 load 2 mul add 3 div exch
/X21 load 2 mul /X22 load add 3 div
/Y21 load 2 mul /Y22 load add 3 div
/X22 load /Y22 load curveto
} bd
/SSPD {
dup length /d exch dict def
{
/v exch def
/k exch def
currentpagedevice k known {
/cpdv currentpagedevice k get def
v cpdv ne {
/upd false def
/nullv v type /nulltype eq def
/nullcpdv cpdv type /nulltype eq def
nullv nullcpdv or
{
/upd true def
} {
/sametype v type cpdv type eq def
sametype {
v type /arraytype eq {
/vlen v length def
/cpdvlen cpdv length def
vlen cpdvlen eq {
0 1 vlen 1 sub {
/i exch def
/obj v i get def
/cpdobj cpdv i get def
obj cpdobj ne {
/upd true def
exit
} if
} for
} {
/upd true def
} ifelse
} {
v type /dicttype eq {
v {
/dv exch def
/dk exch def
/cpddv cpdv dk get def
dv cpddv ne {
/upd true def
exit
} if
} forall
} {
/upd true def
} ifelse
} ifelse
} if
} ifelse
upd true eq {
d k v put
} if
} if
} if
} forall
d length 0 gt {
d setpagedevice
} if
} bd
/RE { % /NewFontName [NewEncodingArray] /FontName RE -
  findfont dup length dict begin
  {
    1 index /FID ne
    {def} {pop pop} ifelse
  } forall
  /Encoding exch def
  /FontName 1 index def
  currentdict definefont pop
  end
} bind def
%%EndResource
%%BeginResource: procset (Apache XML Graphics EPS ProcSet) 1.0 0
%%Version: 1.0 0
%%Copyright: (Copyright 2002-2003 The Apache Software Foundation. License terms: http://www.apache.org/licenses/LICENSE-2.0)
/BeginEPSF { %def
/b4_Inc_state save def         % Save state for cleanup
/dict_count countdictstack def % Count objects on dict stack
/op_count count 1 sub def      % Count objects on operand stack
userdict begin                 % Push userdict on dict stack
/showpage { } def              % Redefine showpage, { } = null proc
0 setgray 0 setlinecap         % Prepare graphics state
1 setlinewidth 0 setlinejoin
10 setmiterlimit [ ] 0 setdash newpath
/languagelevel where           % If level not equal to 1 then
{pop languagelevel             % set strokeadjust and
1 ne                           % overprint to their defaults.
{false setstrokeadjust false setoverprint
} if
} if
} bd
/EndEPSF { %def
count op_count sub {pop} repeat            % Clean up stacks
countdictstack dict_count sub {end} repeat
b4_Inc_state restore
} bd
%%EndResource
%FOPBeginFontDict
%%IncludeResource: font Courier-Bold
%%IncludeResource: font Helvetica
%%IncludeResource: font Courier-BoldOblique
%%IncludeResource: font Courier-Oblique
%%IncludeResource: font Times-Roman
%%IncludeResource: font Helvetica-BoldOblique
%%IncludeResource: font Helvetica-Bold
%%IncludeResource: font Helvetica-Oblique
%%IncludeResource: font Times-BoldItalic
%%IncludeResource: font Courier
%%IncludeResource: font Times-Italic
%%IncludeResource: font Times-Bold
%%IncludeResource: font Symbol
%%IncludeResource: font ZapfDingbats
%FOPEndFontDict
%%BeginResource: encoding WinAnsiEncoding
/WinAnsiEncoding [
/.notdef /.notdef /.notdef /.notdef /.notdef
/.notdef /.notdef /.notdef /.notdef /.notdef
/.notdef /.notdef /.notdef /.notdef /.notdef
/.notdef /.notdef /.notdef /.notdef /.notdef
/.notdef /.notdef /.notdef /.notdef /.notdef
/.notdef /.notdef /.notdef /.notdef /.notdef
/.notdef /.notdef /space /exclam /quotedbl
/numbersign /dollar /percent /ampersand /quotesingle
/parenleft /parenright /asterisk /plus /comma
/hyphen /period /slash /zero /one
/two /three /four /five /six
/seven /eight /nine /colon /semicolon
/less /equal /greater /question /at
/A /B /C /D /E
/F /G /H /I /J
/K /L /M /N /O
/P /Q /R /S /T
/U /V /W /X /Y
/Z /bracketleft /backslash /bracketright /asciicircum
/underscore /quoteleft /a /b /c
/d /e /f /g /h
/i /j /k /l /m
/n /o /p /q /r
/s /t /u /v /w
/x /y /z /braceleft /bar
/braceright /asciitilde /bullet /Euro /bullet
/quotesinglbase /florin /quotedblbase /ellipsis /dagger
/daggerdbl /circumflex /perthousand /Scaron /guilsinglleft
/OE /bullet /Zcaron /bullet /bullet
/quoteleft /quoteright /quotedblleft /quotedblright /bullet
/endash /emdash /asciitilde /trademark /scaron
/guilsinglright /oe /bullet /zcaron /Ydieresis
/space /exclamdown /cent /sterling /currency
/yen /brokenbar /section /dieresis /copyright
/ordfeminine /guillemotleft /logicalnot /sfthyphen /registered
/macron /degree /plusminus /twosuperior /threesuperior
/acute /mu /paragraph /middot /cedilla
/onesuperior /ordmasculine /guillemotright /onequarter /onehalf
/threequarters /questiondown /Agrave /Aacute /Acircumflex
/Atilde /Adieresis /Aring /AE /Ccedilla
/Egrave /Eacute /Ecircumflex /Edieresis /Igrave
/Iacute /Icircumflex /Idieresis /Eth /Ntilde
/Ograve /Oacute /Ocircumflex /Otilde /Odieresis
/multiply /Oslash /Ugrave /Uacute /Ucircumflex
/Udieresis /Yacute /Thorn /germandbls /agrave
/aacute /acircumflex /atilde /adieresis /aring
/ae /ccedilla /egrave /eacute /ecircumflex
/edieresis /igrave /iacute /icircumflex /idieresis
/eth /ntilde /ograve /oacute /ocircumflex
/otilde /odieresis /divide /oslash /ugrave
/uacute /ucircumflex /udieresis /yacute /thorn
/ydieresis
] def
%%EndResource
%FOPBeginFontReencode
/Courier-Bold findfont
dup length dict begin
  {1 index /FID ne {def} {pop pop} ifelse} forall
  /Encoding WinAnsiEncoding def
  currentdict
end
/Courier-Bold exch definefont pop
/Helvetica findfont
dup length dict begin
  {1 index /FID ne {def} {pop pop} ifelse} forall
  /Encoding WinAnsiEncoding def
  currentdict
end
/Helvetica exch definefont pop
/Courier-BoldOblique findfont
dup length dict begin
  {1 index /FID ne {def} {pop pop} ifelse} forall
  /Encoding WinAnsiEncoding def
  currentdict
end
/Courier-BoldOblique exch definefont pop
/Courier-Oblique findfont
dup length dict begin
  {1 index /FID ne {def} {pop pop} ifelse} forall
  /Encoding WinAnsiEncoding def
  currentdict
end
/Courier-Oblique exch definefont pop
/Times-Roman findfont
dup length dict begin
  {1 index /FID ne {def} {pop pop} ifelse} forall
  /Encoding WinAnsiEncoding def
  currentdict
end
/Times-Roman exch definefont pop
/Helvetica-BoldOblique findfont
dup length dict begin
  {1 index /FID ne {def} {pop pop} ifelse} forall
  /Encoding WinAnsiEncoding def
  currentdict
end
/Helvetica-BoldOblique exch definefont pop
/Helvetica-Bold findfont
dup length dict begin
  {1 index /FID ne {def} {pop pop} ifelse} forall
  /Encoding WinAnsiEncoding def
  currentdict
end
/Helvetica-Bold exch definefont pop
/Helvetica-Oblique findfont
dup length dict begin
  {1 index /FID ne {def} {pop pop} ifelse} forall
  /Encoding WinAnsiEncoding def
  currentdict
end
/Helvetica-Oblique exch definefont pop
/Times-BoldItalic findfont
dup length dict begin
  {1 index /FID ne {def} {pop pop} ifelse} forall
  /Encoding WinAnsiEncoding def
  currentdict
end
/Times-BoldItalic exch definefont pop
/Courier findfont
dup length dict begin
  {1 index /FID ne {def} {pop pop} ifelse} forall
  /Encoding WinAnsiEncoding def
  currentdict
end
/Courier exch definefont pop
/Times-Italic findfont
dup length dict begin
  {1 index /FID ne {def} {pop pop} ifelse} forall
  /Encoding WinAnsiEncoding def
  currentdict
end
/Times-Italic exch definefont pop
/Times-Bold findfont
dup length dict begin
  {1 index /FID ne {def} {pop pop} ifelse} forall
  /Encoding WinAnsiEncoding def
  currentdict
end
/Times-Bold exch definefont pop
%FOPEndFontReencode
%%EndProlog
%%Page: 1 1
%%PageBoundingBox: 0 0 428 550
%%BeginPageSetup
[1 0 0 -1 0 550] CT
%%EndPageSetup
GS
[0.75 0 0 0.75 0 0.25] CT
N
0 0 M
570 0 L
570 733 L
0 733 L
0 0 L
cp
clip
1 GC
N
0 0 570 733 re
f
GR
GS
[0.75 0 0 0.75 0 0.25] CT
1 GC
N
0 0 570 733 re
f
GR
GS
[0.75 0 0 0.75 0 0.25] CT
1 GC
N
57 249 M
542 249 L
542 66 L
57 66 L
cp
f
GR
GS
[0.75 0 0 0.75 0 0.25] CT
0.149 GC
2 setlinecap
1 LJ
1.333 LW
N
57 249 M
542 249 L
S
GR
GS
[0.75 0 0 0.75 0 0.25] CT
0.149 GC
2 setlinecap
1 LJ
1.333 LW
N
57 66 M
542 66 L
S
GR
GS
[0.75 0 0 0.75 0 0.25] CT
0.149 GC
2 setlinecap
1 LJ
1.333 LW
N
119.667 249 M
119.667 244.15 L
S
GR
GS
[0.75 0 0 0.75 0 0.25] CT
0.149 GC
2 setlinecap
1 LJ
1.333 LW
N
184.333 249 M
184.333 244.15 L
S
GR
GS
[0.75 0 0 0.75 0 0.25] CT
0.149 GC
2 setlinecap
1 LJ
1.333 LW
N
249 249 M
249 244.15 L
S
GR
GS
[0.75 0 0 0.75 0 0.25] CT
0.149 GC
2 setlinecap
1 LJ
1.333 LW
N
313.667 249 M
313.667 244.15 L
S
GR
GS
[0.75 0 0 0.75 0 0.25] CT
0.149 GC
2 setlinecap
1 LJ
1.333 LW
N
378.333 249 M
378.333 244.15 L
S
GR
GS
[0.75 0 0 0.75 0 0.25] CT
0.149 GC
2 setlinecap
1 LJ
1.333 LW
N
443 249 M
443 244.15 L
S
GR
GS
[0.75 0 0 0.75 0 0.25] CT
0.149 GC
2 setlinecap
1 LJ
1.333 LW
N
507.667 249 M
507.667 244.15 L
S
GR
GS
[0.75 0 0 0.75 0 0.25] CT
0.149 GC
2 setlinecap
1 LJ
1.333 LW
N
119.667 66 M
119.667 70.85 L
S
GR
GS
[0.75 0 0 0.75 0 0.25] CT
0.149 GC
2 setlinecap
1 LJ
1.333 LW
N
184.333 66 M
184.333 70.85 L
S
GR
GS
[0.75 0 0 0.75 0 0.25] CT
0.149 GC
2 setlinecap
1 LJ
1.333 LW
N
249 66 M
249 70.85 L
S
GR
GS
[0.75 0 0 0.75 0 0.25] CT
0.149 GC
2 setlinecap
1 LJ
1.333 LW
N
313.667 66 M
313.667 70.85 L
S
GR
GS
[0.75 0 0 0.75 0 0.25] CT
0.149 GC
2 setlinecap
1 LJ
1.333 LW
N
378.333 66 M
378.333 70.85 L
S
GR
GS
[0.75 0 0 0.75 0 0.25] CT
0.149 GC
2 setlinecap
1 LJ
1.333 LW
N
443 66 M
443 70.85 L
S
GR
GS
[0.75 0 0 0.75 0 0.25] CT
0.149 GC
2 setlinecap
1 LJ
1.333 LW
N
507.667 66 M
507.667 70.85 L
S
GR
GS
[0.75 0 0 0.75 0 0.25] CT
0.149 GC
2 setlinecap
1 LJ
1.333 LW
N
57 249 M
57 66 L
S
GR
GS
[0.75 0 0 0.75 0 0.25] CT
0.149 GC
2 setlinecap
1 LJ
1.333 LW
N
542 249 M
542 66 L
S
GR
GS
[0.75 0 0 0.75 0 0.25] CT
0.149 GC
2 setlinecap
1 LJ
1.333 LW
N
57 225.119 M
61.85 225.119 L
S
GR
GS
[0.75 0 0 0.75 0 0.25] CT
0.149 GC
2 setlinecap
1 LJ
1.333 LW
N
57 190.262 M
61.85 190.262 L
S
GR
GS
[0.75 0 0 0.75 0 0.25] CT
0.149 GC
2 setlinecap
1 LJ
1.333 LW
N
57 155.405 M
61.85 155.405 L
S
GR
GS
[0.75 0 0 0.75 0 0.25] CT
0.149 GC
2 setlinecap
1 LJ
1.333 LW
N
57 120.548 M
61.85 120.548 L
S
GR
GS
[0.75 0 0 0.75 0 0.25] CT
0.149 GC
2 setlinecap
1 LJ
1.333 LW
N
57 85.69 M
61.85 85.69 L
S
GR
GS
[0.75 0 0 0.75 0 0.25] CT
0.149 GC
2 setlinecap
1 LJ
1.333 LW
N
542 225.119 M
537.15 225.119 L
S
GR
GS
[0.75 0 0 0.75 0 0.25] CT
0.149 GC
2 setlinecap
1 LJ
1.333 LW
N
542 190.262 M
537.15 190.262 L
S
GR
GS
[0.75 0 0 0.75 0 0.25] CT
0.149 GC
2 setlinecap
1 LJ
1.333 LW
N
542 155.405 M
537.15 155.405 L
S
GR
GS
[0.75 0 0 0.75 0 0.25] CT
0.149 GC
2 setlinecap
1 LJ
1.333 LW
N
542 120.548 M
537.15 120.548 L
S
GR
GS
[0.75 0 0 0.75 0 0.25] CT
0.149 GC
2 setlinecap
1 LJ
1.333 LW
N
542 85.69 M
537.15 85.69 L
S
GR
GS
[0.75 0 0 0.75 38.75 169.08929] CT
0.149 GC
/Helvetica 13.333 F
GS
[1 0 0 1 0 0] CT
-26 5 moveto 
1 -1 scale
(0.22) t 
GR
GR
GS
[0.75 0 0 0.75 38.75 142.94644] CT
0.149 GC
/Helvetica 13.333 F
GS
[1 0 0 1 0 0] CT
-26 5 moveto 
1 -1 scale
(0.24) t 
GR
GR
GS
[0.75 0 0 0.75 38.75 116.80359] CT
0.149 GC
/Helvetica 13.333 F
GS
[1 0 0 1 0 0] CT
-26 5 moveto 
1 -1 scale
(0.26) t 
GR
GR
GS
[0.75 0 0 0.75 38.75 90.66071] CT
0.149 GC
/Helvetica 13.333 F
GS
[1 0 0 1 0 0] CT
-26 5 moveto 
1 -1 scale
(0.28) t 
GR
GR
GS
[0.75 0 0 0.75 38.75 64.51784] CT
0.149 GC
/Helvetica 13.333 F
GS
[1 0 0 1 0 0] CT
-19 5 moveto 
1 -1 scale
(0.3) t 
GR
GR
GS
[0 -0.75 0.75 0 16.25 118.37494] CT
0.149 GC
/Helvetica 14.667 F
GS
[1 0 0 1 0 0] CT
-25 -4 moveto 
1 -1 scale
(Median) t 
GR
GR
GS
[0.75 0 0 0.75 0 0.25] CT
1 LJ
0.667 LW
N
87.333 232.455 M
119.667 175.104 L
152 146.335 L
184.333 128.885 L
216.667 114.478 L
249 106.911 L
281.333 103.645 L
313.667 97.413 L
346 93.988 L
378.333 92.294 L
410.667 91.025 L
443 88.928 L
475.333 87.601 L
507.667 86.661 L
S
GR
GS
[0.75 0 0 0.75 65.5 174.59155] CT
N
1.333 0 M
1.333 0.736 0.736 1.333 0 1.333 C
-0.736 1.333 -1.333 0.736 -1.333 0 C
-1.333 -0.736 -0.736 -1.333 0 -1.333 C
0.736 -1.333 1.333 -0.736 1.333 0 C
cp
f
GR
GS
[0.75 0 0 0.75 89.75 131.57825] CT
N
/f-1057828618{1.333 0 M
1.333 0.736 0.736 1.333 0 1.333 C
-0.736 1.333 -1.333 0.736 -1.333 0 C
-1.333 -0.736 -0.736 -1.333 0 -1.333 C
0.736 -1.333 1.333 -0.736 1.333 0 C
cp}def
f-1057828618
f
GR
GS
[0.75 0 0 0.75 114 110.00091] CT
N
f-1057828618
f
GR
GS
[0.75 0 0 0.75 138.25 96.91353] CT
N
f-1057828618
f
GR
GS
[0.75 0 0 0.75 162.5 86.10884] CT
N
f-1057828618
f
GR
GS
[0.75 0 0 0.75 186.75 80.43288] CT
N
f-1057828618
f
GR
GS
[0.75 0 0 0.75 211.00001 77.98357] CT
N
f-1057828618
f
GR
GS
[0.75 0 0 0.75 235.24999 73.30988] CT
N
f-1057828618
f
GR
GS
[0.75 0 0 0.75 259.5 70.74104] CT
N
f-1057828618
f
GR
GS
[0.75 0 0 0.75 283.75001 69.4703] CT
N
f-1057828618
f
GR
GS
[0.75 0 0 0.75 307.99999 68.51853] CT
N
f-1057828618
f
GR
GS
[0.75 0 0 0.75 332.25 66.94616] CT
N
f-1057828618
f
GR
GS
[0.75 0 0 0.75 356.50001 65.95087] CT
N
f-1057828618
f
GR
GS
[0.75 0 0 0.75 380.74999 65.246] CT
N
f-1057828618
f
GR
GS
[0.75 0 0 0.75 0 0.25] CT
[1 3] 0 setdash
2 LJ
0.667 LW
N
87.333 193.41 M
119.667 134.175 L
152 106.69 L
184.333 89.377 L
216.667 79.056 L
249 69.416 L
277.546 65.978 L
S
GR
GS
[0.75 0 0 0.75 0 0.25] CT
[10 6] 0 setdash
2 LJ
0.667 LW
N
87.333 227.103 M
119.667 167.532 L
152 142.859 L
184.333 121.993 L
216.667 106.976 L
249 101.302 L
281.333 97.334 L
313.667 94.903 L
346 90.458 L
378.333 89.002 L
410.667 87.733 L
443 83.58 L
475.333 82.988 L
507.667 82.713 L
S
GR
GS
[0.75 0 0 0.75 0 0.25] CT
1 LJ
0.667 LW
N
87.333 240.681 M
119.667 185.339 L
152 155.964 L
184.333 140.467 L
216.667 127.179 L
249 118.727 L
281.333 114.536 L
313.667 109.53 L
346 106.829 L
378.333 102.345 L
410.667 101.09 L
443 99.132 L
475.333 97.893 L
507.667 96.632 L
S
GR
GS
[0.75 0 0 0.75 65.5 180.76086] CT
10.0 ML
N
0 -4 M
0 4 L
-4 0 M
4 0 L
-2.828 -2.828 M
2.828 2.828 L
-2.828 2.828 M
2.828 -2.828 L
S
GR
GS
[0.75 0 0 0.75 89.75 139.25392] CT
10.0 ML
N
0 -4 M
0 4 L
-4 0 M
4 0 L
-2.828 -2.828 M
2.828 2.828 L
-2.828 2.828 M
2.828 -2.828 L
S
GR
GS
[0.75 0 0 0.75 114 117.22322] CT
10.0 ML
N
0 -4 M
0 4 L
-4 0 M
4 0 L
-2.828 -2.828 M
2.828 2.828 L
-2.828 2.828 M
2.828 -2.828 L
S
GR
GS
[0.75 0 0 0.75 138.25 105.60014] CT
10.0 ML
N
0 -4 M
0 4 L
-4 0 M
4 0 L
-2.828 -2.828 M
2.828 2.828 L
-2.828 2.828 M
2.828 -2.828 L
S
GR
GS
[0.75 0 0 0.75 162.5 95.6339] CT
10.0 ML
N
0 -4 M
0 4 L
-4 0 M
4 0 L
-2.828 -2.828 M
2.828 2.828 L
-2.828 2.828 M
2.828 -2.828 L
S
GR
GS
[0.75 0 0 0.75 186.75 89.29551] CT
10.0 ML
N
0 -4 M
0 4 L
-4 0 M
4 0 L
-2.828 -2.828 M
2.828 2.828 L
-2.828 2.828 M
2.828 -2.828 L
S
GR
GS
[0.75 0 0 0.75 211.00001 86.152] CT
10.0 ML
N
0 -4 M
0 4 L
-4 0 M
4 0 L
-2.828 -2.828 M
2.828 2.828 L
-2.828 2.828 M
2.828 -2.828 L
S
GR
GS
[0.75 0 0 0.75 235.24999 82.39716] CT
10.0 ML
N
0 -4 M
0 4 L
-4 0 M
4 0 L
-2.828 -2.828 M
2.828 2.828 L
-2.828 2.828 M
2.828 -2.828 L
S
GR
GS
[0.75 0 0 0.75 259.5 80.37184] CT
10.0 ML
N
0 -4 M
0 4 L
-4 0 M
4 0 L
-2.828 -2.828 M
2.828 2.828 L
-2.828 2.828 M
2.828 -2.828 L
S
GR
GS
[0.75 0 0 0.75 283.75001 77.00858] CT
10.0 ML
N
0 -4 M
0 4 L
-4 0 M
4 0 L
-2.828 -2.828 M
2.828 2.828 L
-2.828 2.828 M
2.828 -2.828 L
S
GR
GS
[0.75 0 0 0.75 307.99999 76.06772] CT
10.0 ML
N
0 -4 M
0 4 L
-4 0 M
4 0 L
-2.828 -2.828 M
2.828 2.828 L
-2.828 2.828 M
2.828 -2.828 L
S
GR
GS
[0.75 0 0 0.75 332.25 74.59869] CT
10.0 ML
N
0 -4 M
0 4 L
-4 0 M
4 0 L
-2.828 -2.828 M
2.828 2.828 L
-2.828 2.828 M
2.828 -2.828 L
S
GR
GS
[0.75 0 0 0.75 356.50001 73.6694] CT
10.0 ML
N
0 -4 M
0 4 L
-4 0 M
4 0 L
-2.828 -2.828 M
2.828 2.828 L
-2.828 2.828 M
2.828 -2.828 L
S
GR
GS
[0.75 0 0 0.75 380.74999 72.72398] CT
10.0 ML
N
0 -4 M
0 4 L
-4 0 M
4 0 L
-2.828 -2.828 M
2.828 2.828 L
-2.828 2.828 M
2.828 -2.828 L
S
GR
GS
[0.75 0 0 0.75 0 0.25] CT
1 LJ
0.667 LW
N
87.333 237.02 M
119.667 178.355 L
152 151.445 L
184.333 134.763 L
216.667 121.94 L
249 112.303 L
281.333 108.979 L
313.667 106.278 L
346 101.727 L
378.333 97.389 L
410.667 93.083 L
443 91.524 L
475.333 90.396 L
507.667 91.309 L
S
GR
GS
[0.75 0 0 0.75 0 0.25] CT
[8 3 2 3] 0 setdash
2 LJ
0.667 LW
N
87.333 236.106 M
119.667 179.463 L
152 153.985 L
184.333 135.421 L
216.667 124.361 L
249 113.647 L
281.333 110.439 L
313.667 107.484 L
346 102.716 L
378.333 99.315 L
410.667 97.959 L
443 94.335 L
475.333 94.056 L
507.667 93.753 L
S
GR
GS
[0.75 0 0 0.75 0 0.25] CT
1 GC
N
57 454 M
542 454 L
542 271 L
57 271 L
cp
f
GR
GS
[0.75 0 0 0.75 0 0.25] CT
0.149 GC
2 setlinecap
1 LJ
1.333 LW
N
57 454 M
542 454 L
S
GR
GS
[0.75 0 0 0.75 0 0.25] CT
0.149 GC
2 setlinecap
1 LJ
1.333 LW
N
57 271 M
542 271 L
S
GR
GS
[0.75 0 0 0.75 0 0.25] CT
0.149 GC
2 setlinecap
1 LJ
1.333 LW
N
120.667 454 M
120.667 449.15 L
S
GR
GS
[0.75 0 0 0.75 0 0.25] CT
0.149 GC
2 setlinecap
1 LJ
1.333 LW
N
185.333 454 M
185.333 449.15 L
S
GR
GS
[0.75 0 0 0.75 0 0.25] CT
0.149 GC
2 setlinecap
1 LJ
1.333 LW
N
250 454 M
250 449.15 L
S
GR
GS
[0.75 0 0 0.75 0 0.25] CT
0.149 GC
2 setlinecap
1 LJ
1.333 LW
N
314.667 454 M
314.667 449.15 L
S
GR
GS
[0.75 0 0 0.75 0 0.25] CT
0.149 GC
2 setlinecap
1 LJ
1.333 LW
N
379.333 454 M
379.333 449.15 L
S
GR
GS
[0.75 0 0 0.75 0 0.25] CT
0.149 GC
2 setlinecap
1 LJ
1.333 LW
N
444 454 M
444 449.15 L
S
GR
GS
[0.75 0 0 0.75 0 0.25] CT
0.149 GC
2 setlinecap
1 LJ
1.333 LW
N
508.667 454 M
508.667 449.15 L
S
GR
GS
[0.75 0 0 0.75 0 0.25] CT
0.149 GC
2 setlinecap
1 LJ
1.333 LW
N
120.667 271 M
120.667 275.85 L
S
GR
GS
[0.75 0 0 0.75 0 0.25] CT
0.149 GC
2 setlinecap
1 LJ
1.333 LW
N
185.333 271 M
185.333 275.85 L
S
GR
GS
[0.75 0 0 0.75 0 0.25] CT
0.149 GC
2 setlinecap
1 LJ
1.333 LW
N
250 271 M
250 275.85 L
S
GR
GS
[0.75 0 0 0.75 0 0.25] CT
0.149 GC
2 setlinecap
1 LJ
1.333 LW
N
314.667 271 M
314.667 275.85 L
S
GR
GS
[0.75 0 0 0.75 0 0.25] CT
0.149 GC
2 setlinecap
1 LJ
1.333 LW
N
379.333 271 M
379.333 275.85 L
S
GR
GS
[0.75 0 0 0.75 0 0.25] CT
0.149 GC
2 setlinecap
1 LJ
1.333 LW
N
444 271 M
444 275.85 L
S
GR
GS
[0.75 0 0 0.75 0 0.25] CT
0.149 GC
2 setlinecap
1 LJ
1.333 LW
N
508.667 271 M
508.667 275.85 L
S
GR
GS
[0.75 0 0 0.75 90.5 344.74998] CT
0.149 GC
/Helvetica 13.333 F
GS
[1 0 0 1 0 0] CT
-4 13 moveto 
1 -1 scale
(2) t 
GR
GR
GS
[0.75 0 0 0.75 139 344.74998] CT
0.149 GC
/Helvetica 13.333 F
GS
[1 0 0 1 0 0] CT
-4 13 moveto 
1 -1 scale
(4) t 
GR
GR
GS
[0.75 0 0 0.75 187.5 344.74998] CT
0.149 GC
/Helvetica 13.333 F
GS
[1 0 0 1 0 0] CT
-4 13 moveto 
1 -1 scale
(6) t 
GR
GR
GS
[0.75 0 0 0.75 235.99999 344.74998] CT
0.149 GC
/Helvetica 13.333 F
GS
[1 0 0 1 0 0] CT
-4 13 moveto 
1 -1 scale
(8) t 
GR
GR
GS
[0.75 0 0 0.75 284.50001 344.74998] CT
0.149 GC
/Helvetica 13.333 F
GS
[1 0 0 1 0 0] CT
-7.5 13 moveto 
1 -1 scale
(10) t 
GR
GR
GS
[0.75 0 0 0.75 333 344.74998] CT
0.149 GC
/Helvetica 13.333 F
GS
[1 0 0 1 0 0] CT
-7.5 13 moveto 
1 -1 scale
(12) t 
GR
GR
GS
[0.75 0 0 0.75 381.49999 344.74998] CT
0.149 GC
/Helvetica 13.333 F
GS
[1 0 0 1 0 0] CT
-7.5 13 moveto 
1 -1 scale
(14) t 
GR
GR
GS
[0.75 0 0 0.75 224.62516 357.74999] CT
0.149 GC
/Helvetica 14.667 F
GS
[1 0 0 1 0 0] CT
-26 14 moveto 
1 -1 scale
(Horizon) t 
GR
GR
GS
[0.75 0 0 0.75 0 0.25] CT
0.149 GC
2 setlinecap
1 LJ
1.333 LW
N
57 454 M
57 271 L
S
GR
GS
[0.75 0 0 0.75 0 0.25] CT
0.149 GC
2 setlinecap
1 LJ
1.333 LW
N
542 454 M
542 271 L
S
GR
GS
[0.75 0 0 0.75 0 0.25] CT
0.149 GC
2 setlinecap
1 LJ
1.333 LW
N
57 453 M
61.85 453 L
S
GR
GS
[0.75 0 0 0.75 0 0.25] CT
0.149 GC
2 setlinecap
1 LJ
1.333 LW
N
57 426.857 M
61.85 426.857 L
S
GR
GS
[0.75 0 0 0.75 0 0.25] CT
0.149 GC
2 setlinecap
1 LJ
1.333 LW
N
57 400.714 M
61.85 400.714 L
S
GR
GS
[0.75 0 0 0.75 0 0.25] CT
0.149 GC
2 setlinecap
1 LJ
1.333 LW
N
57 374.571 M
61.85 374.571 L
S
GR
GS
[0.75 0 0 0.75 0 0.25] CT
0.149 GC
2 setlinecap
1 LJ
1.333 LW
N
57 348.429 M
61.85 348.429 L
S
GR
GS
[0.75 0 0 0.75 0 0.25] CT
0.149 GC
2 setlinecap
1 LJ
1.333 LW
N
57 322.286 M
61.85 322.286 L
S
GR
GS
[0.75 0 0 0.75 0 0.25] CT
0.149 GC
2 setlinecap
1 LJ
1.333 LW
N
57 296.143 M
61.85 296.143 L
S
GR
GS
[0.75 0 0 0.75 0 0.25] CT
0.149 GC
2 setlinecap
1 LJ
1.333 LW
N
542 453 M
537.15 453 L
S
GR
GS
[0.75 0 0 0.75 0 0.25] CT
0.149 GC
2 setlinecap
1 LJ
1.333 LW
N
542 426.857 M
537.15 426.857 L
S
GR
GS
[0.75 0 0 0.75 0 0.25] CT
0.149 GC
2 setlinecap
1 LJ
1.333 LW
N
542 400.714 M
537.15 400.714 L
S
GR
GS
[0.75 0 0 0.75 0 0.25] CT
0.149 GC
2 setlinecap
1 LJ
1.333 LW
N
542 374.571 M
537.15 374.571 L
S
GR
GS
[0.75 0 0 0.75 0 0.25] CT
0.149 GC
2 setlinecap
1 LJ
1.333 LW
N
542 348.429 M
537.15 348.429 L
S
GR
GS
[0.75 0 0 0.75 0 0.25] CT
0.149 GC
2 setlinecap
1 LJ
1.333 LW
N
542 322.286 M
537.15 322.286 L
S
GR
GS
[0.75 0 0 0.75 0 0.25] CT
0.149 GC
2 setlinecap
1 LJ
1.333 LW
N
542 296.143 M
537.15 296.143 L
S
GR
GS
[0.75 0 0 0.75 38.75 340] CT
0.149 GC
/Helvetica 13.333 F
GS
[1 0 0 1 0 0] CT
-26 5 moveto 
1 -1 scale
(0.41) t 
GR
GR
GS
[0.75 0 0 0.75 38.75 320.39288] CT
0.149 GC
/Helvetica 13.333 F
GS
[1 0 0 1 0 0] CT
-26 5 moveto 
1 -1 scale
(0.42) t 
GR
GR
GS
[0.75 0 0 0.75 38.75 300.7857] CT
0.149 GC
/Helvetica 13.333 F
GS
[1 0 0 1 0 0] CT
-26 5 moveto 
1 -1 scale
(0.43) t 
GR
GR
GS
[0.75 0 0 0.75 38.75 281.17858] CT
0.149 GC
/Helvetica 13.333 F
GS
[1 0 0 1 0 0] CT
-26 5 moveto 
1 -1 scale
(0.44) t 
GR
GR
GS
[0.75 0 0 0.75 38.75 261.57144] CT
0.149 GC
/Helvetica 13.333 F
GS
[1 0 0 1 0 0] CT
-26 5 moveto 
1 -1 scale
(0.45) t 
GR
GR
GS
[0.75 0 0 0.75 38.75 241.96428] CT
0.149 GC
/Helvetica 13.333 F
GS
[1 0 0 1 0 0] CT
-26 5 moveto 
1 -1 scale
(0.46) t 
GR
GR
GS
[0.75 0 0 0.75 38.75 222.35714] CT
0.149 GC
/Helvetica 13.333 F
GS
[1 0 0 1 0 0] CT
-26 5 moveto 
1 -1 scale
(0.47) t 
GR
GR
GS
[0 -0.75 0.75 0 16.25 272.12495] CT
0.149 GC
/Helvetica 14.667 F
GS
[1 0 0 1 0 0] CT
-50 -4 moveto 
1 -1 scale
(75% percentile) t 
GR
GR
GS
[0.75 0 0 0.75 0 0.25] CT
1 LJ
0.667 LW
N
88.333 402.183 M
120.667 391.599 L
153 392.003 L
185.333 398.505 L
217.667 394.157 L
250 393.818 L
282.333 385.511 L
314.667 383.263 L
347 381.168 L
379.333 376.351 L
411.667 376.444 L
444 376.457 L
476.333 377.135 L
508.667 376.707 L
S
GR
GS
[0.75 0 0 0.75 66.25 301.88731] CT
N
f-1057828618
f
GR
GS
[0.75 0 0 0.75 90.5 293.94918] CT
N
f-1057828618
f
GR
GS
[0.75 0 0 0.75 114.75 294.25256] CT
N
f-1057828618
f
GR
GS
[0.75 0 0 0.75 139 299.12846] CT
N
f-1057828618
f
GR
GS
[0.75 0 0 0.75 163.25 295.86762] CT
N
f-1057828618
f
GR
GS
[0.75 0 0 0.75 187.5 295.61324] CT
N
f-1057828618
f
GR
GS
[0.75 0 0 0.75 211.75001 289.38292] CT
N
f-1057828618
f
GR
GS
[0.75 0 0 0.75 235.99999 287.69716] CT
N
f-1057828618
f
GR
GS
[0.75 0 0 0.75 260.25 286.12589] CT
N
f-1057828618
f
GR
GS
[0.75 0 0 0.75 284.50001 282.51303] CT
N
f-1057828618
f
GR
GS
[0.75 0 0 0.75 308.74999 282.58263] CT
N
f-1057828618
f
GR
GS
[0.75 0 0 0.75 333 282.5928] CT
N
f-1057828618
f
GR
GS
[0.75 0 0 0.75 357.25001 283.10098] CT
N
f-1057828618
f
GR
GS
[0.75 0 0 0.75 381.49999 282.78025] CT
N
f-1057828618
f
GR
GS
[0.75 0 0 0.75 0 0.25] CT
[1 3] 0 setdash
2 LJ
0.667 LW
N
88.333 323.887 M
120.667 318.43 L
153 313.938 L
185.333 312.425 L
217.667 306.266 L
250 308.228 L
282.333 303.19 L
314.667 295.24 L
347 293.544 L
379.333 286.033 L
411.667 286.908 L
444 286.12 L
476.333 285.944 L
508.667 284.556 L
S
GR
GS
[0.75 0 0 0.75 0 0.25] CT
[10 6] 0 setdash
2 LJ
0.667 LW
N
88.333 374.595 M
120.667 361.069 L
153 353.55 L
185.333 358.309 L
217.667 365.962 L
250 367.863 L
282.333 368.252 L
314.667 361.324 L
347 352.969 L
379.333 349.567 L
411.667 349.1 L
444 351.644 L
476.333 351.074 L
508.667 347.85 L
S
GR
GS
[0.75 0 0 0.75 0 0.25] CT
1 LJ
0.667 LW
N
88.333 422.729 M
120.667 414.342 L
153 408.677 L
185.333 414.214 L
217.667 416.748 L
250 423.822 L
282.333 416.302 L
314.667 414.468 L
347 411.454 L
379.333 407.953 L
411.667 403.298 L
444 401.176 L
476.333 402.076 L
508.667 400.4 L
S
GR
GS
[0.75 0 0 0.75 66.25 317.29648] CT
10.0 ML
N
0 -4 M
0 4 L
-4 0 M
4 0 L
-2.828 -2.828 M
2.828 2.828 L
-2.828 2.828 M
2.828 -2.828 L
S
GR
GS
[0.75 0 0 0.75 90.5 311.00678] CT
10.0 ML
N
0 -4 M
0 4 L
-4 0 M
4 0 L
-2.828 -2.828 M
2.828 2.828 L
-2.828 2.828 M
2.828 -2.828 L
S
GR
GS
[0.75 0 0 0.75 114.75 306.75771] CT
10.0 ML
N
0 -4 M
0 4 L
-4 0 M
4 0 L
-2.828 -2.828 M
2.828 2.828 L
-2.828 2.828 M
2.828 -2.828 L
S
GR
GS
[0.75 0 0 0.75 139 310.91013] CT
10.0 ML
N
0 -4 M
0 4 L
-4 0 M
4 0 L
-2.828 -2.828 M
2.828 2.828 L
-2.828 2.828 M
2.828 -2.828 L
S
GR
GS
[0.75 0 0 0.75 163.25 312.81122] CT
10.0 ML
N
0 -4 M
0 4 L
-4 0 M
4 0 L
-2.828 -2.828 M
2.828 2.828 L
-2.828 2.828 M
2.828 -2.828 L
S
GR
GS
[0.75 0 0 0.75 187.5 318.11631] CT
10.0 ML
N
0 -4 M
0 4 L
-4 0 M
4 0 L
-2.828 -2.828 M
2.828 2.828 L
-2.828 2.828 M
2.828 -2.828 L
S
GR
GS
[0.75 0 0 0.75 211.75001 312.47684] CT
10.0 ML
N
0 -4 M
0 4 L
-4 0 M
4 0 L
-2.828 -2.828 M
2.828 2.828 L
-2.828 2.828 M
2.828 -2.828 L
S
GR
GS
[0.75 0 0 0.75 235.99999 311.10067] CT
10.0 ML
N
0 -4 M
0 4 L
-4 0 M
4 0 L
-2.828 -2.828 M
2.828 2.828 L
-2.828 2.828 M
2.828 -2.828 L
S
GR
GS
[0.75 0 0 0.75 260.25 308.84039] CT
10.0 ML
N
0 -4 M
0 4 L
-4 0 M
4 0 L
-2.828 -2.828 M
2.828 2.828 L
-2.828 2.828 M
2.828 -2.828 L
S
GR
GS
[0.75 0 0 0.75 284.50001 306.2145] CT
10.0 ML
N
0 -4 M
0 4 L
-4 0 M
4 0 L
-2.828 -2.828 M
2.828 2.828 L
-2.828 2.828 M
2.828 -2.828 L
S
GR
GS
[0.75 0 0 0.75 308.74999 302.72355] CT
10.0 ML
N
0 -4 M
0 4 L
-4 0 M
4 0 L
-2.828 -2.828 M
2.828 2.828 L
-2.828 2.828 M
2.828 -2.828 L
S
GR
GS
[0.75 0 0 0.75 333 301.13197] CT
10.0 ML
N
0 -4 M
0 4 L
-4 0 M
4 0 L
-2.828 -2.828 M
2.828 2.828 L
-2.828 2.828 M
2.828 -2.828 L
S
GR
GS
[0.75 0 0 0.75 357.25001 301.80713] CT
10.0 ML
N
0 -4 M
0 4 L
-4 0 M
4 0 L
-2.828 -2.828 M
2.828 2.828 L
-2.828 2.828 M
2.828 -2.828 L
S
GR
GS
[0.75 0 0 0.75 381.49999 300.54963] CT
10.0 ML
N
0 -4 M
0 4 L
-4 0 M
4 0 L
-2.828 -2.828 M
2.828 2.828 L
-2.828 2.828 M
2.828 -2.828 L
S
GR
GS
[0.75 0 0 0.75 0 0.25] CT
1 LJ
0.667 LW
N
88.333 416.927 M
120.667 408.232 L
153 400.949 L
185.333 405.657 L
217.667 411.369 L
250 411.672 L
282.333 402.907 L
314.667 396.879 L
347 391.784 L
379.333 390.007 L
411.667 388.178 L
444 390.983 L
476.333 387.951 L
508.667 387.357 L
S
GR
GS
[0.75 0 0 0.75 0 0.25] CT
[8 3 2 3] 0 setdash
2 LJ
0.667 LW
N
88.333 422.138 M
120.667 405.976 L
153 403.133 L
185.333 408.929 L
217.667 410.717 L
250 412.264 L
282.333 406.227 L
314.667 400.876 L
347 393.992 L
379.333 390.646 L
411.667 389.189 L
444 392.074 L
476.333 390.182 L
508.667 387.427 L
S
GR
GS
[0.75 0 0 0.75 0 0.25] CT
1 GC
N
394 217 M
394 120 L
485 120 L
485 217 L
cp
f
GR
GS
[0.75 0 0 0.75 330.75 97.41192] CT
/Helvetica 12 F
GS
[1 0 0 1 0 0] CT
0 4.5 moveto 
1 -1 scale
(ARIMA) t 
GR
GR
GS
[0.75 0 0 0.75 0 0.25] CT
1 LJ
0.667 LW
N
398 129.549 M
438 129.549 L
S
GR
GS
[0.75 0 0 0.75 313.5 97.41192] CT
N
f-1057828618
f
GR
GS
[0.75 0 0 0.75 330.75 109.09715] CT
/Helvetica 12 F
GS
[1 0 0 1 0 0] CT
0 4.5 moveto 
1 -1 scale
(AR) t 
GR
GR
GS
[0.75 0 0 0.75 0 0.25] CT
[1 3] 0 setdash
2 LJ
0.667 LW
N
398 145.13 M
438 145.13 L
S
GR
GS
[0.75 0 0 0.75 330.75 120.78238] CT
/Helvetica 12 F
GS
[1 0 0 1 0 0] CT
0 4.5 moveto 
1 -1 scale
(ETS) t 
GR
GR
GS
[0.75 0 0 0.75 0 0.25] CT
[10 6] 0 setdash
2 LJ
0.667 LW
N
398 160.71 M
438 160.71 L
S
GR
GS
[0.75 0 0 0.75 330.75 132.46762] CT
/Helvetica 12 F
GS
[1 0 0 1 0 0] CT
0 4.5 moveto 
1 -1 scale
(UC) t 
GR
GR
GS
[0.75 0 0 0.75 0 0.25] CT
1 LJ
0.667 LW
N
398 176.29 M
438 176.29 L
S
GR
GS
[0.75 0 0 0.75 313.5 132.46762] CT
10.0 ML
N
0 -4 M
0 4 L
-4 0 M
4 0 L
-2.828 -2.828 M
2.828 2.828 L
-2.828 2.828 M
2.828 -2.828 L
S
GR
GS
[0.75 0 0 0.75 330.75 144.15285] CT
/Helvetica 12 F
GS
[1 0 0 1 0 0] CT
0 4.5 moveto 
1 -1 scale
(Mean) t 
GR
GR
GS
[0.75 0 0 0.75 0 0.25] CT
1 LJ
0.667 LW
N
398 191.87 M
438 191.87 L
S
GR
GS
[0.75 0 0 0.75 330.75 155.83808] CT
/Helvetica 12 F
GS
[1 0 0 1 0 0] CT
0 4.5 moveto 
1 -1 scale
(Median) t 
GR
GR
GS
[0.75 0 0 0.75 0 0.25] CT
[8 3 2 3] 0 setdash
2 LJ
0.667 LW
N
398 207.451 M
438 207.451 L
S
GR
GS
[0.75 0 0 0.75 0 0.25] CT
0.149 GC
10.0 ML
1.333 LW
N
394 217 M
394 120 L
485 120 L
485 217 L
cp
S
GR
%%Trailer
%%Pages: 1
%%EOF
